eeeeeemmmmeeeee:	chr1:228612595-228612761$1	166	70	86	4.8631
ffffffmmmmffffff	chr6:26033271-26033574$1	303	54	70	10.8944
ffffffmmmmffffff	chr1:149858773-149859342$1	569	546	562	10.8944
ffff[bblllbb]fff	chr12:14923603-14923890$1	287	252	268	6.9529
ffffffmmmmffffff	chr6:26198962-26199530$1	568	54	70	10.8944
b[eeeeellleeeee]	chr6:26272401-26272519$1	118	92	108	4.4215
ffffffmmmmffffff	chr6:27860426-27860816$1	390	55	71	10.8944
ffffffmmmmffffff	chr6:26251828-26252350$1	522	454	470	10.8944
ffffff4444ccc]cc	chr6:26027370-26027494$1	124	84	100	6.4784
ffffffmmmmffffff	chr6:26027073-26027366$1	293	55	71	10.8944
ffffffmmmmffffff	chr1:228646043-228646307$1	264	195	211	10.8944
fff[bbnnnnnbbfff	chr1:120904864-120905000$1	136	87	103	5.4944
ffffffmmmmffffff	chr6:26022037-26022328$1	291	220	236	10.8944
ffffffmmmmffffff	chr6:26199729-26200266$1	537	466	482	10.8944
ffffffmmmmffffff	chr6:26285300-26285795$1	495	58	74	10.8944
ffffff4444ccc22e	chr6:27806403-27806538$1	135	89	105	5.7095
ffffffmmmmffffff	chr6:27114855-27115367$1	512	469	485	10.8944
!!eeeeellleeeee2	chr6:27774987-27775105$1	118	57	73	4.0486
ffffffmmmmffffff	chr6:26204807-26205301$1	494	421	437	10.8944
ffffffmmmmffffff	chr6:27100781-27101365$1	584	512	528	10.8944
bbeeeeellleeeee]	chr6:26021856-26021979$1	123	90	106	4.1091
[eeeeemmmmeeeee2	chr6:26271095-26271400$1	305	142	158	5.8543
gg[cccmmmmcccggg	chr6:27834927-27835120$1	193	80	96	7.0210
ffffffooooooffff	chr6:27831858-27831994$1	136	40	56	8.5824
ffffffmmmmffffff	chr6:26104119-26104568$1	449	425	441	10.8944
ffffffmmmmffffff	chr6:27858042-27858184$1	142	55	71	10.8944
ffffffmmmmffffff	chr6:27776253-27776479$1	226	171	187	10.8944
:fffffflllffffff	chr6:27107074-27107194$1	120	5	21	7.6507
fff!!ammmma22fff	chr6:27106037-27106244$1	207	129	145	7.7570
iiiiiimmmmiiiiii	chr6:27775907-27776052$1	145	78	94	6.1919
ffffffmmmmffffff	chr6:26123601-26124158$1	557	98	114	10.8944
ffffffmmmmffffff	chr6:26046018-26046145$1	127	58	74	10.8944
ffffffmmmmffffff	chr6:27100044-27100591$1	547	55	71	10.8944
ggggggglllgggggg	chr6:26139041-26139217$1	176	44	60	5.7536
ee[cccooooooccc]	chr6:27114444-27114669$1	225	108	124	4.7951
ffffff!!ccc[ffff	chr6:27834519-27834878$1	359	171	187	5.8149
[fffffflllffffff	chr6:26197017-26197542$1	525	162	178	8.9019
ceeeeemmmmeeeee3	chr6:27861260-27861716$1	456	312	328	6.0616
ffffffnnnnnfffff	chr6:26184106-26184238$1	132	96	112	8.0289
ffffbbmmmmbb22ff	chr6:26031768-26032310$1	542	34	50	7.4646
ffffffmmmmffffff	chr6:27806692-27807004$1	312	79	95	10.8944
ffffffmmmmffffff	chr1:149857683-149858252$1	569	54	70	10.8944
ffffffmmmmffffff	chr6:27775206-27775682$1	476	55	71	10.8944
ffffffnnnnnfffff	chr6:26271405-26271662$1	257	187	203	8.0289
ffffffmmmmffffff	chr6:26184257-26184504$1	247	180	196	10.8944
ffffffmmmmffffff	chr1:228645014-228645381$1	367	55	71	10.8944
ffffffmmmmffffff	chr6:26020831-26021219$1	388	328	344	10.8944
ffffff"""ccc[ccc	chr6:27806548-27806676$1	128	55	71	4.4949
ffffffmmmmffffff	chr6:27777791-27778364$1	573	502	518	10.8944
eeecccmmmmccc]ee	chr6:27835230-27835365$1	135	20	36	6.4219
ffffffooooooffff	chr1:149858474-149858608$1	134	47	63	8.5824
ggggggoooooogggg	chr6:26043405-26043534$1	129	26	42	5.5080
ffffffmmmmffffff	chr6:26158629-26158885$1	256	185	201	10.8944
ffffffmmmmffffff	chr1:149784775-149784937$1	162	7	23	10.8944
ffffffmmmmffffff	chr6:26124483-26124965$1	482	413	429	10.8944
cc!!bbmmmmbb22cc	chr1:149858610-149858736$1	126	20	36	4.9056
ffffffooooooffff	chr6:26043548-26043684$1	136	34	50	8.5824
ffffffmmmmffffff	chr6:25726241-25726366$1	125	54	70	10.8944
ccc[ccclllccc]cc	chr6:27114280-27114417$1	137	40	56	5.1301
ffffffmmmmffffff	chr6:26250319-26250875$1	556	53	69	10.8944
####bbmmmmbb4444	chr6:27101521-27101657$1	136	64	80	4.3174
ffffffmmmmffffff	chr6:26055917-26056739$1	822	391	407	10.8944
ffffffmmmmffffff	chr1:149815003-149815130$1	127	58	74	10.8944
ggggggmmmmgggggg	chr6:27113839-27113961$1	122	43	59	7.3031
fffrrrrrrrrrffff	chr6:26158337-26158623$1	286	39	55	5.8619
ffffffmmmmffffff	chr6:26188890-26189012$1	122	52	68	10.8944
iiiiiimmmmiiiiii	chr6:27798901-27799061$1	160	54	70	6.1919
fffrrrrrrrrrffff	chr6:26156508-26157393$1	885	275	291	5.8619
ffffffmmmmffffff	chr1:228651815-228651944$1	129	55	71	10.8944
ffffffnnnnnfffff	chr6:27782433-27782555$1	122	89	105	8.0289
ffffffmmmmffffff	chr6:27792146-27792307$1	161	90	106	10.8944
ffffffmmmmffffff	chr6:26273373-26273672$1	299	162	178	10.8944
ffffffmmmmffffff	chr6:27107198-27107504$1	306	234	250	10.8944
ffffffmmmmffffff	chr6:27833157-27833627$1	470	398	414	10.8944
eeee[aooooooa]ee	chr6:26033636-26033802$1	166	16	32	4.4030
ffffffmmmmffffff	chr6:26017210-26017678$1	468	54	70	10.8944
ffffffmmmmffffff	chr6:27783041-27783315$1	274	11	27	10.8944
ggggggmmmmgggggg	chr6:26138493-26138629$1	136	20	36	7.3031
ffffffmmmmffffff	chr6:26217134-26217714$1	580	382	398	10.8944
fffff]bb22ffffff	chr6:27805611-27806091$1	480	174	190	5.3583
ffffffmmmmffffff	chr6:26216388-26216894$1	506	57	73	10.8944
e!!cccmmmmccc333	chr6:26171402-26171538$1	136	86	102	6.2008
g"""ccclllcccggg	chr1:149783673-149783809$1	136	57	73	4.8690

#otherMatches

#Seq PSSM
UGAUGGUGACCCGUUU	chr1:228612595-228612761$1	su1	70	86	4.8631
GGCUCUGAAAAGAGCC	chr6:26033271-26033574$1	su1	54	70	10.8944
CGGGGCGCCUGCCCCG	chr1:149858773-149859342$1	su1	546	562	10.8944
UCUCCUCGUAGAUGAG	chr12:14923603-14923890$1	su1	252	268	6.9529
GGCUCUGAAAAGAGCC	chr6:26198962-26199530$1	su1	54	70	10.8944
CCCAACAGCUUGUUGA	chr6:26272401-26272519$1	su1	92	108	4.4215
GGCUCUGAAAAGAGCC	chr6:27860426-27860816$1	su1	55	71	10.8944
GGCUCUUUUCAGAGCC	chr6:26251828-26252350$1	su1	454	470	10.8944
UUACCGCCUUUGCCGC	chr6:26027370-26027494$1	su1	84	100	6.4784
GGCCCUGAAAAGGGCC	chr6:26027073-26027366$1	su1	55	71	10.8944
GGCUCUUUUCAGAGCC	chr1:228646043-228646307$1	su1	195	211	10.8944
GGCGCUGCAGGAGGCC	chr1:120904864-120905000$1	su1	87	103	5.4944
GGCCCUUUUCAGGGCC	chr6:26022037-26022328$1	su1	220	236	10.8944
GGCUCUUUUAAGAGCC	chr6:26199729-26200266$1	su1	466	482	10.8944
GGCCCUGAAAAGGGCC	chr6:26285300-26285795$1	su1	58	74	10.8944
AGUGACAAAGGCCCAG	chr6:27806403-27806538$1	su1	89	105	5.7095
GGCUCUUUUCAGAGCC	chr6:27114855-27115367$1	su1	469	485	10.8944
AAAGCAGUCCCUGCUA	chr6:27774987-27775105$1	su1	57	73	4.0486
GGCCCUUUUCAGGGCC	chr6:26204807-26205301$1	su1	421	437	10.8944
GGCUCUUUUCAGGGCC	chr6:27100781-27101365$1	su1	512	528	10.8944
GGGGUGCCAAGCGCCA	chr6:26021856-26021979$1	su1	90	106	4.1091
AAUGUCCUUGGGCAUG	chr6:26271095-26271400$1	su1	142	158	5.8543
CUUGGUCUGCACCAGG	chr6:27834927-27835120$1	su1	80	96	7.0210
CAGGCGAACAGCCGUC	chr6:27831858-27831994$1	su1	40	56	8.5824
GGCCCUUUUCAGGGCC	chr6:26104119-26104568$1	su1	425	441	10.8944
GGCUCUGAAAAGAGCC	chr6:27858042-27858184$1	su1	55	71	10.8944
GGCUCUUUUCAGAGCC	chr6:27776253-27776479$1	su1	171	187	10.8944
ACUUGAUAAUGUCAGG	chr6:27107074-27107194$1	su1	5	21	7.6507
UUUcUcagaggcaaaa	chr6:27106037-27106244$1	su1	129	145	7.7570
CCAUGUCUGGGCGUGG	chr6:27775907-27776052$1	su1	78	94	6.1919
GGCUCUUAAAAGAGCC	chr6:26123601-26124158$1	su1	98	114	10.8944
GGCUCUUUUCAGAGCC	chr6:26046018-26046145$1	su1	58	74	10.8944
GGCUCUUAAAAGAGCC	chr6:27100044-27100591$1	su1	55	71	10.8944
gaggUaaUacUUaccU	chr6:26139041-26139217$1	su1	44	60	5.7536
GAGCGGACUUCGCUGG	chr6:27114444-27114669$1	su1	108	124	4.7951
GCGGCUUUGGGCUUUG	chr6:27834519-27834878$1	su1	171	187	5.8149
UAGGCCUCGCAGGCCU	chr6:26197017-26197542$1	su1	162	178	8.9019
CGUGUCCGAGGGCACA	chr6:27861260-27861716$1	su1	312	328	6.0616
GGGGAUCAUGAAUUCC	chr6:26184106-26184238$1	su1	96	112	8.0289
ACUUUCGUUGGAAUAA	chr6:26031768-26032310$1	su1	34	50	7.4646
GGUGUCGGAGGGCACC	chr6:27806692-27807004$1	su1	79	95	10.8944
GGCUCUGAAAAGAGCC	chr1:149857683-149858252$1	su1	54	70	10.8944
GGCUCUGAAAAGAGCC	chr6:27775206-27775682$1	su1	55	71	10.8944
GUCUGCUUGGUGCGGG	chr6:26271405-26271662$1	su1	187	203	8.0289
GGCUCUUUUCAGAGCC	chr6:26184257-26184504$1	su1	180	196	10.8944
GGCUCUGAAAAGAGCC	chr1:228645014-228645381$1	su1	55	71	10.8944
GGCUCUUUUCAGAGCC	chr6:26020831-26021219$1	su1	328	344	10.8944
CUCGUCCAAGGCCAUG	chr6:27806548-27806676$1	su1	55	71	4.4949
GGCUCUUUUCAGAGCC	chr6:27777791-27778364$1	su1	502	518	10.8944
CGGGGAUUUCUCCACC	chr6:27835230-27835365$1	su1	20	36	6.4219
GUCAUGUCUGGUCGUG	chr1:149858474-149858608$1	su1	47	63	8.5824
UUAUAGCUCUCCUUGU	chr6:26043405-26043534$1	su1	26	42	5.5080
GGCUCUUUUAAGAGCC	chr6:26158629-26158885$1	su1	185	201	10.8944
GGCUCUGAAAAGAGCC	chr1:149784775-149784937$1	su1	7	23	10.8944
GGCUCUUUUCAGAGCC	chr6:26124483-26124965$1	su1	413	429	10.8944
GCAAAGGCAACUACGC	chr1:149858610-149858736$1	su1	20	36	4.9056
CAGGCGCACAGCCGUC	chr6:26043548-26043684$1	su1	34	50	8.5824
GGCUCUGAAAAGAGCC	chr6:25726241-25726366$1	su1	54	70	10.8944
UUGUUGUAAUGCGCCA	chr6:27114280-27114417$1	su1	40	56	5.1301
GGCUCUGAAAAGAGCC	chr6:26250319-26250875$1	su1	53	69	10.8944
AAAAGAGUUAUCGCCC	chr6:27101521-27101657$1	su1	64	80	4.3174
GGCUUCCCCGGAGGCU	chr6:26055917-26056739$1	su1	391	407	10.8944
GGCUCUUUUCAGGGCC	chr1:149815003-149815130$1	su1	58	74	10.8944
GGAAGUAUCCAUUUUC	chr6:27113839-27113961$1	su1	43	59	7.3031
GUUCUAACUAUUAACG	chr6:26158337-26158623$1	su1	39	55	5.8619
GGCCCUGAAAAGGGCC	chr6:26188890-26189012$1	su1	52	68	10.8944
GGCCCUAAAAAGGGCC	chr6:27798901-27799061$1	su1	54	70	6.1919
GGCGUAUCUUUGGCCG	chr6:26156508-26157393$1	su1	275	291	5.8619
GGCUCUGAAAAGAGCC	chr1:228651815-228651944$1	su1	55	71	10.8944
AAAGGUCUAUUACCUU	chr6:27782433-27782555$1	su1	89	105	8.0289
GGCCCUUUUCAGGGCC	chr6:27792146-27792307$1	su1	90	106	10.8944
GGUGUCGGAGGGCACC	chr6:26273373-26273672$1	su1	162	178	10.8944
GGCCCUUUUUAGGGCC	chr6:27107198-27107504$1	su1	234	250	10.8944
GGCUCUUUUCAGAGCC	chr6:27833157-27833627$1	su1	398	414	10.8944
CGCGCCAGCCCCGACG	chr6:26033636-26033802$1	su1	16	32	4.4030
GGCUCUUAAAAGAGCC	chr6:26017210-26017678$1	su1	54	70	10.8944
GCGUCACGCCUGGCGC	chr6:27783041-27783315$1	su1	11	27	10.8944
GUUUAAUUUUUUAAAU	chr6:26138493-26138629$1	su1	20	36	7.3031
GGGCGGUGUCCUGCCC	chr6:26217134-26217714$1	su1	382	398	10.8944
UUGGGCAGGACACCAC	chr6:27805611-27806091$1	su1	174	190	5.3583
GGCUCUGAAAAGAGCC	chr6:26216388-26216894$1	su1	57	73	10.8944
UACCUUUGCUAAGAAA	chr6:26171402-26171538$1	su1	86	102	6.2008
GGACCUGCUUCAGCAC	chr1:149783673-149783809$1	su1	57	73	4.8690

#PSSM
f : 0.72	g : 0.07	e : 0.06	c : 0.03	b : 0.02	[ : 0.02	i : 0.02	! : 0.01	: : 0.01	# : 0.01	
f : 0.74	e : 0.07	g : 0.06	! : 0.02	i : 0.02	c : 0.02	[ : 0.01	b : 0.01	# : 0.01	" : 0.01	
f : 0.74	e : 0.09	g : 0.04	[ : 0.02	i : 0.02	! : 0.02	c : 0.01	# : 0.01	" : 0.01	
f : 0.69	e : 0.08	c : 0.04	g : 0.04	[ : 0.02	! : 0.02	i : 0.02	r : 0.02	# : 0.01	" : 0.01	
f : 0.67	e : 0.07	c : 0.07	b : 0.04	g : 0.04	[ : 0.02	i : 0.02	r : 0.02	! : 0.01	
f : 0.66	e : 0.07	c : 0.07	b : 0.06	g : 0.04	a : 0.02	i : 0.02	r : 0.02	] : 0.01	
m : 0.68	o : 0.07	n : 0.04	e : 0.03	b : 0.02	4 : 0.02	f : 0.02	c : 0.02	r : 0.02	g : 0.01	! : 0.01	" : 0.01	
m : 0.68	l : 0.10	o : 0.07	n : 0.04	4 : 0.02	r : 0.02	! : 0.01	" : 0.01	b : 0.01	
m : 0.68	l : 0.10	o : 0.07	n : 0.04	4 : 0.02	r : 0.02	c : 0.01	" : 0.01	2 : 0.01	
m : 0.68	l : 0.10	o : 0.07	n : 0.04	4 : 0.02	c : 0.02	r : 0.02	2 : 0.01	
f : 0.55	c : 0.10	e : 0.07	o : 0.07	b : 0.04	n : 0.04	g : 0.03	i : 0.02	r : 0.02	a : 0.01	
f : 0.59	c : 0.09	e : 0.07	o : 0.07	b : 0.06	g : 0.03	i : 0.02	r : 0.02	2 : 0.01	[ : 0.01	
f : 0.66	c : 0.09	e : 0.07	g : 0.04	2 : 0.03	i : 0.02	] : 0.01	b : 0.01	[ : 0.01	4 : 0.01	a : 0.01	
f : 0.69	e : 0.07	g : 0.07	] : 0.04	2 : 0.03	i : 0.02	c : 0.02	4 : 0.01	3 : 0.01	
f : 0.71	e : 0.09	g : 0.07	c : 0.06	i : 0.02	2 : 0.01	4 : 0.01	3 : 0.01	
f : 0.71	g : 0.07	c : 0.04	] : 0.03	e : 0.03	2 : 0.02	i : 0.02	3 : 0.02	: : 0.01	4 : 0.01	

#score	717.7720933194518
#seq	83
#width	16
#escape	false
#onStep	15000
#minSteps	10000
#maxSteps	15000.0