chr6:27101521-27101657	15	42	61	58	84	4.6534
chr6:26033271-26033574	34	26	35	81	107	6.1957
chr1:149783673-149783809	15	38	57	52	78	8.5167
chr6:26216388-26216894	57	56	61	286	312	5.7752
chr6:27834927-27835120	21	38	51	74	100	7.8354
chr6:27798901-27799061	18	30	46	48	74	6.7928
chr6:26033636-26033802	18	6	22	11	37	8.5013
chr6:26043405-26043534	14	16	36	21	47	4.2557
chr6:26273373-26273672	33	52	60	156	182	4.9669
chr6:26156508-26157393	100	82	85	731	757	8.4301
chr6:26021856-26021979	13	28	49	35	61	6.8366
chr1:120904864-120905000	15	24	43	33	59	4.3478
chr6:26027370-26027494	14	28	49	35	61	4.2061
chr6:26123601-26124158	62	57	62	323	349	4.8243
chr6:26217134-26217714	65	80	84	464	490	10.5603
chr6:27107198-27107504	34	48	56	148	174	7.0862
chr6:26017210-26017678	52	15	20	72	98	6.2288
chr6:26204807-26205301	55	37	42	185	211	6.3460
chr6:26027073-26027366	33	46	55	137	163	9.4856
chr6:26124483-26124965	54	27	33	134	160	9.4264
chr6:26272401-26272519	13	5	27	6	32	5.2147
chr6:27114855-27115367	57	68	73	350	376	9.9326
chr6:26020831-26021219	43	89	96	348	374	8.9635
chr6:26138493-26138629	15	67	86	92	118	3.6808
chr6:27835230-27835365	15	27	46	37	63	7.8264
chr6:26188890-26189012	13	64	86	79	105	6.5716
chr6:26271405-26271662	29	37	47	97	123	3.8895
chr6:27100044-27100591	61	35	40	193	219	4.7764
chr6:26158629-26158885	28	29	39	76	102	9.0988
chr1:149784775-149784937	18	33	50	55	81	8.0322
chr6:26022037-26022328	32	43	52	128	154	5.9325
chr1:228645014-228645381	41	19	26	71	97	7.6996
chr6:26271095-26271400	34	44	53	136	162	5.1239
chr1:149858773-149859342	64	79	83	451	477	10.0614
chr6:27107074-27107194	13	62	84	75	101	3.7450
chr6:27106037-27106244	23	59	71	123	149	4.8500
chr6:27806692-27807004	35	88	97	277	303	5.9001
chr6:27858042-27858184	16	33	52	48	74	4.6034
chr1:149815003-149815130	14	10	30	13	39	7.6614
chr6:27775907-27776052	16	64	82	94	120	8.6707
chr6:27806548-27806676	14	56	76	72	98	7.2711
chr1:228646043-228646307	29	29	39	78	104	7.7779
chr12:14923603-14923890	32	50	59	145	171	9.5365
chr6:27792146-27792307	18	9	25	15	41	5.3518
chr1:228612595-228612761	18	54	70	91	117	8.7205
chr6:26171402-26171538	15	58	77	80	106	6.8586
chr6:26197017-26197542	59	93	98	491	517	9.0582
chr6:27776253-27776479	25	13	24	30	56	5.7632
chr6:26031768-26032310	61	81	86	441	467	8.7018
chr6:27775206-27775682	53	56	61	269	295	10.2372
chr6:26184257-26184504	27	25	36	64	90	7.4969
chr12:14923917-14924115	22	22	35	45	71	5.3114
chr6:26043548-26043684	15	21	40	29	55	7.9237
chr6:27777791-27778364	64	49	54	286	312	9.9791
chr6:26199729-26200266	60	67	72	365	391	8.7028
chr6:27860426-27860816	44	71	78	280	306	7.7932
chr6:26250319-26250875	62	74	79	415	441	11.5458
chr6:27100781-27101365	65	62	67	367	393	7.6747
chr6:25726241-25726366	14	56	76	70	96	4.6664
chr6:27861260-27861716	51	67	73	307	333	4.9971
chr6:26158337-26158623	32	67	76	194	220	9.2555
chr1:149857683-149858252	64	52	56	298	324	8.5191
chr6:27114280-27114417	15	64	83	88	114	10.2372
chr6:26055917-26056739	92	0	3	6	32	6.8501
chr6:26139041-26139217	19	21	35	37	63	5.8886
chr6:27114087-27114271	20	19	33	36	62	4.7250
chr6:26198962-26199530	64	40	44	228	254	7.5096
chr6:26285300-26285795	55	2	7	13	39	9.7810
chr6:26284993-26285112	13	31	53	38	64	5.4506
chr1:149858610-149858736	14	10	30	13	39	5.7939
chr6:27805611-27806091	54	5	11	27	53	8.7679
chr6:26104119-26104568	50	9	15	42	68	11.5458
chr6:27834519-27834878	40	52	59	187	213	9.6578
chr6:27114444-27114669	25	45	57	103	129	9.1753
chr6:27833157-27833627	53	48	54	230	256	9.1217
chr6:27113839-27113961	13	4	26	6	32	4.2116
chr6:27783041-27783315	30	76	85	209	235	4.7463
chr6:26251828-26252350	58	6	11	35	61	8.7580
