58	84	42	61	15
81	107	26	35	34
52	78	38	57	15
286	312	56	61	57
74	100	38	51	21
48	74	30	46	18
11	37	6	22	18
21	47	16	36	14
156	182	52	60	33
731	757	82	85	100
35	61	28	49	13
33	59	24	43	15
35	61	28	49	14
323	349	57	62	62
464	490	80	84	65
148	174	48	56	34
72	98	15	20	52
185	211	37	42	55
137	163	46	55	33
134	160	27	33	54
6	32	5	27	13
350	376	68	73	57
348	374	89	96	43
92	118	67	86	15
37	63	27	46	15
79	105	64	86	13
97	123	37	47	29
193	219	35	40	61
76	102	29	39	28
55	81	33	50	18
128	154	43	52	32
71	97	19	26	41
136	162	44	53	34
451	477	79	83	64
75	101	62	84	13
123	149	59	71	23
277	303	88	97	35
48	74	33	52	16
13	39	10	30	14
94	120	64	82	16
72	98	56	76	14
78	104	29	39	29
145	171	50	59	32
15	41	9	25	18
91	117	54	70	18
80	106	58	77	15
491	517	93	98	59
30	56	13	24	25
441	467	81	86	61
269	295	56	61	53
64	90	25	36	27
45	71	22	35	22
29	55	21	40	15
286	312	49	54	64
365	391	67	72	60
280	306	71	78	44
415	441	74	79	62
367	393	62	67	65
70	96	56	76	14
307	333	67	73	51
194	220	67	76	32
298	324	52	56	64
88	114	64	83	15
6	32	0	3	92
37	63	21	35	19
36	62	19	33	20
228	254	40	44	64
13	39	2	7	55
38	64	31	53	13
13	39	10	30	14
27	53	5	11	54
42	68	9	15	50
187	213	52	59	40
103	129	45	57	25
230	256	48	54	53
6	32	4	26	13
209	235	76	85	30
35	61	6	11	58
