ffffffmmmmffffff:	  ENERGY = 11.6  chr1:228651813-228651945$1	132	57	74	12.5448
[fffffflllffffffd	  ENERGY = 20.4  chr6:26197017-26197271$1	254	162	179	9.0062
ffffffmmmmffffff:	  ENERGY = 43.5  chr6:27834519-27835059$1	540	55	72	12.5448
ffffffmmmmffffff:	  ENERGY = 30.7  chr6:26285302-26285805$1	503	56	73	12.5448
ffffffmmmmffffff:	  ENERGY = 25.8  chr6:26033269-26033611$1	342	56	73	12.5448
ggggggmmmmggggggg	  ENERGY = 10.3  chr6:26198147-26198284$1	137	118	135	7.3913
ffffffmmmmffffff6	  ENERGY = 29.6  chr6:26273328-26273672$1	344	291	308	12.3473
fffffflllffffff33	  ENERGY = 10.7  chr6:26197436-26197573$1	137	16	33	9.3918
ffffffmmmmffffff:	  ENERGY = 21.5  chr6:27776250-27776479$1	229	174	191	12.5448
ffffffmmmmffffff:	  ENERGY = 14.8  chr1:149784775-149784934$1	159	7	24	12.5448
ffffffmmmmffffff7	  ENERGY = 10.1  chr6:27782771-27782894$1	123	14	31	12.4396
ffffffmmmmffffff:	  ENERGY = 13.8  chr6:27782061-27782256$1	195	24	41	12.5448
ffffffmmmmffffff:	  ENERGY = 29.9  chr6:26204807-26205302$1	495	421	438	12.5448
ffffffmmmmffffff:	  ENERGY = 22.6  chr1:228646030-228646306$1	276	208	225	12.5448
iiiiiimmmmiiiiiii	  ENERGY = 11.5  chr6:27798901-27799061$1	160	54	71	6.0349
ffffffmmmmffffff:	  ENERGY = 43.1  chr6:27100046-27100591$1	545	53	70	12.5448
ffffooooooffffff:	  ENERGY = 8.4  chr1:120906264-120906400$1	136	2	19	9.1522
f!!cccmmmmcccffff	  ENERGY = 31.3  chr6:27805607-27805995$1	388	275	292	8.0796
ffffffmmmmffffff:	  ENERGY = 27.3  chr6:27114988-27115367$1	379	336	353	12.5448
ffffffmmmmffffff:	  ENERGY = 8.7  chr1:149400080-149400191$1	111	8	25	12.5448
ffffffmmmmffffff:	  ENERGY = 42.4  chr6:26217131-26217716$1	585	385	402	12.5448
ffffffmmmmffffff5	  ENERGY = 52.2  chr6:26055917-26056705$1	788	54	71	12.2586
ffffffmmmmffffff>	  ENERGY = 21.0  chr6:26022092-26022328$1	236	165	182	12.5730
ffffffmmmmffffff:	  ENERGY = 36.0  chr6:26198957-26199526$1	569	59	76	12.5448
"bbcccmmmmccc]bb2	  ENERGY = 9.6  chr6:27108031-27108148$1	117	88	105	5.7978
ffffffmmmmffffff4	  ENERGY = 50.0  chr1:149858798-149859350$1	552	521	538	12.3109
####bbmmmmbb333a3	  ENERGY = 7.1  chr6:27835061-27835214$1	153	49	66	4.8744
ffffffmmmmffffff:	  ENERGY = 14.3  chr6:27114052-27114267$1	215	92	109	12.5448
ffffffmmmmffffff:	  ENERGY = 39.5  chr6:26250319-26250865$1	546	53	70	12.5448
ffffooooooffffffc	  ENERGY = 22.5  chr1:149858474-149858722$1	248	49	66	8.7688
ffffffmmmmffffffh	  ENERGY = 34.1  chr6:26216390-26216872$1	482	55	72	11.5085
ffffffmmmmffffff:	  ENERGY = 38.8  chr6:26251828-26252353$1	525	454	471	12.5448
ffffffmmmmffffff:	  ENERGY = 12.6  chr6:27792146-27792305$1	159	90	107	12.5448
ffffffmmmmffffff:	  ENERGY = 21.3  chr6:26020948-26021229$1	281	211	228	12.5448
ccddddmmmmdddd]cc	  ENERGY = 11.9  chr1:228645445-228645578$1	133	64	81	4.7552
ffffffmmmmffffff:	  ENERGY = 21.5  chr6:27833349-27833624$1	275	206	223	12.5448
ff[cccmmmmccc]fff	  ENERGY = 35.8  chr12:14923605-14924052$1	447	222	239	8.3671
ffffffmmmmffffff:	  ENERGY = 38.4  chr6:26104115-26104568$1	453	429	446	12.5448
ffffffmmmmffffff:	  ENERGY = 27.3  chr6:26027073-26027415$1	342	55	72	12.5448
ffffffmmmmffffff:	  ENERGY = 10.2  chr1:228612500-228612631$1	131	53	70	12.5448
ffffffmmmmffffff:	  ENERGY = 22.9  chr6:27775206-27775467$1	261	55	72	12.5448
ffffffmmmmffffff7	  ENERGY = 11.6  chr1:228645015-228645187$1	172	54	71	12.4396
gggggg]bb]ffffff:	  ENERGY = 68.7  chr6:26156508-26157392$1	884	27	44	5.0821
frrrrrrrrrffffff2	  ENERGY = 14.4  chr6:26158320-26158483$1	163	58	75	5.9516
fffffflllffffff]b	  ENERGY = 23.1  chr1:149857897-149858240$1	343	239	256	9.4406
a[cccooooooccc]a:	  ENERGY = 7.4  chr6:26184323-26184441$1	118	40	57	4.4650
fffffnnnnnffffff:	  ENERGY = 11.0  chr6:27839574-27839704$1	130	74	91	8.6758
ffffffmmmmffffff:	  ENERGY = 41.4  chr6:27100800-27101364$1	564	493	510	12.5448
ffffffmmmmffffff:	  ENERGY = 20.0  chr6:26158627-26158885$1	258	187	204	12.5448
ccc[bbmmmmbbccc::	  ENERGY = 16.6  chr6:27833133-27833343$1	210	99	116	5.2102
ffffffmmmmffffff:	  ENERGY = 36.2  chr6:26199759-26200266$1	507	436	453	12.5448
ffffffmmmmffffff:	  ENERGY = 42.6  chr6:26271095-26271662$1	567	55	72	12.5448
ffffffmmmmffffffD	  ENERGY = 37.8  chr6:27107023-27107502$1	479	409	426	12.0260
ceeeeemmmmeeeee]c	  ENERGY = 40.9  chr6:26123643-26124198$1	555	520	537	6.2144
ffffffmmmmffffff>	  ENERGY = 9.4  chr6:25727491-25727622$1	131	61	78	12.5730
ffffffmmmmffffff:	  ENERGY = 11.2  chr6:27782943-27783074$1	131	109	126	12.5448
ffffffmmmmffffff:	  ENERGY = 30.2  chr6:26124441-26124971$1	530	455	472	12.5448
[ccc[ammmmaccc]cc	  ENERGY = 43.7  chr6:27777791-27778364$1	573	27	44	6.7520
[eeeeemmmmeeeeea:	  ENERGY = 8.9  chr1:149821795-149821916$1	121	87	104	6.5555
ffffffmmmmffffff:	  ENERGY = 33.2  chr6:27860427-27860895$1	468	54	71	12.5448
ffffffmmmmffffff:	  ENERGY = 24.4  chr6:27806591-27806934$1	343	180	197	12.5448
fffffflllffffffcc	  ENERGY = 30.8  chr6:26017210-26017638$1	428	80	97	9.2689
ffffffmmmmffffff9	  ENERGY = 8.5  chr6:27840878-27840997$1	119	52	69	12.5573
ffffffmmmmffffff:	  ENERGY = 40.8  chr6:26031769-26032338$1	569	55	72	12.5448
ffffffmmmmffffff:	  ENERGY = 9.7  chr6:26046022-26046145$1	123	54	71	12.5448
ffffffmmmmffffff:	  ENERGY = 14.7  chr1:149857682-149857891$1	209	55	72	12.5448

#otherMatches

#Seq PSSM
GGCUCUGAAAAGAGCCU	  ENERGY = 11.6  chr1:228651813-228651945$1	su1	57	74	12.5448
UAGGCCUCGCAGGCCUC	  ENERGY = 20.4  chr6:26197017-26197271$1	su1	162	179	9.0062
GGCUCUGAAAAGAGCCU	  ENERGY = 43.5  chr6:27834519-27835059$1	su1	55	72	12.5448
GGCCCUGAAAAGGGCCU	  ENERGY = 30.7  chr6:26285302-26285805$1	su1	56	73	12.5448
GGCUCUGAAAAGAGCCU	  ENERGY = 25.8  chr6:26033269-26033611$1	su1	56	73	12.5448
UAGCUCAGUAGAGUUGA	  ENERGY = 10.3  chr6:26198147-26198284$1	su1	118	135	7.3913
GGCUCUUCUAAGAGCCA	  ENERGY = 29.6  chr6:26273328-26273672$1	su1	291	308	12.3473
CGAGCAGUCUGCUUGGU	  ENERGY = 10.7  chr6:26197436-26197573$1	su1	16	33	9.3918
GGCUCUUUUCAGAGCCA	  ENERGY = 21.5  chr6:27776250-27776479$1	su1	174	191	12.5448
GGCUCUGAAAAGAGCCU	  ENERGY = 14.8  chr1:149784775-149784934$1	su1	7	24	12.5448
ACAGCCCUAAGGUUGUC	  ENERGY = 10.1  chr6:27782771-27782894$1	su1	14	31	12.4396
GGCUCUGAAAAGAGCCU	  ENERGY = 13.8  chr6:27782061-27782256$1	su1	24	41	12.5448
GGCCCUUUUCAGGGCCG	  ENERGY = 29.9  chr6:26204807-26205302$1	su1	421	438	12.5448
GGCUCUUUUCAGAGCCA	  ENERGY = 22.6  chr1:228646030-228646306$1	su1	208	225	12.5448
GGCCCUAAAAAGGGCCU	  ENERGY = 11.5  chr6:27798901-27799061$1	su1	54	71	6.0349
GGCUCUUAAAAGAGCCG	  ENERGY = 43.1  chr6:27100046-27100591$1	su1	53	70	12.5448
GGGAGAGGCGUCCCGCC	  ENERGY = 8.4  chr1:120906264-120906400$1	su1	2	19	9.1522
UGCGGGUCUUCUUGUUG	  ENERGY = 31.3  chr6:27805607-27805995$1	su1	275	292	8.0796
GGCUCUUUUCAGAGCCA	  ENERGY = 27.3  chr6:27114988-27115367$1	su1	336	353	12.5448
GGCUCUGAAAAGAGCCU	  ENERGY = 8.7  chr1:149400080-149400191$1	su1	8	25	12.5448
GGGCGGUGUCCUGCCCA	  ENERGY = 42.4  chr6:26217131-26217716$1	su1	385	402	12.5448
GGCUCUGAAAAGAGCCU	  ENERGY = 52.2  chr6:26055917-26056705$1	su1	54	71	12.2586
GGCCCUUUUCAGGGCCG	  ENERGY = 21.0  chr6:26022092-26022328$1	su1	165	182	12.5730
GGCUCUGAAAAGAGCCU	  ENERGY = 36.0  chr6:26198957-26199526$1	su1	59	76	12.5448
UACUGUUCCCACGCGUU	  ENERGY = 9.6  chr6:27108031-27108148$1	su1	88	105	5.7978
CGGGGCGCCUGCCCCGA	  ENERGY = 50.0  chr1:149858798-149859350$1	su1	521	538	12.3109
UUAAGGGCUGCCAAAGA	  ENERGY = 7.1  chr6:27835061-27835214$1	su1	49	66	4.8744
GGCUCUUAAAAGAGCCU	  ENERGY = 14.3  chr6:27114052-27114267$1	su1	92	109	12.5448
GGCUCUGAAAAGAGCCU	  ENERGY = 39.5  chr6:26250319-26250865$1	su1	53	70	12.5448
CAUGUCUGGUCGUGGCA	  ENERGY = 22.5  chr1:149858474-149858722$1	su1	49	66	8.7688
GGCUCUGAAAAGAGCCU	  ENERGY = 34.1  chr6:26216390-26216872$1	su1	55	72	11.5085
GGCUCUUUUCAGAGCCA	  ENERGY = 38.8  chr6:26251828-26252353$1	su1	454	471	12.5448
GGCCCUUUUCAGGGCCA	  ENERGY = 12.6  chr6:27792146-27792305$1	su1	90	107	12.5448
GGCUCUUUUCAGAGCCA	  ENERGY = 21.3  chr6:26020948-26021229$1	su1	211	228	12.5448
ACCGGACAUUUCCGAGU	  ENERGY = 11.9  chr1:228645445-228645578$1	su1	64	81	4.7552
GGCUCUUUUCAGAGCCA	  ENERGY = 21.5  chr6:27833349-27833624$1	su1	206	223	12.5448
UCCAGGAAGACUUUGAG	  ENERGY = 35.8  chr12:14923605-14924052$1	su1	222	239	8.3671
GGCCCUUUUCAGGGCCG	  ENERGY = 38.4  chr6:26104115-26104568$1	su1	429	446	12.5448
GGCCCUGAAAAGGGCCA	  ENERGY = 27.3  chr6:26027073-26027415$1	su1	55	72	12.5448
GGCUCUUAAAAGAGCCU	  ENERGY = 10.2  chr1:228612500-228612631$1	su1	53	70	12.5448
GGCUCUGAAAAGAGCCU	  ENERGY = 22.9  chr6:27775206-27775467$1	su1	55	72	12.5448
GGCUCUGAAAAGAGCCU	  ENERGY = 11.6  chr1:228645015-228645187$1	su1	54	71	12.4396
GGCGGGCGCAGCGCCGC	  ENERGY = 68.7  chr6:26156508-26157392$1	su1	27	44	5.0821
UCUAACUAUUAACGCUA	  ENERGY = 14.4  chr6:26158320-26158483$1	su1	58	75	5.9516
GGCUUUCUUGGAGCCCU	  ENERGY = 23.1  chr1:149857897-149858240$1	su1	239	256	9.4406
AGGGCACCAAGGCCGUU	  ENERGY = 7.4  chr6:26184323-26184441$1	su1	40	57	4.4650
GGGUUGGACAGACUUCU	  ENERGY = 11.0  chr6:27839574-27839704$1	su1	74	91	8.6758
GGCUCUUUUCAGGGCCA	  ENERGY = 41.4  chr6:27100800-27101364$1	su1	493	510	12.5448
GGCUCUUUUAAGAGCCA	  ENERGY = 20.0  chr6:26158627-26158885$1	su1	187	204	12.5448
UGCUCCGCAAGGGCAAC	  ENERGY = 16.6  chr6:27833133-27833343$1	su1	99	116	5.2102
GGCUCUUUUAAGAGCCA	  ENERGY = 36.2  chr6:26199759-26200266$1	su1	436	453	12.5448
GGCUCUUAAAAGAGCCU	  ENERGY = 42.6  chr6:26271095-26271662$1	su1	55	72	12.5448
GGCCCUUUUUAGGGCCC	  ENERGY = 37.8  chr6:27107023-27107502$1	su1	409	426	12.0260
GAGCGGAUUUCUGCUAC	  ENERGY = 40.9  chr6:26123643-26124198$1	su1	520	537	6.2144
GGCUCUUUUCAGAGCCA	  ENERGY = 9.4  chr6:25727491-25727622$1	su1	61	78	12.5730
GCGUCACGCCUGGCGCA	  ENERGY = 11.2  chr6:27782943-27783074$1	su1	109	126	12.5448
GGCUCUUUUCAGAGCCC	  ENERGY = 30.2  chr6:26124441-26124971$1	su1	455	472	12.5448
UCUUUCUCCUGAAGUGA	  ENERGY = 43.7  chr6:27777791-27778364$1	su1	27	44	6.7520
CCUUUGGAGACAAAGCA	  ENERGY = 8.9  chr1:149821795-149821916$1	su1	87	104	6.5555
GGCUCUGAAAAGAGCCU	  ENERGY = 33.2  chr6:27860427-27860895$1	su1	54	71	12.5448
GGUGUCGGAGGGCACCA	  ENERGY = 24.4  chr6:27806591-27806934$1	su1	180	197	12.5448
UAGAAGAAACUUCUAAC	  ENERGY = 30.8  chr6:26017210-26017638$1	su1	80	97	9.2689
GGCCCUGAGAAGGGCCU	  ENERGY = 8.5  chr6:27840878-27840997$1	su1	52	69	12.5573
GGCUCUGAAAAGAGCCU	  ENERGY = 40.8  chr6:26031769-26032338$1	su1	55	72	12.5448
GGCUCUUUUCAGAGCCA	  ENERGY = 9.7  chr6:26046022-26046145$1	su1	54	71	12.5448
GGCUCUGAAAAGAGCCU	  ENERGY = 14.7  chr1:149857682-149857891$1	su1	55	72	12.5448

#PSSM
f : 0.81	[ : 0.04	c : 0.04	g : 0.03	i : 0.01	" : 0.01	# : 0.01	a : 0.01	
f : 0.80	c : 0.04	g : 0.03	e : 0.03	i : 0.01	! : 0.01	b : 0.01	# : 0.01	r : 0.01	[ : 0.01	
f : 0.78	c : 0.04	g : 0.03	e : 0.03	i : 0.01	! : 0.01	b : 0.01	# : 0.01	d : 0.01	[ : 0.01	r : 0.01	
f : 0.78	c : 0.07	g : 0.03	e : 0.03	i : 0.01	# : 0.01	d : 0.01	r : 0.01	[ : 0.01	
f : 0.75	c : 0.06	g : 0.03	o : 0.03	b : 0.03	e : 0.03	i : 0.01	d : 0.01	r : 0.01	[ : 0.01	
f : 0.74	o : 0.04	c : 0.04	g : 0.03	b : 0.03	e : 0.03	i : 0.01	d : 0.01	r : 0.01	n : 0.01	a : 0.01	
m : 0.84	l : 0.04	o : 0.04	f : 0.01	] : 0.01	r : 0.01	n : 0.01	
m : 0.84	l : 0.06	o : 0.04	b : 0.01	r : 0.01	n : 0.01	
m : 0.84	l : 0.06	o : 0.04	b : 0.01	r : 0.01	n : 0.01	
m : 0.84	f : 0.04	o : 0.04	l : 0.01	] : 0.01	r : 0.01	n : 0.01	
f : 0.81	c : 0.04	b : 0.03	e : 0.03	g : 0.01	i : 0.01	d : 0.01	o : 0.01	a : 0.01	
f : 0.81	c : 0.07	b : 0.03	e : 0.03	g : 0.01	i : 0.01	d : 0.01	
f : 0.81	c : 0.09	e : 0.03	g : 0.01	i : 0.01	3 : 0.01	d : 0.01	
f : 0.83	c : 0.04	] : 0.03	e : 0.03	g : 0.01	i : 0.01	3 : 0.01	d : 0.01	
f : 0.84	] : 0.04	e : 0.03	g : 0.01	i : 0.01	b : 0.01	3 : 0.01	c : 0.01	
f : 0.80	a : 0.04	c : 0.04	] : 0.03	g : 0.01	3 : 0.01	i : 0.01	b : 0.01	: : 0.01	
: : 0.62	c : 0.07	3 : 0.03	7 : 0.03	f : 0.03	> : 0.03	2 : 0.03	d : 0.01	g : 0.01	6 : 0.01	i : 0.01	5 : 0.01	4 : 0.01	h : 0.01	b : 0.01	D : 0.01	9 : 0.01	

#score	711.3415586591542
#seq	66
#width	17
#escape	false
#onStep	15000
#minSteps	10000
#maxSteps	15000.0