#input=1464026635666
#input_size=85
#background=autoBG
#background_size=250
#meanLength=286.97872340425533
#meanStructureContent=0.5979827872148537
#bin=33

#motif=1
ffffffmmmmffffff

#qBEAR
aaaaaaxxxxaaaaaa

pvalue=0.11500269847083566
score=717.7720933194518
coverage=0.9764705882352941
fall-out=0.228
runtime(s)=69.14
