ffff[bb$$$$$bboooooobb333bb]ffffff	chr8:25811676-25811790$1	114	50	84	10.0824
e!!ffffff^^^^^^^^^^^^^^^^^^^^^^^^^	chr1:101395907-101396030$1	123	45	79	6.8763
eee[a####eeeeemmmmeeeee333a]eeeeec	chr7:134653236-134653372$1	136	65	99	9.5756
###bb[ddddddddoooooodddd]dddd]bbee	chr10:33189730-33189856$1	126	7	41	8.5132
c[bbggggggg!!aqqqqqqqqa22ggggggg]b	chr19:7747354-7747471$1	117	71	105	7.3597
iabb[a!!cccrrrrrrrrrccc333a]bb]a]i	chr11:64681852-64681988$1	136	57	91	10.7392
3ddddffffffcccooooooccc666666fffff	chrX:129274460-129274589$1	129	40	74	8.5246
ggggggga[ffffffmmmmffffff]a]gggggg	chr7:104844064-104844200$1	136	58	92	7.9240
:dddd####cccqqqqqqqqccc4444dddd:dd	chr16:101530-101672$1	142	26	60	6.6501
dddd[ccc####cccnnnnnccc4444ccc]ddd	chr11:1990906-1991020$1	114	22	56	10.6244
"""eeeee[cccrrrrrrrrrccc]eeeeeeeee	chr19:37005473-37005609$1	136	90	124	9.8751
bb[eeeee$$$$$bbnnnnnbb333eeeee]bb2	chr9:33305930-33306066$1	136	77	111	7.7000
c!!ffffffa[cccooooooccc333a]ffffff	chr3:38294727-38294863$1	136	16	50	12.9759
I==========qqqqqqqq==========cccll	chrX:63264488-63264624$1	136	31	65	5.7089
===============nnnnn==============	chr5:133307557-133307693$1	136	72	106	10.4149
ee[ccc$$$$$ddddmmmmdddd333ccc]eeee	chr3:128902598-128902734$1	136	28	62	9.2848
e[dddd"""eeeeeooooooeeeeeddddeeeee	chr7:101129919-101130038$1	119	4	38	9.8349
c!!eeeee^^^^^^^^^^^^^^^^^^^^^^^^^^	chr13:107195107-107195238$1	131	55	89	7.1989
g"""ccc[cccqqqqqqqqcccccc333gggggg	chr1:167991299-167991429$1	130	72	106	8.6839
fff[ffffff"""cccmmmmccc333ffffffff	chr19:12841411-12841547$1	136	62	96	8.6406
mbb22ffffffcccoooooocccffffff"""ee	chr11:106885219-106885339$1	120	19	53	7.0345
c:ffffff[ccc!!ccclllccc333ccc]ffff	chr12:31545207-31545343$1	136	30	64	8.6844
eeeeeggggggg[bbnnnnnbb]ggggggg22ee	chr1:45187405-45187596$1	191	111	145	7.4870
ceeeee[a!!ddddoooooodddd22aeeeeeFF	chr9:27414312-27414432$1	120	22	56	10.2264
$$$$$gggggggnnnnnggggggg4444ccc]ee	chr13:95858783-95858919$1	136	33	67	6.9666
###gggggggbb[cccmmmmccc22bb]gggggg	chr9:15135635-15135754$1	119	35	69	8.8641
g!!ccc!!fffffflllffffff333ccc4444g	chr10:6097339-6097476$1	137	7	41	9.2899
eeeee$$$$$ddddoooooodddd666666eeee	chr18:56999885-57000018$1	133	65	99	8.3787
ggdddd!!ccc[bboooooobbccc]dddd::::	chr15:79189286-79189409$1	123	87	121	5.9779
ddggggggg####cccmmmmccc4444ggggggg	chr3:47787351-47787487$1	136	54	88	10.0570
fffff[bb[bb[ccclllcccbb22bb]ffffff	chr1:245155248-245155366$1	118	18	52	7.5182
eeee!!ccc"""bboooooobb]ccc22eeeeec	chr5:157960068-157960186$1	118	64	98	10.6005
f"""bb"""eeeeeooooooeeeee333bb]fff	chr20:2442400-2442607$1	207	162	196	10.9326
cc[eeeeea!!cccooooooccc22a]eeeee]c	chr11:75057766-75057889$1	123	5	39	12.3411
fff####eeeee[ammmmaeeeee4444ffffff	chr3:120351733-120351853$1	120	21	55	8.4014
i####ffffffooooooffffff55555iiiiii	chrX:42528818-42528937$1	119	56	90	5.4650
:::eeeee"""bbqqqqqqqqbb333eeeee:cc	chr1:42788323-42788447$1	124	21	55	4.6037
iiiiiiii[eeeeeooooooeeeee333iiiiii	chr2:71693171-71693286$1	115	13	47	11.4235
dddd"""cccddddnnnnndddd]ccc333dddd	chr8:38089660-38089777$1	117	22	56	7.8721
:eeeee####ddddrrrrrrrrrdddd]eeeee:	chr16:87868202-87868338$1	136	65	99	7.0648
cc[ddddccc[cccooooooccc]ccc]dddd]c	chr5:10253913-10254032$1	119	68	102	11.0800
eee!!ccc####cccnnnnnccc333ccc22eee	chr11:12944861-12944997$1	136	69	103	11.0966
ggggggg!!aeeeeennnnneeeee]a22ggggg	chr11:70200145-70200260$1	115	58	92	9.0015
!eeeee!!ffffffooooooffffffeeeee]ee	chr2:223455331-223455467$1	136	70	104	9.7823
$$$ccc####eeeeeqqqqqqqqeeeeeccchhh	chr5:10254237-10254365$1	128	67	101	5.3983
!!ggggggg####bbnnnnnbb333ggggggg22	chr14:99439185-99439321$1	136	79	113	9.9333
ddd[bb[bb[ddddoooooodddd]bbbb]dddd	chr2:42577594-42577730$1	136	4	38	7.8601
!ffffff$$$$$cccnnnnncccffffff]ccc]	chr6:101123720-101123843$1	123	62	96	8.3460
iiiiiiiidddd[aooooooa]dddd]iiiiiii	chr6:86200262-86200398$1	136	99	133	9.8697
fffffcccdddd[ccclllccc]dddd]ccc:::	chrX:153594505-153594641$1	136	68	102	4.6458
###dddd[ffffffnnnnnffffff]dddd8888	chr22:47277061-47277181$1	120	50	84	5.6395
###ddddgggggggooooooggggggg]dddd33	chr2:55785929-55786047$1	118	23	57	10.1392
###ccc[a!!eeeeellleeeee22acccccc]f	chr19:54710179-54710315$1	136	45	79	9.7909
"""bb####eeeeemmmmeeeee333bb]ccccc	chr7:127222578-127222708$1	130	43	77	8.6967
ddd!!ccc"""cccnnnnncccccc22dddd333	chr9:88705642-88705777$1	135	99	133	9.5292
%%%ggggggg####ccclllccc22ggggggg77	chr16:84512152-84512288$1	136	9	43	7.0354
e####eeeeeqqqqqqqqeeeee4444eeeee22	chr6:33650350-33650468$1	118	77	111	6.3433
eeee####bb[aqqqqqqqqa]bb4444eeeeed	chr9:97050177-97050299$1	122	47	81	7.8055
ddffffffccc[bboooooobbccc]ffffff::	chr6:26124441-26124971$1	530	171	205	7.4030
d!!ccc!!a[cccpppppppccc]a4444ccc]d	chr9:87508425-87508542$1	117	31	65	8.6298
c[eeeeeeeeeesssssssssseeeee]eeeee]	chr6:99990221-99990357$1	136	42	76	6.5687
eeeeewwwwwwwwwwwwwweeeee]bb]eeeee2	chr1:225681682-225681818$1	136	24	58	6.0330
[a!!bbffffffooooooffffff]bb22a]eee	chr1:94116929-94117055$1	126	26	60	7.6873
cccggggggg"""aooooooa333ggggggg]cc	chr15:86216464-86216587$1	123	6	40	11.5398
d####eeeeeccc[bbnnnnnbb]ccc]eeeeed	chr15:31197410-31197546$1	136	71	105	7.3064
ffffeeeee!!bb[ammmma]bbeeeee]fffff	chr9:35752883-35753019$1	136	4	38	6.4969
$$$eeeee!!bbcccnnnnnccc]bb22eeeee7	chrX:91485071-91485193$1	122	11	45	8.3087
c!!dddd####a[aooooooa]a4444dddd22c	chr3:48509264-48509412$1	148	98	132	12.2607
ff[bb$$$$$eeeeellleeeee333bbffffff	chr8:53162940-53163069$1	129	20	54	8.2438
"""cccwwwwwwwwwwwwwwccc333ccc]iiii	chr12:108957249-108957364$1	115	13	47	9.2785
=======ccc[cccnnnnncccccc]========	chr2:196602050-196602174$1	124	54	88	10.3338
cc[ccc!!ffffffmmmmffffffccc]ccca]a	chr3:158390196-158390318$1	122	51	85	7.5341
dddd[ccc!!cccooooooccc22ccc]dddd::	chr1:153921759-153921889$1	130	1	35	8.4421
b[============mmmm============333b	chr22:25960828-25960952$1	124	61	95	9.2027
%%%%ccc####ddddmmmmdddd4444ccc6666	chr6:27792146-27792305$1	159	116	150	6.0057
eeeebb[gggggggccclllccc]ggggggg]bb	chr5:180670740-180670903$1	163	9	43	7.4634
hhhhhhh!!a!!bboooooobb22a22hhhhhhh	chr6:26158489-26158625$1	136	39	73	7.9838
iiii!!bb"""ddddmmmmdddd22bb22iiiii	chr8:144450128-144450250$1	122	34	68	8.0144
++++++++ffffffooooooffffffccc]dddd	chr9:139702598-139702734$1	136	68	102	4.3639
eeeeccc####eeeeellleeeee4444ccc]ee	chr17:61885052-61885171$1	119	23	57	9.9511
bb####dddd[cccnnnnnccc]dddd333bb]e	chr10:69882722-69882852$1	130	46	80	7.5621
eeee$$$$$eeeeeooooooeeeee4444eeeee	chr21:16384802-16384920$1	118	83	117	10.5423
C:ggggggg!!cccooooooccc4444ggggggg	chr3:128985824-128985960$1	136	20	54	11.4457
===[a[bb"""cccooooooccc]bb]a======	chr9:99521849-99521971$1	122	55	89	11.8126
dd[aeeeee!!cccooooooccc22eeeee]a]d	chr13:21721652-21721788$1	136	47	81	11.4049
cc!!eeeeerrrrrrrrreeeee333ccceeeee	chr21:35902637-35902757$1	120	48	82	8.8398
eee####bb!!cccooooooccc22bb4444eee	chr6:154727115-154727253$1	138	49	83	11.5420
"""ddddvvvvvvvvvvvvvdddd4444eeeee5	chr14:105900738-105900874$1	136	43	77	7.8778
:ffffff[eeeeerrrrrrrrreeeee]ffffff	chr2:85876211-85876347$1	136	21	55	6.9641
:ffffff^^^^^^^^^^^^^^^^^^^^^^fffff	chr2:105918480-105918611$1	131	96	130	6.2376
ff[ggggggg[ddddmmmmddddggggggg333f	chr1:46030376-46030494$1	118	66	100	7.6718
ggggggg[accc[bbnnnnnbbccc]a]gggggg	chr11:111321787-111321907$1	120	43	77	9.3795
e[bb"""ddddrrrrrrrrrdddd333bb]eeee	chr10:79799968-79800092$1	124	6	40	8.7891
##eeeee^^^^^^^^^^^^^^^^^^^^^eeeeee	chr3:12370586-12370722$1	136	73	107	8.1132

#otherMatches

#Seq PSSM
CAGGCGGAGUAAGAGUGAUAUCGGGCCACCUGGA	chr8:25811676-25811790$1	su1	50	84	10.0824
AAAUAGAAUGUAUACUAAUGGAAACAAAAUUAUA	chr1:101395907-101396030$1	su1	45	79	6.8763
CAGGAGCCUGUUUCUAAAGAAACCCAUGCUGUGA	chr7:134653236-134653372$1	su1	65	99	9.5756
AAAGUAUGGCCUGUAUGUAAAUAGUGCUAAAUCA	chr10:33189730-33189856$1	su1	7	41	8.5132
CGCUCUUCGGCAAGGAGGCGGACAAGCUGGAGCA	chr19:7747354-7747471$1	su1	71	105	7.3597
GCCCACGAAGCCUUCCACCAGCUCCAGCGGUGAC	chr11:64681852-64681988$1	su1	57	91	10.7392
UGCUCACCUGUUGCAAUCAAGCACUUUUCAUAGG	chrX:129274460-129274589$1	su1	40	74	8.5246
GGAUCUCCUCCUCUGGCUCCGGGGGUGUGGGGUC	chr7:104844064-104844200$1	su1	58	92	7.9240
CCUGCAGUAGAGUCAACAUUCUCCCAGGCAGCUG	chr16:101530-101672$1	su1	26	60	6.6501
CCCAGGGCGGCGCUGCCGGUCAGAAAGGCCGUGG	chr11:1990906-1991020$1	su1	22	56	10.6244
UAAAGGGCUUCUUUCCAGUAUGGAUGUUCUGAUG	chr19:37005473-37005609$1	su1	90	124	9.8751
UUUGGAGUCAGGGACAAAAGGUAGAGCUCUUGAG	chr9:33305930-33306066$1	su1	77	111	7.7000
CUCAUCCUGCCUGUUCCCCCACACCUGCCAGGAU	chr3:38294727-38294863$1	su1	16	50	12.9759
UUGUGCUUUUUAAAGAAUCGGAGAGUGCAGAUAA	chrX:63264488-63264624$1	su1	31	65	5.7089
UUUUUUAAGUGUUGUUAAUUACAGCAUUUGAAGG	chr5:133307557-133307693$1	su1	72	106	10.4149
UCGGAGCGGGCCCGCAGCGGCGGAGACUCGGACG	chr3:128902598-128902734$1	su1	28	62	9.2848
UGUUGUUAAUCCACAUCCCGGUGGAACGGAGAUG	chr7:101129919-101130038$1	su1	4	38	9.8349
UUUCACAUGCAAAAAAAAAAAAAAAAUUCAUAAA	chr13:107195107-107195238$1	su1	55	89	7.1989
aUcaagUUaagaaUUaaaacUUacUaacUUcUga	chr1:167991299-167991429$1	su1	72	106	8.6839
UUUACUUCCCAGAAGUGAUGGCUAAGGGGAGGGA	chr19:12841411-12841547$1	su1	62	96	8.6406
CCCGAAUUCUGGAAUUUUUUUUCAAUUUCACCAA	chr11:106885219-106885339$1	su1	19	53	7.0345
GCGGGCAGAUUUGAACCCAUGGUGGAAAACUUGC	chr12:31545207-31545343$1	su1	30	64	8.6844
acggaaaUcUUUagUaaaaggcgaaagaUUUaUU	chr1:45187405-45187596$1	su1	111	145	7.4870
CCUUGGUGGACACAAGCAGCUGUGAACCCGGGGG	chr9:27414312-27414432$1	su1	22	56	10.2264
GACACCCUCUCAAUGGCUGAGGGGAAGAAGAGGG	chr13:95858783-95858919$1	su1	33	67	6.9666
AAAGCAGAUGUCACUGGCUGUAGAAGAUCGUCUG	chr9:15135635-15135754$1	su1	35	69	8.8641
UccgcUUaaUUcaUcUUaUgagUcUUggccaUca	chr10:6097339-6097476$1	su1	7	41	9.2899
GGUAAAUGAAGCUAACAAGAUAGCAAGAAAUUAC	chr18:56999885-57000018$1	su1	65	99	8.3787
GUGGCUCCUCCUGAGUACCAUCGGAAAGCUGUGU	chr15:79189286-79189409$1	su1	87	121	5.9779
UUCAUUUUUAUACUUGUAAGCAGCCCCAAGAAUG	chr3:47787351-47787487$1	su1	54	88	10.0570
UUGUGAGUAUGUGUUUUAAACCAAAACCCAUAGA	chr1:245155248-245155366$1	su1	18	52	7.5182
aUUgcUaUUaaacUgcUUcaagagaUcacagUga	chr5:157960068-157960186$1	su1	64	98	10.6005
UGUGGCCAAGGGUCAAAGAAGGCCUGAAGUAAGA	chr20:2442400-2442607$1	su1	162	196	10.9326
UACCCAGGCACUGGUGCUCUCCAAGGCCCUGGCU	chr11:75057766-75057889$1	su1	5	39	12.3411
cUUaaacUcagaacccaggUcUgacUccaagUcc	chr3:120351733-120351853$1	su1	21	55	8.4014
AAAUUAAAUGUGCAAAAAUGUUUUACCAUCUGCU	chrX:42528818-42528937$1	su1	56	90	5.4650
ACAGCCUAGACUCAAUCAGAAGAAAAUGGGCAUU	chr1:42788323-42788447$1	su1	21	55	4.6037
CUCCGAGGAGGGUUGGUGGGGACUCGAACCUCGG	chr2:71693171-71693286$1	su1	13	47	11.4235
GGACAAUGGAGCCGAAAGCCGGCGUCUGCCGUCC	chr8:38089660-38089777$1	su1	22	56	7.8721
UCAGCCCUCCUGGGCCCUCCACACCCACGGCUGC	chr16:87868202-87868338$1	su1	65	99	7.0648
gUaaaUgggcUggUaaaagaaUcUgUcUcaUUaa	chr5:10253913-10254032$1	su1	68	102	11.0800
GGGCCCACUCCUCACCGUUUGUGCUCGUGUCCCC	chr11:12944861-12944997$1	su1	69	103	11.0966
CGUGGGGAGGCAGACCAGGAGUCUGACAACUCUG	chr11:70200145-70200260$1	su1	58	92	9.0015
aUUgUagagaUgcaUcUUgUUgUaUUUacaacUg	chr2:223455331-223455467$1	su1	70	104	9.7823
CUUGGACCAAAUGGUAAGAGUCCACCAUUCCGUG	chr5:10254237-10254365$1	su1	67	101	5.3983
AAUGCUUUCUUCUCCUCCAUGGUCUGGAAGCGGC	chr14:99439185-99439321$1	su1	79	113	9.9333
GAAAUUACUCUGAAAGGUCAUUCAAAGAACUUCA	chr2:42577594-42577730$1	su1	4	38	7.8601
AGAAUCUGAAAAUUCUAACUGAAGGAUUCAUUUA	chr6:101123720-101123843$1	su1	62	96	8.3460
CCUGCAGGUGGGCGGUAAGUCACCCAUCCUGUAG	chr6:86200262-86200398$1	su1	99	133	9.8697
ACCUCGCCCGUGCCAGCUCCUGCCACGAGGCACC	chrX:153594505-153594641$1	su1	68	102	4.6458
CCUUGAAAGAGCCGUUGGUUGGUUcaUUcaUUca	chr22:47277061-47277181$1	su1	50	84	5.6395
AGAGGAUCCAUUAGAAGUUGCUGGUGGUAUCUGA	chr2:55785929-55786047$1	su1	23	57	10.1392
AGAUAGAGGAUUUCUUAGAGAGACGCCUGCAGAC	chr19:54710179-54710315$1	su1	45	79	9.7909
CACGAUCCCGCUGCUUGUGCAGCUCCUCCUCCAG	chr7:127222578-127222708$1	su1	43	77	8.6967
gcUcagUgUcUgcccaaaUggccgcccagUUUUg	chr9:88705642-88705777$1	su1	99	133	9.5292
UAUCUUAGAGACAAGCUCACAGCACCUUUAAGUG	chr16:84512152-84512288$1	su1	9	43	7.0354
GUGCCGGGGCACUGGCCAGCCCCAAACCACUCCU	chr6:33650350-33650468$1	su1	77	111	6.3433
UCCAACUUCUUGUUCACCUUCUAGUAAAUGGAGC	chr9:97050177-97050299$1	su1	47	81	7.8055
CCUGGCGGCGGUGUUAGAGUACCUGACCGCCGAG	chr6:26124441-26124971$1	su1	171	205	7.4030
CAGGGCAGCGUGUGACAGAGAUAGGAAGAGCCGG	chr9:87508425-87508542$1	su1	31	65	8.6298
ACAGCUGGAGAAGUUACUUUUAUUCUUGCAGUUU	chr6:99990221-99990357$1	su1	42	76	6.5687
UGUAGACAAAAAUACUGACUUACAUAUGAAGAGA	chr1:225681682-225681818$1	su1	24	58	6.0330
ccagacUgUUggaaaaagCUAGCAUGUGAGAGCA	chr1:94116929-94117055$1	su1	26	60	7.6873
UGAAUAGAGAGGGUGACUAAAAUAUUUCUGUAUC	chr15:86216464-86216587$1	su1	6	40	11.5398
UUGGAGAACAGUUCUCAAAAAGAAAACGUGUUUA	chr15:31197410-31197546$1	su1	71	105	7.3064
UGCUAGUUCCUUCCGGAUACUGAGAACUCAGCAC	chr9:35752883-35753019$1	su1	4	38	6.4969
CAAUCACUAGAAAUUUGGAUAAUAUUAGAGUGAG	chrX:91485071-91485193$1	su1	11	45	8.3087
AGUAAUAGAGGGAGGAGGAACACGAGGUAUUCAU	chr3:48509264-48509412$1	su1	98	132	12.2607
CCUACUAUCAGUCAGCAGCUGACACUGUGGAAGA	chr8:53162940-53163069$1	su1	20	54	8.2438
GGAGUCAAAAUCCUUAGUCAGAUGGGGGGAAAAG	chr12:108957249-108957364$1	su1	13	47	9.2785
aaUcacaUUgcaUUcaaUcaaUcaGCUGUGAUUG	chr2:196602050-196602174$1	su1	54	88	10.3338
UUGGUCGGCGGGAUUUCCAUUCCGGAUGAGCAGU	chr3:158390196-158390318$1	su1	51	85	7.5341
GGGUGUGGGGCUGGGUAGGCAGAACCAGACUUGG	chr1:153921759-153921889$1	su1	1	35	8.4421
AggggggggcUgccccggggcggcccccccaggU	chr22:25960828-25960952$1	su1	61	95	9.2027
CUCAGCUGAAGAGUGGUAACACUGAGGAGUGGUU	chr6:27792146-27792305$1	su1	116	150	6.0057
CCAGCCGUUGUGGCCCUUGAGGGUGCCACGAAGG	chr5:180670740-180670903$1	su1	9	43	7.4634
GGUGCUGAAGCAGGUCCAUCCCGACACCGGCAUC	chr6:26158489-26158625$1	su1	39	73	7.9838
AGUUCUCCAAGCAGGUGGUCCUGGAGGCAAGCUG	chr8:144450128-144450250$1	su1	34	68	8.0144
AAGCUGGUGGGGUCGGACCAGGCCCCGGGCCGGG	chr9:139702598-139702734$1	su1	68	102	4.3639
UUCUCCAGGGUGUGCCUGUGGCAUUAAGUGGUAG	chr17:61885052-61885171$1	su1	23	57	9.9511
UgaaacUcggcgUgaaUUcUacacUgacagcaUa	chr10:69882722-69882852$1	su1	46	80	7.5621
gccUcagccUcccaaaUaacUgggacUacaggca	chr21:16384802-16384920$1	su1	83	117	10.5423
CACAUUCGCUUCCUAAACACAGGUGCUGUGAGUG	chr3:128985824-128985960$1	su1	20	54	11.4457
GUUUCAUCAUUGAGUGACUUCUUCGGCGAACUCU	chr9:99521849-99521971$1	su1	55	89	11.8126
AUUCUGUGUAAAACUGUACUGUUAAAUAUAUGUG	chr13:21721652-21721788$1	su1	47	81	11.4049
AUUAGGAUGACUUCAGCACAUCCAUUAUGAACUC	chr21:35902637-35902757$1	su1	48	82	8.8398
UCCCUCACAAUGACCAUAACGUCUCUGGCCAGGA	chr6:154727115-154727253$1	su1	49	83	11.5420
UUUacaaUUUUgaUUUccaUUUgUUagUagUacg	chr14:105900738-105900874$1	su1	43	77	7.8778
CUGGGAGUAGUUGAAGAACAGAUAAUUCCUUCCA	chr2:85876211-85876347$1	su1	21	55	6.9641
gaaaUggaaaUUaaaacUacacUgaaaaaccaUU	chr2:105918480-105918611$1	su1	96	130	6.2376
aaaaaaaaUUaUUUaUUUUUgaaaaUUUUUaaaU	chr1:46030376-46030494$1	su1	66	100	7.6718
ACUCAUGAGCAUUACCCAGAGUAUGACCUGUGAG	chr11:111321787-111321907$1	su1	43	77	9.3795
GGAUCACAGGUAUAAUUCAAGCUUUUCAUGUAGU	chr10:79799968-79800092$1	su1	6	40	8.7891
aaaUGCAAAAAAAAAAAAAAAAACCUACUGCAUA	chr3:12370586-12370722$1	su1	73	107	8.1132

#PSSM
e : 0.17	c : 0.12	d : 0.10	f : 0.09	# : 0.06	g : 0.06	i : 0.05	: : 0.05	" : 0.04	b : 0.03	= : 0.03	$ : 0.03	! : 0.03	% : 0.02	3 : 0.01	I : 0.01	m : 0.01	[ : 0.01	h : 0.01	+ : 0.01	C : 0.01	
e : 0.15	f : 0.11	d : 0.10	# : 0.09	! : 0.07	" : 0.06	[ : 0.05	c : 0.05	g : 0.04	= : 0.04	b : 0.03	: : 0.03	$ : 0.03	i : 0.03	a : 0.02	% : 0.02	h : 0.01	+ : 0.01	
e : 0.17	f : 0.11	# : 0.09	d : 0.09	! : 0.08	[ : 0.08	g : 0.06	" : 0.06	= : 0.05	b : 0.04	$ : 0.03	i : 0.03	% : 0.02	: : 0.01	c : 0.01	h : 0.01	+ : 0.01	
e : 0.20	d : 0.12	f : 0.11	g : 0.10	c : 0.07	b : 0.06	# : 0.06	[ : 0.04	= : 0.04	! : 0.04	i : 0.03	" : 0.02	2 : 0.01	$ : 0.01	% : 0.01	h : 0.01	+ : 0.01	a : 0.01	
e : 0.18	g : 0.11	f : 0.10	c : 0.10	d : 0.09	b : 0.07	# : 0.07	[ : 0.04	= : 0.04	! : 0.04	a : 0.02	$ : 0.02	i : 0.02	" : 0.02	2 : 0.01	h : 0.01	+ : 0.01	
e : 0.17	c : 0.15	g : 0.13	f : 0.11	# : 0.07	d : 0.07	b : 0.05	= : 0.04	[ : 0.03	$ : 0.03	! : 0.02	i : 0.02	" : 0.02	a : 0.01	w : 0.01	h : 0.01	+ : 0.01	
g : 0.13	e : 0.13	f : 0.12	c : 0.09	# : 0.08	d : 0.07	! : 0.06	b : 0.04	= : 0.04	$ : 0.04	" : 0.04	[ : 0.04	i : 0.02	w : 0.02	h : 0.01	+ : 0.01	
e : 0.13	g : 0.12	f : 0.09	# : 0.09	c : 0.09	! : 0.08	$ : 0.06	b : 0.05	[ : 0.04	d : 0.03	a : 0.03	= : 0.03	" : 0.02	i : 0.02	w : 0.02	^ : 0.02	+ : 0.01	v : 0.01	
f : 0.12	g : 0.12	# : 0.10	c : 0.08	e : 0.08	$ : 0.07	" : 0.06	! : 0.06	d : 0.05	[ : 0.05	= : 0.03	^ : 0.03	a : 0.03	b : 0.03	w : 0.02	v : 0.01	
e : 0.11	c : 0.11	f : 0.11	g : 0.09	# : 0.09	! : 0.09	$ : 0.06	d : 0.05	" : 0.05	^ : 0.04	a : 0.03	= : 0.03	b : 0.02	[ : 0.02	w : 0.02	r : 0.01	v : 0.01	
e : 0.13	c : 0.11	f : 0.10	d : 0.09	# : 0.08	" : 0.07	[ : 0.06	! : 0.06	g : 0.05	$ : 0.04	^ : 0.04	= : 0.03	b : 0.03	w : 0.02	q : 0.01	r : 0.01	v : 0.01	
c : 0.20	e : 0.14	d : 0.12	f : 0.07	# : 0.05	^ : 0.04	g : 0.04	b : 0.04	$ : 0.03	r : 0.03	q : 0.03	" : 0.03	[ : 0.03	! : 0.02	= : 0.02	a : 0.02	w : 0.02	o : 0.01	v : 0.01	
c : 0.21	e : 0.12	d : 0.10	b : 0.07	[ : 0.07	f : 0.06	q : 0.05	^ : 0.04	r : 0.04	# : 0.03	! : 0.02	= : 0.02	" : 0.02	o : 0.02	g : 0.02	w : 0.02	$ : 0.01	n : 0.01	s : 0.01	v : 0.01	
c : 0.22	e : 0.11	d : 0.10	b : 0.09	f : 0.06	q : 0.06	a : 0.05	r : 0.05	^ : 0.04	o : 0.03	= : 0.02	g : 0.02	w : 0.02	[ : 0.02	! : 0.01	n : 0.01	# : 0.01	p : 0.01	s : 0.01	v : 0.01	
o : 0.32	c : 0.12	q : 0.07	r : 0.06	n : 0.06	m : 0.05	b : 0.05	e : 0.05	^ : 0.04	d : 0.04	w : 0.02	f : 0.01	= : 0.01	l : 0.01	p : 0.01	s : 0.01	a : 0.01	v : 0.01	
o : 0.32	n : 0.17	m : 0.11	q : 0.08	c : 0.07	r : 0.06	^ : 0.04	l : 0.04	w : 0.02	p : 0.01	s : 0.01	b : 0.01	e : 0.01	v : 0.01	
o : 0.32	n : 0.18	m : 0.14	q : 0.08	r : 0.06	l : 0.06	^ : 0.04	c : 0.03	w : 0.02	p : 0.01	s : 0.01	v : 0.01	
o : 0.31	n : 0.17	m : 0.14	q : 0.08	l : 0.08	r : 0.06	^ : 0.04	f : 0.02	w : 0.02	g : 0.01	p : 0.01	s : 0.01	v : 0.01	
o : 0.30	n : 0.17	m : 0.09	q : 0.07	e : 0.06	r : 0.05	l : 0.05	^ : 0.04	f : 0.04	w : 0.02	g : 0.01	c : 0.01	a : 0.01	p : 0.01	s : 0.01	= : 0.01	v : 0.01	
o : 0.29	n : 0.11	e : 0.09	c : 0.07	f : 0.06	q : 0.05	r : 0.05	d : 0.05	^ : 0.04	m : 0.03	l : 0.03	= : 0.02	g : 0.01	p : 0.01	s : 0.01	a : 0.01	w : 0.01	v : 0.01	
c : 0.31	e : 0.14	d : 0.11	b : 0.09	f : 0.08	^ : 0.04	a : 0.04	q : 0.03	r : 0.03	= : 0.03	g : 0.02	s : 0.01	n : 0.01	] : 0.01	
c : 0.31	e : 0.14	b : 0.13	d : 0.11	f : 0.08	^ : 0.04	= : 0.03	] : 0.03	q : 0.02	g : 0.02	r : 0.02	s : 0.01	3 : 0.01	
c : 0.31	e : 0.17	d : 0.12	f : 0.08	b : 0.05	3 : 0.04	^ : 0.04	] : 0.04	= : 0.03	a : 0.02	g : 0.02	2 : 0.02	r : 0.01	q : 0.01	
3 : 0.18	e : 0.12	2 : 0.11	d : 0.10	f : 0.08	c : 0.08	4 : 0.07	] : 0.07	^ : 0.04	g : 0.04	= : 0.03	6 : 0.01	5 : 0.01	b : 0.01	
3 : 0.18	4 : 0.12	c : 0.12	2 : 0.10	e : 0.09	f : 0.06	] : 0.05	g : 0.05	^ : 0.04	d : 0.04	= : 0.03	6 : 0.02	a : 0.02	b : 0.02	5 : 0.01	
3 : 0.18	4 : 0.14	b : 0.10	g : 0.08	] : 0.07	e : 0.07	d : 0.06	c : 0.06	^ : 0.04	f : 0.04	= : 0.03	2 : 0.03	6 : 0.02	a : 0.02	5 : 0.01	
4 : 0.14	c : 0.13	b : 0.10	e : 0.09	g : 0.08	a : 0.07	d : 0.07	^ : 0.04	= : 0.04	3 : 0.04	f : 0.04	2 : 0.04	] : 0.03	6 : 0.02	5 : 0.01	
] : 0.19	c : 0.10	e : 0.10	g : 0.09	4 : 0.08	d : 0.07	3 : 0.05	2 : 0.05	^ : 0.04	= : 0.04	f : 0.04	b : 0.04	6 : 0.02	5 : 0.01	i : 0.01	h : 0.01	a : 0.01	
e : 0.19	c : 0.15	g : 0.13	f : 0.10	d : 0.10	= : 0.05	b : 0.04	^ : 0.03	i : 0.03	2 : 0.03	4 : 0.03	6 : 0.02	3 : 0.02	] : 0.02	h : 0.01	
e : 0.22	g : 0.14	f : 0.11	c : 0.11	] : 0.08	d : 0.08	= : 0.04	i : 0.04	^ : 0.02	b : 0.02	4 : 0.02	3 : 0.02	" : 0.01	6 : 0.01	2 : 0.01	a : 0.01	h : 0.01	
e : 0.23	f : 0.12	g : 0.12	c : 0.10	d : 0.09	] : 0.06	i : 0.05	= : 0.03	^ : 0.02	b : 0.02	2 : 0.02	4 : 0.02	3 : 0.02	" : 0.01	: : 0.01	8 : 0.01	6 : 0.01	h : 0.01	
e : 0.24	f : 0.13	g : 0.10	d : 0.07	c : 0.05	] : 0.05	i : 0.05	: : 0.04	b : 0.03	a : 0.03	= : 0.03	3 : 0.03	^ : 0.02	2 : 0.02	h : 0.02	" : 0.01	4 : 0.01	8 : 0.01	6 : 0.01	
e : 0.27	f : 0.12	] : 0.09	g : 0.07	d : 0.05	i : 0.05	: : 0.04	c : 0.04	3 : 0.04	= : 0.03	2 : 0.03	^ : 0.02	b : 0.02	h : 0.02	l : 0.01	F : 0.01	4 : 0.01	8 : 0.01	7 : 0.01	6 : 0.01	
e : 0.19	f : 0.14	d : 0.09	c : 0.08	g : 0.08	i : 0.06	: : 0.05	2 : 0.04	b : 0.03	= : 0.03	^ : 0.02	h : 0.02	] : 0.02	3 : 0.02	7 : 0.02	l : 0.01	F : 0.01	8 : 0.01	a : 0.01	6 : 0.01	5 : 0.01	

#score	805.6085941141665
#seq	94
#width	34
#escape	false
#onStep	15000
#minSteps	10000
#maxSteps	15000.0