ddd!!bbpppppppbb22ddd	SeqCat01|98$1	185	84	105	12.1093
gggggggpppppppggggggg	SeqCat02|41$1	170	22	43	17.3502
gggggggpppppppggggggg	SeqCat03|134$1	170	38	59	17.3502
gggggggpppppppggggggg	SeqCat02|159$1	170	23	44	17.3502
gggggggpppppppggggggg	SeqCat03|103$1	170	41	62	17.3502
Effffffpppppppffffffc	SeqCat01|55$1	185	4	25	13.0463
gggggggpppppppggggggg	SeqCat03|53$1	170	45	66	17.3502
hhhhhhhppppppphhhhhhh	SeqCat03|110$1	170	14	35	15.5170
gggggggpppppppggggggg	SeqCat02|84$1	170	33	54	17.3502
cffffffpppppppffffff]	SeqCat03|56$1	170	9	30	14.1714
hhhhhhrrrrrrrrrhhhhhh	SeqCat03|29$1	170	130	151	11.0439
!!ddddrrrrrrrrrdddddd	SeqCat01|92$1	185	145	166	8.7373
gggggggpppppppggggggg	SeqCat02|190$1	170	0	21	17.3502
eeeeeeepppppppeeeee]e	SeqCat01|166$1	185	45	66	13.7637
gggggggpppppppggggggg	SeqCat03|113$1	170	42	63	17.3502
gggggggpppppppggggggg	SeqCat03|136$1	170	27	48	17.3502
ebb[cccpppppppcccbb22	SeqCat01|60$1	185	108	129	12.9995
gggggggpppppppggggggg	SeqCat03|85$1	170	37	58	17.3502
eeee[bbpppppppbb]eeee	SeqCat01|49$1	185	2	23	13.0134
cffffffpppppppffffff]	SeqCat02|119$1	170	83	104	14.1714
gggggggpppppppggggggg	SeqCat02|40$1	170	15	36	17.3502
gggggggpppppppggggggg	SeqCat02|170$1	170	43	64	17.3502
gggggggpppppppggggggg	SeqCat03|188$1	170	43	64	17.3502
gggggggpppppppggggggg	SeqCat03|34$1	170	42	63	17.3502
gggggggpppppppggggggg	SeqCat03|120$1	170	33	54	17.3502
eeeeerrrrrrrrreeeeeee	SeqCat01|54$1	185	132	153	9.3506
gggggggpppppppggggggg	SeqCat03|46$1	170	96	117	17.3502
gggggggpppppppggggggg	SeqCat02|117$1	170	14	35	17.3502
gggggggpppppppggggggg	SeqCat02|111$1	170	47	68	17.3502
gggggggpppppppggggggg	SeqCat02|57$1	170	43	64	17.3502
hhhhhhhppppppphhhhhhh	SeqCat03|89$1	170	20	41	15.5170
dd[ddddpppppppdddd]dd	SeqCat01|169$1	185	79	100	12.6535
ccc!!bbpppppppbb22ccc	SeqCat03|125$1	170	77	98	13.1634
gggggggpppppppggggggg	SeqCat02|198$1	170	39	60	17.3502
gggggggpppppppggggggg	SeqCat03|26$1	170	22	43	17.3502
gggggggpppppppggggggg	SeqCat03|58$1	170	44	65	17.3502
hhhhhhhppppppphhhhhhh	SeqCat03|150$1	170	27	48	15.5170
##eeeeepppppppeeeee44	SeqCat03|114$1	170	134	155	13.2089
ggg[cccpppppppccc]ggg	SeqCat01|94$1	185	148	169	16.0973
gggggggpppppppggggggg	SeqCat02|177$1	170	18	39	17.3502
"ddddrrrrrrrrrdddd333	SeqCat01|39$1	185	57	78	8.3954
gggggggpppppppggggggg	SeqCat03|137$1	170	47	68	17.3502
hhhhhhhppppppphhhhhhh	SeqCat03|178$1	170	5	26	15.5170
ffffffrrrrrrrrrffffff	SeqCat01|75$1	185	115	136	9.5588
gggggggpppppppggggggg	SeqCat02|131$1	170	47	68	17.3502
gggggggpppppppggggggg	SeqCat02|196$1	170	5	26	17.3502
!!eeeeepppppppeeeeeee	SeqCat01|5$1	185	125	146	14.1092
hhhhhhhppppppphhhhhhh	SeqCat03|79$1	170	25	46	15.5170
gggggggqqqqqqqqgggggg	SeqCat03|129$1	170	28	49	7.8017
###ddddpppppppddddddd	SeqCat01|95$1	185	141	162	12.2817
!!eeeeerrrrrrrrreeeee	SeqCat01|12$1	185	39	60	9.8124
hhhhhhhppppppphhhhhhh	SeqCat02|182$1	170	30	51	15.5170
##eeeeerrrrrrrrreeeee	SeqCat03|133$1	170	60	81	9.3494
hhhhhhhppppppphhhhhhh	SeqCat02|17$1	170	22	43	15.5170
hhhhhhhppppppphhhhhhh	SeqCat02|109$1	170	18	39	15.5170
gggggggpppppppggggggg	SeqCat02|126$1	170	47	68	17.3502
gggggggpppppppggggggg	SeqCat03|184$1	170	41	62	17.3502
gggggggpppppppggggggg	SeqCat03|122$1	170	1	22	17.3502
A:eeeeepppppppeeeee::	SeqCat01|127$1	185	101	122	9.5976
hhhhhhhppppppphhhhhhh	SeqCat02|116$1	170	27	48	15.5170
dddddddpppppppdddd]dd	SeqCat03|86$1	170	62	83	12.4038
hhhhhhhppppppphhhhhhh	SeqCat03|47$1	170	3	24	15.5170
hhhhhhhppppppphhhhhhh	SeqCat02|82$1	170	14	35	15.5170
:ffffffpppppppffffffB	SeqCat03|191$1	170	4	25	11.9600
gggggggpppppppggggggg	SeqCat02|142$1	170	14	35	17.3502
gggggggpppppppggggggg	SeqCat03|148$1	170	14	35	17.3502
gggggggpppppppggggggg	SeqCat03|50$1	170	42	63	17.3502
!gggggggooooooggggggg	SeqCat01|62$1	185	110	131	7.4749
iiiiiiipppppppiiiiiii	SeqCat02|52$1	170	20	41	16.4817
dffffffpppppppffffff:	SeqCat03|112$1	170	34	55	12.8392
ccc[cccpppppppccc]ccc	SeqCat01|161$1	185	85	106	14.9418
gggggggpppppppggggggg	SeqCat02|197$1	170	39	60	17.3502
gggggggpppppppggggggg	SeqCat03|130$1	170	37	58	17.3502
gggggggpppppppggggggg	SeqCat03|108$1	170	21	42	17.3502
cc!!cccpppppppccc22cc	SeqCat01|88$1	185	21	42	14.4731
gggggggpppppppggggggg	SeqCat03|149$1	170	22	43	17.3502
iiiiiiipppppppiiiiiii	SeqCat03|70$1	170	10	31	16.4817
gggggggpppppppggggggg	SeqCat03|78$1	170	24	45	17.3502
ddd[cccpppppppcccdddd	SeqCat01|31$1	185	151	172	13.6847
!ffffffpppppppffffff4	SeqCat01|152$1	185	60	81	13.9748
a"""cccpppppppccc22ad	SeqCat01|153$1	185	159	180	13.5815
gggggggpppppppggggggg	SeqCat03|8$1	170	8	29	17.3502
gggggggpppppppggggggg	SeqCat03|73$1	170	10	31	17.3502
gggggggpppppppggggggg	SeqCat02|15$1	170	11	32	17.3502
hhhhhhhppppppphhhhhhh	SeqCat02|45$1	170	37	58	15.5170
!!a[cccpppppppcccafff	SeqCat02|168$1	170	117	138	14.7039
gggggggpppppppggggggg	SeqCat03|61$1	170	28	49	17.3502
:ffffffpppppppfffffff	SeqCat03|160$1	170	12	33	12.9728
gggggggpppppppggggggg	SeqCat03|81$1	170	15	36	17.3502
gggggggpppppppggggggg	SeqCat03|187$1	170	8	29	17.3502
hhhhhhhppppppphhhhhhh	SeqCat03|87$1	170	39	60	15.5170
gggggggpppppppggggggg	SeqCat02|91$1	170	15	36	17.3502
hhhhhhhppppppphhhhhhh	SeqCat03|167$1	170	14	35	15.5170
EEeeeeepppppppeeeeedd	SeqCat03|145$1	170	7	28	11.4767
gggggggpppppppggggggg	SeqCat02|144$1	170	13	34	17.3502
gggggggpppppppggggggg	SeqCat03|135$1	170	30	51	17.3502
+ffffffpppppppffffffg	SeqCat03|132$1	170	23	44	13.4941

#otherMatches

#Seq PSSM
GGGACUCAAUGAAGGAAGCCU	SeqCat01|98$1	su1	84	105	12.1093
AUGGAAGAGUAAGCCUUCCAU	SeqCat02|41$1	su1	22	43	17.3502
AUGGAAGAGUAAGCCUUCCAU	SeqCat03|134$1	su1	38	59	17.3502
AUGGAAGAGUAAGCCUUCCAU	SeqCat02|159$1	su1	23	44	17.3502
AUGGAAGAGUAAGCCUUCCAU	SeqCat03|103$1	su1	41	62	17.3502
CGAAUGGAGCAGAGUCAUUCC	SeqCat01|55$1	su1	4	25	13.0463
AUGGAAGAGUAAGCCUUCCAU	SeqCat03|53$1	su1	45	66	17.3502
AUGGAAGAGUAAGCCUUCCAU	SeqCat03|110$1	su1	14	35	15.5170
AUGGAAGAGUAAGCCUUCCAU	SeqCat02|84$1	su1	33	54	17.3502
AUGGAAGAGUAAGCCUUCCAU	SeqCat03|56$1	su1	9	30	14.1714
GGGUCCCAACGCCAUGGACCU	SeqCat03|29$1	su1	130	151	11.0439
UUUACGCCCAUCUCACGUAUG	SeqCat01|92$1	su1	145	166	8.7373
AUGGAAGAGUAAGCCUUCCAU	SeqCat02|190$1	su1	0	21	17.3502
UGGUCUGUACAACUCGGGCGC	SeqCat01|166$1	su1	45	66	13.7637
AUGGAAGAGUAAGCCUUCCAU	SeqCat03|113$1	su1	42	63	17.3502
AUGGAAGAGUAAGCCUUCCAU	SeqCat03|136$1	su1	27	48	17.3502
ACUAUGGACUAAACCCAAGAA	SeqCat01|60$1	su1	108	129	12.9995
AUGGAAGAGUAAGCCUUCCAU	SeqCat03|85$1	su1	37	58	17.3502
AUACCCGGAAAGCGCGCGUAU	SeqCat01|49$1	su1	2	23	13.0134
AGACUGAGGCGCAGUCGGUCA	SeqCat02|119$1	su1	83	104	14.1714
AUGGAAGAGUAAGCCUUCCAU	SeqCat02|40$1	su1	15	36	17.3502
AUGGAAGAGUAAGCCUUCCAU	SeqCat02|170$1	su1	43	64	17.3502
AUGGAAGAGUAAGCCUUCCAU	SeqCat03|188$1	su1	43	64	17.3502
AUGGAAGAGUAAGCCUUCCAU	SeqCat03|34$1	su1	42	63	17.3502
AUGGAAGAGUAAGCCUUCCAU	SeqCat03|120$1	su1	33	54	17.3502
CCGCUCUCGGGCUCAGCGGGU	SeqCat01|54$1	su1	132	153	9.3506
GAUCAUAAUUAACCUAUGAUU	SeqCat03|46$1	su1	96	117	17.3502
AUGGAAGAGUAAGCCUUCCAU	SeqCat02|117$1	su1	14	35	17.3502
AUGGAAGAGUAAGCCUUCCAU	SeqCat02|111$1	su1	47	68	17.3502
AUGGAAGAGUAAGCCUUCCAU	SeqCat02|57$1	su1	43	64	17.3502
AUGGAAGAGUAAGCCUUCCAU	SeqCat03|89$1	su1	20	41	15.5170
GGCAUGCACAUUCAGCGUAUC	SeqCat01|169$1	su1	79	100	12.6535
GCUCGCUGGUCCUAAGAUAGU	SeqCat03|125$1	su1	77	98	13.1634
AUGGAAGAGUAAGCCUUCCAU	SeqCat02|198$1	su1	39	60	17.3502
AUGGAAGAGUAAGCCUUCCAU	SeqCat03|26$1	su1	22	43	17.3502
AUGGAAGAGUAAGCCUUCCAU	SeqCat03|58$1	su1	44	65	17.3502
AUGGAAGAGUAAGCCUUCCAU	SeqCat03|150$1	su1	27	48	15.5170
CUUUAUGAAGACUGCAUAAUC	SeqCat03|114$1	su1	134	155	13.2089
UCCUUGGAUUGACCCCAUGGA	SeqCat01|94$1	su1	148	169	16.0973
AUGGAAGAGUAAGCCUUCCAU	SeqCat02|177$1	su1	18	39	17.3502
GCUGCGUAUCUGGAGCAGAAA	SeqCat01|39$1	su1	57	78	8.3954
AUGGAAGAGUAAGCCUUCCAU	SeqCat03|137$1	su1	47	68	17.3502
AUGGAAGAGUAAGCCUUCCAU	SeqCat03|178$1	su1	5	26	15.5170
UGACGCAUUACGAGAGCGUCA	SeqCat01|75$1	su1	115	136	9.5588
AUGGAAGAGUAAGCCUUCCAU	SeqCat02|131$1	su1	47	68	17.3502
AUGGAAGAGUAAGCCUUCCAU	SeqCat02|196$1	su1	5	26	17.3502
UUAAGAUCAGUCUUGUCUUUG	SeqCat01|5$1	su1	125	146	14.1092
AUGGAAGAGUAAGCCUUCCAU	SeqCat03|79$1	su1	25	46	15.5170
AGAGUAAGCCUUCCAUUACUU	SeqCat03|129$1	su1	28	49	7.8017
CUUAUAUGUAGCCAAUAUCUC	SeqCat01|95$1	su1	141	162	12.2817
GUGGCGUCAUUCCUUUACGCU	SeqCat01|12$1	su1	39	60	9.8124
AUGGAAGAGUAAGCCUUCCAU	SeqCat02|182$1	su1	30	51	15.5170
AACAGUGAUACGGUCCCGCUG	SeqCat03|133$1	su1	60	81	9.3494
AUGGAAGAGUAAGCCUUCCAU	SeqCat02|17$1	su1	22	43	15.5170
AUGGAAGAGUAAGCCUUCCAU	SeqCat02|109$1	su1	18	39	15.5170
AUGGAAGAGUAAGCCUUCCAU	SeqCat02|126$1	su1	47	68	17.3502
AUGGAAGAGUAAGCCUUCCAU	SeqCat03|184$1	su1	41	62	17.3502
AUGGAAGAGUAAGCCUUCCAU	SeqCat03|122$1	su1	1	22	17.3502
CAGUCCUACCCUCAAGGACAA	SeqCat01|127$1	su1	101	122	9.5976
AUGGAAGAGUAAGCCUUCCAU	SeqCat02|116$1	su1	27	48	15.5170
AAUGUCUAAAGUCGAGACGGU	SeqCat03|86$1	su1	62	83	12.4038
AUGGAAGAGUAAGCCUUCCAU	SeqCat03|47$1	su1	3	24	15.5170
AUGGAAGAGUAAGCCUUCCAU	SeqCat02|82$1	su1	14	35	15.5170
AUGGAAGAGUAAGCCUUCCAU	SeqCat03|191$1	su1	4	25	11.9600
AUGGAAGAGUAAGCCUUCCAU	SeqCat02|142$1	su1	14	35	17.3502
AUGGAAGAGUAAGCCUUCCAU	SeqCat03|148$1	su1	14	35	17.3502
AUGGAAGAGUAAGCCUUCCAU	SeqCat03|50$1	su1	42	63	17.3502
AACUUUGCCGUUGAGCAAGGU	SeqCat01|62$1	su1	110	131	7.4749
AUGGAAGAGUAAGCCUUCCAU	SeqCat02|52$1	su1	20	41	16.4817
AUGGAAGAGUAAGCCUUCCAU	SeqCat03|112$1	su1	34	55	12.8392
GGCAGUUACGUCGGGGCAGCC	SeqCat01|161$1	su1	85	106	14.9418
AUGGAAGAGUAAGCCUUCCAU	SeqCat02|197$1	su1	39	60	17.3502
AUGGAAGAGUAAGCCUUCCAU	SeqCat03|130$1	su1	37	58	17.3502
AUGGAAGAGUAAGCCUUCCAU	SeqCat03|108$1	su1	21	42	17.3502
GUCGGGAGCUUUAGUCCAAAC	SeqCat01|88$1	su1	21	42	14.4731
AUGGAAGAGUAAGCCUUCCAU	SeqCat03|149$1	su1	22	43	17.3502
AUGGAAGAGUAAGCCUUCCAU	SeqCat03|70$1	su1	10	31	16.4817
AUGGAAGAGUAAGCCUUCCAU	SeqCat03|78$1	su1	24	45	17.3502
GCGAUUGGACCAGGCAACGCG	SeqCat01|31$1	su1	151	172	13.6847
UGGUACUGAAAAGAGGUGCCU	SeqCat01|152$1	su1	60	81	13.9748
GCUUCUGAUUGAAACAGUACC	SeqCat01|153$1	su1	159	180	13.5815
AUGGAAGAGUAAGCCUUCCAU	SeqCat03|8$1	su1	8	29	17.3502
AUGGAAGAGUAAGCCUUCCAU	SeqCat03|73$1	su1	10	31	17.3502
AUGGAAGAGUAAGCCUUCCAU	SeqCat02|15$1	su1	11	32	17.3502
AUGGAAGAGUAAGCCUUCCAU	SeqCat02|45$1	su1	37	58	15.5170
ACGCGUCAAAAUAGGACCUAA	SeqCat02|168$1	su1	117	138	14.7039
AUGGAAGAGUAAGCCUUCCAU	SeqCat03|61$1	su1	28	49	17.3502
AUGGAAGAGUAAGCCUUCCAU	SeqCat03|160$1	su1	12	33	12.9728
AUGGAAGAGUAAGCCUUCCAU	SeqCat03|81$1	su1	15	36	17.3502
AUGGAAGAGUAAGCCUUCCAU	SeqCat03|187$1	su1	8	29	17.3502
AUGGAAGAGUAAGCCUUCCAU	SeqCat03|87$1	su1	39	60	15.5170
AUGGAAGAGUAAGCCUUCCAU	SeqCat02|91$1	su1	15	36	17.3502
AUGGAAGAGUAAGCCUUCCAU	SeqCat03|167$1	su1	14	35	15.5170
AUGGAAGAGUAAGCCUUCCAU	SeqCat03|145$1	su1	7	28	11.4767
AUGGAAGAGUAAGCCUUCCAU	SeqCat02|144$1	su1	13	34	17.3502
AUGGAAGAGUAAGCCUUCCAU	SeqCat03|135$1	su1	30	51	17.3502
AUGGAAGAGUAAGCCUUCCAU	SeqCat03|132$1	su1	23	44	13.4941

#PSSM
g : 0.49	h : 0.15	! : 0.06	d : 0.05	c : 0.05	e : 0.04	# : 0.03	E : 0.02	: : 0.02	i : 0.02	" : 0.01	f : 0.01	A : 0.01	a : 0.01	+ : 0.01	
g : 0.50	h : 0.15	f : 0.09	d : 0.05	! : 0.04	e : 0.03	c : 0.03	# : 0.03	i : 0.02	b : 0.01	: : 0.01	" : 0.01	E : 0.01	
g : 0.50	h : 0.15	f : 0.09	e : 0.09	d : 0.05	c : 0.02	i : 0.02	b : 0.01	[ : 0.01	# : 0.01	! : 0.01	" : 0.01	a : 0.01	
g : 0.49	h : 0.15	f : 0.09	e : 0.09	d : 0.05	[ : 0.05	! : 0.03	i : 0.02	" : 0.01	
g : 0.49	h : 0.15	f : 0.09	e : 0.08	c : 0.07	d : 0.05	! : 0.02	i : 0.02	[ : 0.01	
g : 0.49	h : 0.15	f : 0.09	e : 0.07	c : 0.07	d : 0.04	b : 0.03	r : 0.02	i : 0.02	
g : 0.49	h : 0.14	f : 0.08	e : 0.07	c : 0.07	r : 0.05	b : 0.03	d : 0.03	i : 0.02	
p : 0.90	r : 0.07	q : 0.01	g : 0.01	
p : 0.90	r : 0.07	q : 0.01	o : 0.01	
p : 0.90	r : 0.07	q : 0.01	o : 0.01	
p : 0.90	r : 0.07	q : 0.01	o : 0.01	
p : 0.90	r : 0.07	q : 0.01	o : 0.01	
p : 0.90	r : 0.07	q : 0.01	o : 0.01	
p : 0.90	r : 0.07	q : 0.01	o : 0.01	
g : 0.48	h : 0.14	f : 0.08	c : 0.07	e : 0.06	r : 0.05	d : 0.04	b : 0.03	i : 0.02	q : 0.01	
g : 0.49	h : 0.15	f : 0.09	c : 0.07	e : 0.06	d : 0.05	b : 0.03	r : 0.02	i : 0.02	
g : 0.49	h : 0.15	f : 0.09	e : 0.08	c : 0.07	d : 0.05	2 : 0.02	i : 0.02	] : 0.01	
g : 0.49	h : 0.15	f : 0.09	e : 0.09	d : 0.06	2 : 0.04	] : 0.02	i : 0.02	b : 0.01	a : 0.01	
g : 0.50	h : 0.15	f : 0.10	e : 0.09	d : 0.04	] : 0.02	c : 0.02	i : 0.02	2 : 0.02	b : 0.01	3 : 0.01	
g : 0.50	h : 0.15	f : 0.10	d : 0.07	e : 0.05	c : 0.03	i : 0.02	] : 0.01	2 : 0.01	4 : 0.01	3 : 0.01	: : 0.01	a : 0.01	
g : 0.51	h : 0.15	d : 0.08	e : 0.06	c : 0.04	f : 0.03	] : 0.02	4 : 0.02	: : 0.02	i : 0.02	2 : 0.01	3 : 0.01	B : 0.01	

#score	1474.7322513305146
#seq	97
#width	21
#escape	false
#onStep	15000
#minSteps	10000
#maxSteps	15000.0