:::::bb"""ffffffmmmmffffff333bb::::	RF01051_CP000446.1/3357377-3357290_bg$1	88	6	41	11.8100
:::::bb"""ffffffmmmmffffff333bb::dd	RF01051_AAAC01000001.1/914180-914264_bg$1	85	6	41	13.8396
:::::bb"""ffffffmmmmffffff333bb::dd	RF01051_CP000382.1/1871611-1871526_bg$1	86	6	41	13.8396
:::::bb"""ffffffmmmmffffff333bb::dd	RF01051_CP000246.1/1695696-1695613_bg$1	84	6	41	13.8396
eeeee[bb[affffffmmmmffffff]a]bbeeee	SeqCat01|28$1	185	37	72	29.4325
eeeee[bb[affffffmmmmffffff]a]bbeeee	SeqCat01|153$1	185	36	71	29.4325
fffff[bb[affffffmmmmffffff]a]bbffff	SeqCat01|95$1	185	77	112	27.1487
D:bb!!bb[gggggggmmmmggggggg22bb22bb	SeqCat02|190$1	170	28	63	13.2918
ffffff[cccfffffflllffffff]cccffffff	SeqCat03|34$1	170	78	113	13.7552
22dddddddd!!ffffffmmmmffffffddddggg	SeqCat01|94$1	185	112	147	16.9008
eeeee[bb[affffffmmmmffffff]a]bbeeee	SeqCat01|124$1	185	111	146	29.4325
==[a!!ccc[bb[a[ammmma]a]bb]ccca]===	SeqCat03|112$1	170	120	155	11.6232
eeeee[bb[affffffmmmmffffff]a]bbeeee	SeqCat01|141$1	185	102	137	29.4325
fffff[bb[affffffmmmmffffff]a]bbffff	SeqCat01|5$1	185	54	89	27.1487
eeeee[bb[affffffmmmmffffff]a]bbeeee	SeqCat01|75$1	185	43	78	29.4325
"""eeeee[bbeeeeemmmmeeeee]bb]eeeee3	SeqCat02|168$1	170	46	81	11.8777
fffff[bb[affffffmmmmffffff]a]bbffff	SeqCat01|115$1	185	125	160	27.1487
eeeee[bb[affffffmmmmffffff]a]bbeeee	SeqCat01|72$1	185	139	174	29.4325
eeeee[bb[affffffmmmmffffff]a]bbeeee	SeqCat01|43$1	185	111	146	29.4325
eeeee[bb[affffffmmmmffffff]a]bbeeee	SeqCat01|102$1	185	70	105	29.4325
eeeee[bb[affffffmmmmffffff]a]bbeeee	SeqCat01|54$1	185	30	65	29.4325
fffff[bb[affffffmmmmffffff]a]bbffff	SeqCat01|118$1	185	131	166	27.1487
:eeeeeaeeeee[cccmmmmccceeeee]a]eeee	SeqCat02|91$1	170	65	100	12.7617
eeeee[bb[affffffmmmmffffff]a]bbeeee	SeqCat01|74$1	185	62	97	29.4325
eeeee[bb[affffffmmmmffffff]a]bbeeee	SeqCat01|18$1	185	72	107	29.4325
eeeee[bb[affffffmmmmffffff]a]bbeeee	SeqCat01|25$1	185	96	131	29.4325
eeeee[bb[affffffmmmmffffff]a]bbeeee	SeqCat01|39$1	185	113	148	29.4325
eeeee[bb[affffffmmmmffffff]a]bbeeee	SeqCat01|166$1	185	77	112	29.4325
eeeee[bb[affffffmmmmffffff]a]bbeeee	SeqCat01|44$1	185	110	145	29.4325
ggggg[bb[affffffmmmmffffff]a]bbgggg	SeqCat01|146$1	185	112	147	27.4847
eeee[ccc[ccc[cccmmmmccc333ccc]ccc]e	SeqCat03|86$1	170	116	151	13.2060
eeeee[bb[affffffmmmmffffff]a]bbeeee	SeqCat01|127$1	185	132	167	29.4325
eeeee[bb[affffffmmmmffffff]a]bbeeee	SeqCat01|13$1	185	91	126	29.4325
dccc]eeeeeffffffmmmmffffffbbmmmmbb:	SeqCat02|23$1	170	134	169	12.2452
eeeee[bb[affffffmmmmffffff]a]bbeeee	SeqCat01|172$1	185	70	105	29.4325
ggggg[bb[affffffmmmmffffff]a]bbgggg	SeqCat01|49$1	185	84	119	27.4847
eeeee[bb[affffffmmmmffffff]a]bbeeee	SeqCat01|121$1	185	48	83	29.4325
fffff[bb[affffffmmmmffffff]a]bbffff	SeqCat01|80$1	185	70	105	27.1487
eeeee[bb[affffffmmmmffffff]a]bbeeee	SeqCat01|68$1	186	121	156	29.4325
eeeee[bb[affffffmmmmffffff]a]bbeeee	SeqCat01|192$1	185	63	98	29.4325
hhhhh[ffffff!!bbmmmmbbffffffhhhhhhh	SeqCat03|178$1	170	68	103	12.6087
ggggg[bb[affffffmmmmffffff]a]bbgggg	SeqCat01|76$1	185	61	96	27.4847
a[a[dddd!!ffffffmmmmffffffdddda]a]f	SeqCat01|32$1	185	117	152	16.9033
cccbb[bb[ffffffmmmmffffff22bb]bb]cc	SeqCat01|186$1	185	93	128	16.9589
eeeee[bb[affffffmmmmffffff]a]bbeeee	SeqCat01|21$1	185	114	149	29.4325
eeeee[bb[affffffmmmmffffff]a]bbeeee	SeqCat01|128$1	185	116	151	29.4325
ggggg[bb[affffffmmmmffffff]a]bbgggg	SeqCat01|55$1	185	146	181	27.4847
ee"""bbffffff[bbmmmmbbffffff]bb22ee	SeqCat01|22$1	185	42	77	17.4314
eeeee[bb[affffffmmmmffffff]a]bbeeee	SeqCat01|143$1	185	89	124	29.4325
ggggg[bb[affffffmmmmffffff]a]bbgggg	SeqCat01|140$1	185	115	150	27.4847
hhhhh[bb[affffffmmmmffffff]a]bbhhhh	SeqCat01|173$1	185	106	141	25.6840
ggggg[bb[affffffmmmmffffff]a]bbgggg	SeqCat01|31$1	185	36	71	27.4847
ggggg[bb[affffffmmmmffffff]a]bbgggg	SeqCat01|16$1	185	84	119	27.4847
fffff[bb[affffffmmmmffffff]a]bbffff	SeqCat01|38$1	185	33	68	27.1487
eeeee[bb[affffffmmmmffffff]a]bbeeee	SeqCat01|175$1	185	45	80	29.4325
eeeee[bb[affffffmmmmffffff]a]bbeeee	SeqCat01|152$1	185	101	136	29.4325
eeeee[bb[affffffmmmmffffff]a]bbeeee	SeqCat01|60$1	185	139	174	29.4325
fffff[bb[affffffmmmmffffff]a]bbffff	SeqCat01|158$1	185	148	183	27.1487
eeeee[bb[affffffmmmmffffff]a]bbeeee	SeqCat01|90$1	185	89	124	29.4325
eeeee[bb[affffffmmmmffffff]a]bbeeee	SeqCat01|161$1	185	127	162	29.4325
ddddd[bb[affffffmmmmffffff]a]bbdddd	SeqCat01|193$1	185	68	103	26.2765
eeeee[bb[affffffmmmmffffff]a]bbeeee	SeqCat01|98$1	185	106	141	29.4325
fffff[bb[affffffmmmmffffff]a]bbffff	SeqCat01|71$1	185	102	137	27.1487
eeeee[bb[affffffmmmmffffff]a]bbeeee	SeqCat01|88$1	185	96	131	29.4325
fffff[bb[affffffmmmmffffff]a]bbffff	SeqCat01|62$1	185	46	81	27.1487
fffff[bb[affffffmmmmffffff]a]bbffff	SeqCat01|99$1	185	102	137	27.1487
ggggg####ccc[cccmmmmccc]ccc>>>>>>>>	SeqCat03|110$1	170	77	112	11.4074
eeeee[bb[affffffmmmmffffff]a]bbeeee	SeqCat01|36$1	185	74	109	29.4325
cccbb[bb!!ffffffnnnnnffffffbb]bb]cc	SeqCat03|29$1	170	45	80	15.8720
eeeee[bb[affffffmmmmffffff]a]bbeeee	SeqCat01|12$1	185	107	142	29.4325
ddd"""bb[bbeeeeemmmmeeeee]bbbbdddd5	SeqCat03|160$1	170	43	78	12.2253

#otherMatches

#Seq PSSM
GACGUACUUCAUAGGAUCAUUUCUAUAGUAGACGU	SeqCat01|28$1	su1	37	72	29.4325
GACGUACUUCAUAGGAUCAUUUCUAUAGUAGACGU	SeqCat01|153$1	su1	36	71	29.4325
GACGUACUUCAUAGGAUCAUUUCUAUAGUAGACGU	SeqCat01|95$1	su1	77	112	27.1487
UAUCAACCGCCCGGGGUAAUCUCCGGGAAGGGCGA	SeqCat02|190$1	su1	28	63	13.2918
AGUGCCUGUCUGGUGUACUACACUACGAUGGCAUU	SeqCat03|34$1	su1	78	113	13.7552
GAGACGUACUUCAUAGGAUCAUUUCUAUAGUAGAC	SeqCat01|94$1	su1	112	147	16.9008
GACGUACUUCAUAGGAUCAUUUCUAUAGUAGACGU	SeqCat01|124$1	su1	111	146	29.4325
CUAGACUGUGCAUUGCCAGAGGAUUGGAUACCGGA	SeqCat03|112$1	su1	120	155	11.6232
GACGUACUUCAUAGGAUCAUUUCUAUAGUAGACGU	SeqCat01|141$1	su1	102	137	29.4325
GACGUACUUCAUAGGAUCAUUUCUAUAGUAGACGU	SeqCat01|5$1	su1	54	89	27.1487
GACGUACUUCAUAGGAUCAUUUCUAUAGUAGACGU	SeqCat01|75$1	su1	43	78	29.4325
ACGCUGAGGCCGGCAUAGCCAUGUCAGGACUCGGA	SeqCat02|168$1	su1	46	81	11.8777
GACGUACUUCAUAGGAUCAUUUCUAUAGUAGACGU	SeqCat01|115$1	su1	125	160	27.1487
GACGUACUUCAUAGGAUCAUUUCUAUAGUAGACGU	SeqCat01|72$1	su1	139	174	29.4325
GACGUACUUCAUAGGAUCAUUUCUAUAGUAGACGU	SeqCat01|43$1	su1	111	146	29.4325
GACGUACUUCAUAGGAUCAUUUCUAUAGUAGACGU	SeqCat01|102$1	su1	70	105	29.4325
GACGUACUUCAUAGGAUCAUUUCUAUAGUAGACGU	SeqCat01|54$1	su1	30	65	29.4325
GACGUACUUCAUAGGAUCAUUUCUAUAGUAGACGU	SeqCat01|118$1	su1	131	166	27.1487
GUAUUCGAGGACAGCAGUUAUGCGUCCUGCAGAAU	SeqCat02|91$1	su1	65	100	12.7617
GACGUACUUCAUAGGAUCAUUUCUAUAGUAGACGU	SeqCat01|74$1	su1	62	97	29.4325
GACGUACUUCAUAGGAUCAUUUCUAUAGUAGACGU	SeqCat01|18$1	su1	72	107	29.4325
GACGUACUUCAUAGGAUCAUUUCUAUAGUAGACGU	SeqCat01|25$1	su1	96	131	29.4325
GACGUACUUCAUAGGAUCAUUUCUAUAGUAGACGU	SeqCat01|39$1	su1	113	148	29.4325
GACGUACUUCAUAGGAUCAUUUCUAUAGUAGACGU	SeqCat01|166$1	su1	77	112	29.4325
GACGUACUUCAUAGGAUCAUUUCUAUAGUAGACGU	SeqCat01|44$1	su1	110	145	29.4325
GACGUACUUCAUAGGAUCAUUUCUAUAGUAGACGU	SeqCat01|146$1	su1	112	147	27.4847
UUCUGACUUACCACAUAUGAAUGAUCGGUUGGUGA	SeqCat03|86$1	su1	116	151	13.2060
GACGUACUUCAUAGGAUCAUUUCUAUAGUAGACGU	SeqCat01|127$1	su1	132	167	29.4325
GACGUACUUCAUAGGAUCAUUUCUAUAGUAGACGU	SeqCat01|13$1	su1	91	126	29.4325
ACCGAAGGAAGCGGAUCGGAAUCCGCGGGACUCCA	SeqCat02|23$1	su1	134	169	12.2452
GACGUACUUCAUAGGAUCAUUUCUAUAGUAGACGU	SeqCat01|172$1	su1	70	105	29.4325
GACGUACUUCAUAGGAUCAUUUCUAUAGUAGACGU	SeqCat01|49$1	su1	84	119	27.4847
GACGUACUUCAUAGGAUCAUUUCUAUAGUAGACGU	SeqCat01|121$1	su1	48	83	29.4325
GACGUACUUCAUAGGAUCAUUUCUAUAGUAGACGU	SeqCat01|80$1	su1	70	105	27.1487
GACGUACUUCAUAGGAUCAUUUCUAUAGUAGACGU	SeqCat01|68$1	su1	121	156	29.4325
GACGUACUUCAUAGGAUCAUUUCUAUAGUAGACGU	SeqCat01|192$1	su1	63	98	29.4325
CUUGGUGAGGAUAUUGGCCCCAAUUCUCCCGAGCU	SeqCat03|178$1	su1	68	103	12.6087
GACGUACUUCAUAGGAUCAUUUCUAUAGUAGACGU	SeqCat01|76$1	su1	61	96	27.4847
GACGUACUUCAUAGGAUCAUUUCUAUAGUAGACGU	SeqCat01|32$1	su1	117	152	16.9033
UGGCAUAGUUCAGCAGUGGUGCUGGUUCUUUGACC	SeqCat01|186$1	su1	93	128	16.9589
GACGUACUUCAUAGGAUCAUUUCUAUAGUAGACGU	SeqCat01|21$1	su1	114	149	29.4325
GACGUACUUCAUAGGAUCAUUUCUAUAGUAGACGU	SeqCat01|128$1	su1	116	151	29.4325
GACGUACUUCAUAGGAUCAUUUCUAUAGUAGACGU	SeqCat01|55$1	su1	146	181	27.4847
CGCACUCUUCGGAACAGAAAUGUCCGGAUGAACCG	SeqCat01|22$1	su1	42	77	17.4314
GACGUACUUCAUAGGAUCAUUUCUAUAGUAGACGU	SeqCat01|143$1	su1	89	124	29.4325
GACGUACUUCAUAGGAUCAUUUCUAUAGUAGACGU	SeqCat01|140$1	su1	115	150	27.4847
GACGUACUUCAUAGGAUCAUUUCUAUAGUAGACGU	SeqCat01|173$1	su1	106	141	25.6840
GACGUACUUCAUAGGAUCAUUUCUAUAGUAGACGU	SeqCat01|31$1	su1	36	71	27.4847
GACGUACUUCAUAGGAUCAUUUCUAUAGUAGACGU	SeqCat01|16$1	su1	84	119	27.4847
GACGUACUUCAUAGGAUCAUUUCUAUAGUAGACGU	SeqCat01|38$1	su1	33	68	27.1487
GACGUACUUCAUAGGAUCAUUUCUAUAGUAGACGU	SeqCat01|175$1	su1	45	80	29.4325
GACGUACUUCAUAGGAUCAUUUCUAUAGUAGACGU	SeqCat01|152$1	su1	101	136	29.4325
GACGUACUUCAUAGGAUCAUUUCUAUAGUAGACGU	SeqCat01|60$1	su1	139	174	29.4325
GACGUACUUCAUAGGAUCAUUUCUAUAGUAGACGU	SeqCat01|158$1	su1	148	183	27.1487
GACGUACUUCAUAGGAUCAUUUCUAUAGUAGACGU	SeqCat01|90$1	su1	89	124	29.4325
GACGUACUUCAUAGGAUCAUUUCUAUAGUAGACGU	SeqCat01|161$1	su1	127	162	29.4325
GACGUACUUCAUAGGAUCAUUUCUAUAGUAGACGU	SeqCat01|193$1	su1	68	103	26.2765
GACGUACUUCAUAGGAUCAUUUCUAUAGUAGACGU	SeqCat01|98$1	su1	106	141	29.4325
GACGUACUUCAUAGGAUCAUUUCUAUAGUAGACGU	SeqCat01|71$1	su1	102	137	27.1487
GACGUACUUCAUAGGAUCAUUUCUAUAGUAGACGU	SeqCat01|88$1	su1	96	131	29.4325
GACGUACUUCAUAGGAUCAUUUCUAUAGUAGACGU	SeqCat01|62$1	su1	46	81	27.1487
GACGUACUUCAUAGGAUCAUUUCUAUAGUAGACGU	SeqCat01|99$1	su1	102	137	27.1487
CCGAUACCUCGAAUGUUUUAACACUCGUACCACAA	SeqCat03|110$1	su1	77	112	11.4074
GACGUACUUCAUAGGAUCAUUUCUAUAGUAGACGU	SeqCat01|36$1	su1	74	109	29.4325
GGAAGAGUAAGCCUUCCAUGCGAAGGCACCCUAUC	SeqCat03|29$1	su1	45	80	15.8720
GACGUACUUCAUAGGAUCAUUUCUAUAGUAGACGU	SeqCat01|12$1	su1	107	142	29.4325
UCCACUCGACCGGCGGGCGUUCGUCAGGCGGGACU	SeqCat03|160$1	su1	43	78	12.2253

#PSSM
e : 0.49	f : 0.15	g : 0.11	: : 0.07	d : 0.04	h : 0.02	c : 0.02	D : 0.01	2 : 0.01	= : 0.01	" : 0.01	a : 0.01	
e : 0.50	f : 0.15	g : 0.11	: : 0.07	c : 0.04	h : 0.02	d : 0.02	2 : 0.01	= : 0.01	" : 0.01	[ : 0.01	
e : 0.49	f : 0.15	g : 0.11	: : 0.05	d : 0.04	c : 0.04	" : 0.02	h : 0.02	b : 0.01	[ : 0.01	a : 0.01	
e : 0.50	f : 0.15	g : 0.11	: : 0.05	b : 0.04	d : 0.02	h : 0.02	" : 0.02	a : 0.01	c : 0.01	[ : 0.01	
e : 0.49	f : 0.15	g : 0.11	: : 0.05	d : 0.04	! : 0.02	h : 0.02	b : 0.02	" : 0.02	[ : 0.01	] : 0.01	
[ : 0.77	b : 0.07	e : 0.04	! : 0.02	d : 0.02	f : 0.01	c : 0.01	# : 0.01	" : 0.01	
b : 0.85	d : 0.02	c : 0.02	e : 0.02	[ : 0.01	a : 0.01	f : 0.01	# : 0.01	
b : 0.78	" : 0.05	c : 0.04	e : 0.04	d : 0.02	f : 0.02	# : 0.01	
[ : 0.80	" : 0.05	c : 0.02	e : 0.02	f : 0.02	! : 0.02	d : 0.01	# : 0.01	
a : 0.73	" : 0.05	c : 0.04	f : 0.04	b : 0.02	e : 0.02	! : 0.02	g : 0.01	d : 0.01	[ : 0.01	
f : 0.88	b : 0.04	c : 0.02	g : 0.01	! : 0.01	e : 0.01	
f : 0.88	e : 0.04	c : 0.02	g : 0.01	! : 0.01	b : 0.01	
f : 0.88	[ : 0.05	e : 0.02	g : 0.01	! : 0.01	
f : 0.87	c : 0.04	e : 0.02	g : 0.01	a : 0.01	! : 0.01	[ : 0.01	
f : 0.87	c : 0.04	e : 0.02	b : 0.02	g : 0.01	[ : 0.01	
f : 0.85	c : 0.04	e : 0.02	b : 0.02	g : 0.01	a : 0.01	m : 0.01	
m : 0.95	l : 0.01	f : 0.01	n : 0.01	
m : 0.95	l : 0.01	f : 0.01	n : 0.01	
m : 0.97	l : 0.01	n : 0.01	
m : 0.95	f : 0.02	n : 0.01	
f : 0.84	c : 0.04	e : 0.02	b : 0.02	g : 0.01	m : 0.01	a : 0.01	n : 0.01	
f : 0.85	c : 0.04	e : 0.02	b : 0.02	g : 0.01	m : 0.01	] : 0.01	
f : 0.90	c : 0.04	e : 0.02	g : 0.01	a : 0.01	
f : 0.90	e : 0.04	] : 0.02	g : 0.01	3 : 0.01	
f : 0.90	e : 0.04	g : 0.01	b : 0.01	3 : 0.01	c : 0.01	
f : 0.87	] : 0.04	g : 0.01	b : 0.01	e : 0.01	3 : 0.01	2 : 0.01	c : 0.01	
] : 0.74	3 : 0.05	f : 0.05	c : 0.04	b : 0.04	g : 0.01	e : 0.01	d : 0.01	2 : 0.01	
a : 0.73	b : 0.07	3 : 0.05	c : 0.04	f : 0.04	2 : 0.01	e : 0.01	d : 0.01	> : 0.01	
] : 0.77	3 : 0.05	c : 0.04	b : 0.04	d : 0.02	2 : 0.01	m : 0.01	h : 0.01	> : 0.01	
b : 0.83	] : 0.04	d : 0.02	f : 0.01	c : 0.01	e : 0.01	a : 0.01	m : 0.01	h : 0.01	> : 0.01	
b : 0.84	d : 0.02	a : 0.02	f : 0.01	e : 0.01	] : 0.01	c : 0.01	m : 0.01	h : 0.01	> : 0.01	
e : 0.49	f : 0.15	g : 0.09	: : 0.05	d : 0.04	2 : 0.02	] : 0.02	h : 0.02	b : 0.02	c : 0.01	m : 0.01	> : 0.01	
e : 0.49	f : 0.15	g : 0.11	: : 0.05	2 : 0.02	h : 0.02	] : 0.02	d : 0.02	= : 0.01	c : 0.01	b : 0.01	a : 0.01	> : 0.01	
e : 0.50	f : 0.15	g : 0.11	d : 0.07	b : 0.02	] : 0.02	h : 0.02	c : 0.02	: : 0.01	= : 0.01	> : 0.01	
e : 0.50	f : 0.16	g : 0.11	d : 0.05	: : 0.02	h : 0.02	c : 0.02	b : 0.01	= : 0.01	3 : 0.01	> : 0.01	5 : 0.01	

#score	0.0
#seq	71
#width	35
#escape	true
#onStep	-1
#minSteps	-1
#maxSteps	-1