39	60	22	35	30
47	68	27	40	30
15	36	8	21	30
60	81	32	43	33
33	54	19	31	30
42	63	24	37	30
37	58	21	34	30
7	28	4	16	30
4	25	2	14	30
148	169	80	91	33
3	24	1	14	30
39	60	22	35	30
36	57	21	33	30
14	35	8	20	30
42	63	24	37	30
0	21	0	12	30
42	63	24	37	30
8	29	4	17	30
23	44	13	25	30
33	54	19	31	30
28	49	16	28	30
8	29	4	17	30
37	58	21	34	30
87	108	47	58	33
47	68	27	40	30
2	23	1	12	33
151	172	81	92	33
140	161	75	87	33
132	153	71	82	33
164	185	88	100	33
12	33	7	19	30
130	151	76	88	30
24	45	14	26	30
15	36	8	21	30
45	66	26	38	30
13	34	7	20	30
41	62	24	36	30
60	81	35	47	30
45	66	26	38	30
30	51	17	30	30
1	22	0	12	30
83	104	48	61	30
101	122	54	65	33
152	173	82	93	33
77	98	45	57	30
96	117	56	68	30
12	33	7	19	30
79	100	42	54	33
115	136	62	73	33
45	66	24	35	33
6	27	3	15	30
20	41	11	24	30
3	24	1	14	30
14	35	8	20	30
108	129	58	69	33
11	32	6	18	30
25	46	14	27	30
33	54	19	31	30
159	180	85	97	33
18	39	10	22	30
48	69	28	40	30
30	51	17	30	30
9	30	5	17	30
5	26	2	15	30
22	43	12	25	30
4	25	2	13	33
39	60	22	35	30
27	48	15	28	30
20	41	11	24	30
37	58	21	34	30
42	63	24	37	30
38	59	22	34	30
8	29	4	17	30
117	138	68	81	30
11	32	6	18	30
48	69	28	40	30
18	39	10	22	30
0	21	0	11	33
2	23	1	13	30
34	55	20	32	30
42	63	24	37	30
30	51	17	30	30
4	25	2	14	30
23	44	13	25	30
43	64	25	37	30
33	54	19	31	30
37	58	21	34	30
40	61	23	35	30
84	105	45	56	33
24	45	14	26	30
39	60	21	32	33
43	64	25	37	30
14	35	8	20	30
22	43	12	25	30
141	162	76	87	33
1	22	0	12	30
44	65	25	38	30
18	39	10	22	30
15	36	8	21	30
22	43	12	25	30
14	35	8	20	30
43	64	25	37	30
4	25	2	14	30
125	146	67	78	33
14	35	8	20	30
30	51	17	30	30
27	48	15	28	30
46	67	27	39	30
62	83	36	48	30
14	35	8	20	30
5	26	2	15	30
10	31	5	18	30
41	62	24	36	30
161	182	87	98	33
56	77	30	41	33
20	41	11	24	30
18	39	10	22	30
22	43	12	25	30
39	60	22	35	30
47	68	27	40	30
10	31	5	18	30
21	42	11	22	33
27	48	15	28	30
134	155	78	91	30
21	42	12	24	30
47	68	27	40	30
85	106	45	57	33
