9	30	5	17	91
148	169	80	91	100
130	151	76	88	91
0	21	0	11	100
48	69	28	40	91
12	33	7	19	91
27	48	15	28	91
20	41	11	24	91
1	22	0	12	91
96	117	56	68	91
14	35	8	20	91
24	45	14	26	91
42	63	24	37	91
46	67	27	39	91
22	43	12	25	91
6	27	3	15	91
36	57	21	33	91
39	60	21	32	100
164	185	88	100	100
47	68	27	40	91
84	105	45	56	100
13	34	7	20	91
34	55	20	32	91
62	83	36	48	91
4	25	2	14	91
56	77	30	41	100
8	29	4	17	91
40	61	23	35	91
5	26	2	15	91
151	172	81	92	100
4	25	2	14	91
161	182	87	98	100
0	21	0	12	91
108	129	58	69	100
23	44	13	25	91
3	24	1	14	91
18	39	10	22	91
1	22	0	12	91
22	43	12	25	91
8	29	4	17	91
21	42	12	24	91
24	45	14	26	91
159	180	85	97	100
14	35	8	20	91
14	35	8	20	91
18	39	10	22	91
39	60	22	35	91
3	24	1	14	91
38	59	22	34	91
101	122	54	65	100
11	32	6	18	91
8	29	4	17	91
22	43	12	25	91
47	68	27	40	91
4	25	2	13	100
152	173	82	93	100
39	60	22	35	91
60	81	32	43	100
15	36	8	21	91
23	44	13	25	91
47	68	27	40	91
27	48	15	28	91
33	54	19	31	91
79	100	42	54	100
11	32	6	18	91
30	51	17	30	91
37	58	21	34	91
140	161	75	87	100
44	65	25	38	91
42	63	24	37	91
4	25	2	14	91
2	23	1	12	100
5	26	2	15	91
125	146	67	78	100
132	153	71	82	100
28	49	16	28	91
15	36	8	21	91
10	31	5	18	91
30	51	17	30	91
45	66	26	38	91
25	46	14	27	91
41	62	24	36	91
21	42	11	22	100
77	98	45	57	91
33	54	19	31	91
117	138	68	81	91
10	31	5	18	91
18	39	10	22	91
18	39	10	22	91
14	35	8	20	91
14	35	8	20	91
60	81	35	47	91
22	43	12	25	91
2	23	1	13	91
33	54	19	31	91
115	136	62	73	100
45	66	26	38	91
33	54	19	31	91
47	68	27	40	91
28	49	16	28	91
42	63	24	37	91
37	58	21	34	91
39	60	22	35	91
7	28	4	16	91
30	51	17	30	91
12	33	7	19	91
83	104	48	61	91
42	63	24	37	91
37	58	21	34	91
145	166	78	89	100
87	108	47	58	100
20	41	11	24	91
41	62	24	36	91
39	60	22	35	91
134	155	78	91	91
85	106	45	57	100
14	35	8	20	91
20	41	11	24	91
42	63	24	37	91
56	77	30	41	100
45	66	24	35	100
30	51	17	30	91
141	162	76	87	100
43	64	25	37	91
37	58	21	34	91
48	69	28	40	91
43	64	25	37	91
27	48	15	28	91
43	64	25	37	91
15	36	8	21	91
