eeee^^^^^^^^^^^^^^^^^^^^eeeee::::::	  ENERGY = 10.3  chr1:4764316-4764436$1	120	53	88	39.6284
^^^^^^^^^^^^^^^^^^^^^^^^^^^^^a:::::	  ENERGY = 11.7  chr1:4763892-4764012$1	120	84	119	43.8632
^^^^^^^^^^^^^^^^^^^^^^^^^^^^^a:::::	  ENERGY = 11.7  chr1:4$1	120	84	119	43.8632
eeee^^^^^^^^^^^^^^^^^^^^eeeee::::::	  ENERGY = 10.3  chr1:5$1	120	53	88	39.6284

#otherMatches

#Seq PSSM
GGGACUCAGAUCAUAACAAAAGUUUCCCUCUUACU	  ENERGY = 10.3  chr1:4764316-4764436$1	su1	53	88	39.6284
gUgcUggUUaUagcagUaaaaUcccUaaGAGAAUU	  ENERGY = 11.7  chr1:4763892-4764012$1	su1	84	119	43.8632
gUgcUggUUaUagcagUaaaaUcccUaaGAGAAUU	  ENERGY = 11.7  chr1:4$1	su1	84	119	43.8632
GGGACUCAGAUCAUAACAAAAGUUUCCCUCUUACU	  ENERGY = 10.3  chr1:5$1	su1	53	88	39.6284

#PSSM
e : 0.50	^ : 0.50	
e : 0.50	^ : 0.50	
e : 0.50	^ : 0.50	
e : 0.50	^ : 0.50	
^ : 1.00	
^ : 1.00	
^ : 1.00	
^ : 1.00	
^ : 1.00	
^ : 1.00	
^ : 1.00	
^ : 1.00	
^ : 1.00	
^ : 1.00	
^ : 1.00	
^ : 1.00	
^ : 1.00	
^ : 1.00	
^ : 1.00	
^ : 1.00	
^ : 1.00	
^ : 1.00	
^ : 1.00	
^ : 1.00	
e : 0.50	^ : 0.50	
e : 0.50	^ : 0.50	
e : 0.50	^ : 0.50	
e : 0.50	^ : 0.50	
e : 0.50	^ : 0.50	
: : 0.50	a : 0.50	
: : 1.00	
: : 1.00	
: : 1.00	
: : 1.00	
: : 1.00	

#score	0.0
#seq	4
#width	35
#escape	true
#onStep	-1
#minSteps	-1
#maxSteps	-1