eeeeellleeee	  ENERGY = 7.5  "HIST1H3G"$1	108	68	80	4.8321
[ddddllldddd	  ENERGY = 7.0  "HIST1H2AD"$1	102	4	16	5.8180
ddddmmmmdddd	  ENERGY = 7.4  "HIST1H2BE"$1	118	74	86	6.6667
eeeooooooeee	  ENERGY = 6.6  "HIST1H2AK"$1	102	65	77	5.2971
""bbmmmmbb44	  ENERGY = 9.0  "HIST1H2AL"$1	101	27	39	2.9658
ddddoooooodd	  ENERGY = 6.5  "HIST1H2AJ"$1	102	33	45	6.2277
ddddmmmmdddd	  ENERGY = 8.3  "HIST1H3F"$1	101	37	49	6.6667
dcccmmmmccc]	  ENERGY = 8.5  "HIST2H3PS2"$1	110	60	72	4.8756
ddddmmmmdddd	  ENERGY = 6.8  "HIST1H1E"$1	103	46	58	6.6667
ddddmmmmdddd	  ENERGY = 7.1  "HIST1H2BO"$1	101	82	94	6.6667
!cccmmmmccc3	  ENERGY = 9.2  "HIST1H2BK"$1	101	16	28	4.6235
d[bblllbb]dd	  ENERGY = 8.5  "HIST1H2AE"$1	101	16	28	3.3307
eeeeellleeee	  ENERGY = 6.3  "HIST1H3A"$1	101	23	35	4.8321
ddddmmmmdddd	  ENERGY = 9.3  "HIST3H2A"$1	102	81	93	6.6667
dddnnnnndddd	  ENERGY = 7.3  "HIST1H2AE"$1	101	59	71	5.3338
eeeemmmmeeee	  ENERGY = 5.6  "HIST2H2BE"$1	101	20	32	5.3606
aa[ammmma]a:	  ENERGY = 7.1  "HIST1H3H"$1	102	60	72	3.1409
ddddmmmmdddd	  ENERGY = 7.3  "HIST1H3H"$1	101	4	16	6.6667
ddddmmmmdddd	  ENERGY = 5.2  "HIST1H4E"$1	104	51	63	6.6667
ddddmmmmdddd	  ENERGY = 6.5  "HIST1H2AM"$1	101	34	46	6.6667
eeeemmmmeeee	  ENERGY = 9.2  "HIST1H1C"$1	108	25	37	5.3606
c[bbmmmmbbcc	  ENERGY = 8.1  "HIST1H4C"$1	102	46	58	3.3675
cddddllldddd	  ENERGY = 9.3  "HIST1H1A"$1	117	57	69	5.8750
ddddmmmmdddd	  ENERGY = 6.7  "HIST1H2AK"$1	101	67	79	6.6667
ddddd4444ddd	  ENERGY = 8.5  "HIST1H2BD"$1	101	88	100	4.3118
ddddmmmmdddd	  ENERGY = 8.6  "HIST1H1C"$1	101	0	12	6.6667
ddddmmmmdddd	  ENERGY = 9.0  "HIST2H2BE"$1	101	76	88	6.6667
cccooooooccc	  ENERGY = 9.0  "HIST1H4C"$1	103	63	75	4.8140
eeeeooooooee	  ENERGY = 7.7  "HIST1H3G"$1	101	2	14	5.1887
ddddmmmmdddd	  ENERGY = 7.7  "HIST1H3I"$1	109	76	88	6.6667
ddddoooooodd	  ENERGY = 6.0  "HIST1H2AM"$1	102	46	58	6.2277
ddddoooooodd	  ENERGY = 7.8  "HIST1H2BM"$1	103	53	65	6.2277
dddnnnnndddd	  ENERGY = 8.8  "HIST1H3A"$1	101	32	44	5.3338
eeeeellleeee	  ENERGY = 7.5  "HIST1H4E"$1	101	73	85	4.8321
eeeeellleeee	  ENERGY = 9.1  "HIST1H2AC"$1	102	43	55	4.8321
!ddddllldddd	  ENERGY = 8.8  "HIST1H2AD"$1	101	64	76	5.8765
:cccnnnnnccc	  ENERGY = 7.9  "HIST1H2AB"$1	101	37	49	2.7287
ddddmmmmdddd	  ENERGY = 10.7  "HIST4H4"$1	126	112	124	6.6667
!!bboooooobb	  ENERGY = 9.0  "HIST1H3G"$1	101	80	92	3.2391
dddnnnnndddd	  ENERGY = 9.8  "HIST1H2AC"$1	116	57	69	5.3338
ddddmmmmdddd	  ENERGY = 7.4  "HIST1H3A"$1	102	18	30	6.6667
eeeeellleeee	  ENERGY = 9.6  "HIST1H4C"$1	102	0	12	4.8321
ddddoooooodd	  ENERGY = 7.8  "HIST1H2AJ"$1	101	75	87	6.2277
[ccclllccc44	  ENERGY = 7.5  "HIST1H2BI"$1	102	42	54	3.7975
eeeemmmmeeee	  ENERGY = 9.7  "HIST1H3F"$1	101	12	24	5.3606
[ddddllldddd	  ENERGY = 9.4  "HIST2H2BE"$1	117	65	77	5.8180
dddda4444ccc	  ENERGY = 5.2  "HIST2H2BE"$1	101	82	94	3.9548
ddddmmmmdddd	  ENERGY = 5.8  "HIST1H3F"$1	102	27	39	6.6667
eeeemmmmeeee	  ENERGY = 7.4  "HIST1H2AE"$1	102	59	71	5.3606
eeeemmmmeeee	  ENERGY = 10.6  "HIST1H3G"$1	119	9	21	5.3606
ddddmmmmdddd	  ENERGY = 8.1  "HIST1H2AM"$1	101	15	27	6.6667
ddddoooooodd	  ENERGY = 9.8  "HIST1H4H"$1	104	20	32	6.2277
dddd4444bb]d	  ENERGY = 8.8  "HIST1H2BD"$1	105	87	99	3.4729
cccooooooccc	  ENERGY = 8.2  "HIST2H2BE"$1	101	77	89	4.8140
]ccc4444dddd	  ENERGY = 8.0  "HIST1H4H"$1	101	72	84	3.6734
eeeemmmmeeee	  ENERGY = 9.3  "HIST1H3F"$1	101	14	26	5.3606
ddddoooooodd	  ENERGY = 8.3  "HIST1H4E"$1	103	43	55	6.2277
ddddmmmmdddd	  ENERGY = 6.2  "HIST1H4A"$1	102	15	27	6.6667
eeeooooooeee	  ENERGY = 9.5  "HIST2H2BE"$1	128	26	38	5.2971
dddnnnnndddd	  ENERGY = 7.2  "HIST1H2AE"$1	101	49	61	5.3338
ddddmmmmdddd	  ENERGY = 8.9  "HIST3H2A"$1	118	51	63	6.6667
cccooooooccc	  ENERGY = 7.5  "HIST1H4K"$1	101	85	97	4.8140
ddddmmmmdddd	  ENERGY = 8.8  "HIST1H2BO"$1	101	2	14	6.6667
ddddmmmmdddd	  ENERGY = 9.4  "HIST1H4I"$1	107	72	84	6.6667
cccooooooccc	  ENERGY = 7.7  "HIST1H3F"$1	101	85	97	4.8140
ddddmmmmdddd	  ENERGY = 6.3  "HIST1H1C"$1	108	65	77	6.6667
eeeeellleeee	  ENERGY = 8.5  "HIST1H4E"$1	102	70	82	4.8321
ddddmmmmdddd	  ENERGY = 7.3  "HIST1H3F"$1	101	31	43	6.6667
eeeemmmmeeee	  ENERGY = 7.4  "HIST1H2AG"$1	110	18	30	5.3606
ddddmmmmdddd	  ENERGY = 5.8  "HIST1H3H"$1	101	87	99	6.6667
cccooooooccc	  ENERGY = 6.1  "HIST1H4K"$1	101	75	87	4.8140
ddddmmmmdddd	  ENERGY = 8.2  "HIST1H4K"$1	104	70	82	6.6667
!cccmmmmccc]	  ENERGY = 6.8  "HIST1H2AL"$1	101	81	93	4.6157
eeeemmmmeeee	  ENERGY = 7.6  "HIST1H2BI"$1	101	88	100	5.3606
eeennnnneeee	  ENERGY = 8.9  "HIST1H3J"$1	101	55	67	4.1976
dddd####dddd	  ENERGY = 8.4  "HIST1H1A"$1	107	3	15	3.2770
cccooooooccc	  ENERGY = 8.9  "HIST1H2BL"$1	101	39	51	4.8140
:cccnnnnnccc	  ENERGY = 7.1  "HIST1H3G"$1	101	63	75	2.7287
cccooooooccc	  ENERGY = 9.1  "HIST1H4C"$1	103	44	56	4.8140
eeeennnnneee	  ENERGY = 6.7  "HIST1H2BO"$1	101	51	63	4.2427
eeeeellleeee	  ENERGY = 10.0  "HIST1H3B"$1	110	55	67	4.8321
eeeeooooooee	  ENERGY = 8.0  "HIST1H3B"$1	101	84	96	5.1887
ddddoooooodd	  ENERGY = 7.5  "HIST1H2BM"$1	103	41	53	6.2277
eeeooooooeee	  ENERGY = 8.2  "HIST1H2AI"$1	102	33	45	5.2971
dddnnnnndddd	  ENERGY = 6.2  "HIST1H4E"$1	109	17	29	5.3338
ddddoooooodd	  ENERGY = 6.4  "HIST1H3J"$1	101	74	86	6.2277
eeennnnneeee	  ENERGY = 7.0  "HIST1H4B"$1	101	14	26	4.1976
#cccmmmmccc5	  ENERGY = 8.4  "HIST1H2AH"$1	101	49	61	3.6746
ddddoooooodd	  ENERGY = 8.3  "HIST1H2AK"$1	101	8	20	6.2277
ddccclllccc3	  ENERGY = 8.3  "HIST2H2AB"$1	101	81	93	4.6720
ddddmmmmdddd	  ENERGY = 6.1  "HIST1H4E"$1	104	16	28	6.6667
[ddddllldddd	  ENERGY = 7.0  "HIST1H3H"$1	107	10	22	5.8180
dddnnnnndddd	  ENERGY = 6.4  "HIST1H3D"$1	107	65	77	5.3338
ddddnnnnnddd	  ENERGY = 7.5  "HIST2H2AB"$1	103	27	39	5.4151
eeennnnneeee	  ENERGY = 9.5  "HIST1H3J"$1	103	62	74	4.1976
ddddmmmmdddd	  ENERGY = 9.4  "HIST1H3B"$1	101	69	81	6.6667

#otherMatches

#Seq PSSM
GCAGGCCUCCUG	  ENERGY = 7.5  "HIST1H3G"$1	su4	68	80	4.8321
UGACUCUCAGUC	  ENERGY = 7.0  "HIST1H2AD"$1	su4	4	16	5.8180
CAAGUAAACUUG	  ENERGY = 7.4  "HIST1H2BE"$1	su4	74	86	6.6667
GUAAUGAACUGC	  ENERGY = 6.6  "HIST1H2AK"$1	su4	65	77	5.2971
AAGCUCGCGCCA	  ENERGY = 9.0  "HIST1H2AL"$1	su8	27	39	2.9658
UCAGUUUUCUUU	  ENERGY = 6.5  "HIST1H2AJ"$1	su4	33	45	6.2277
CCGCGAAUGCGG	  ENERGY = 8.3  "HIST1H3F"$1	su4	37	49	6.6667
CUCCCCGCGGAU	  ENERGY = 8.5  "HIST2H3PS2"$1	su3	60	72	4.8756
CGGCCCCUGCCG	  ENERGY = 6.8  "HIST1H1E"$1	su4	46	58	6.6667
GUGAGCUCUCGC	  ENERGY = 7.1  "HIST1H2BO"$1	su4	82	94	6.6667
GGCUAAAUGGCA	  ENERGY = 9.2  "HIST1H2BK"$1	su2	16	28	4.6235
CCGUAUUGCUGC	  ENERGY = 8.5  "HIST1H2AE"$1	su4	16	28	3.3307
CCUACUUGGUAG	  ENERGY = 6.3  "HIST1H3A"$1	su4	23	35	4.8321
GUCUUCUUGGGC	  ENERGY = 9.3  "HIST3H2A"$1	su1	81	93	6.6667
CUCCGAACGAGU	  ENERGY = 7.3  "HIST1H2AE"$1	su4	59	71	5.3338
UCCCGGCAGGGA	  ENERGY = 5.6  "HIST2H2BE"$1	su4	20	32	5.3606
GCUCGGAAGAGC	  ENERGY = 7.1  "HIST1H3H"$1	su4	60	72	3.1409
UUUCUCCUGAAG	  ENERGY = 7.3  "HIST1H3H"$1	su4	4	16	6.6667
CGAGGAGACUCG	  ENERGY = 5.2  "HIST1H4E"$1	su4	51	63	6.6667
CCGUAGAAAUGG	  ENERGY = 6.5  "HIST1H2AM"$1	su4	34	46	6.6667
GGCUUCACAGCC	  ENERGY = 9.2  "HIST1H1C"$1	su4	25	37	5.3606
CACAGCCAUGGA	  ENERGY = 8.1  "HIST1H4C"$1	su4	46	58	3.3675
CAGUCUUUGGCU	  ENERGY = 9.3  "HIST1H1A"$1	su4	57	69	5.8750
UGGUUUGGACCG	  ENERGY = 6.7  "HIST1H2AK"$1	su4	67	79	6.6667
CGGUGACUAAGG	  ENERGY = 8.5  "HIST1H2BD"$1	su14	88	100	4.3118
CUCUGAAAAGAG	  ENERGY = 8.6  "HIST1H1C"$1	su4	0	12	6.6667
UCCCGGCAGGGA	  ENERGY = 9.0  "HIST2H2BE"$1	su12	76	88	6.6667
GGGAUAACAUCC	  ENERGY = 9.0  "HIST1H4C"$1	su4	63	75	4.8140
AGUUAAUCACAG	  ENERGY = 7.7  "HIST1H3G"$1	su4	2	14	5.1887
GAUAGGAAUAUU	  ENERGY = 7.7  "HIST1H3I"$1	su4	76	88	6.6667
CGUCGUUGCGGA	  ENERGY = 6.0  "HIST1H2AM"$1	su4	46	58	6.2277
GCUGCAGUAACA	  ENERGY = 7.8  "HIST1H2BM"$1	su4	53	65	6.2277
CGCCAAGCGCGU	  ENERGY = 8.8  "HIST1H3A"$1	su4	32	44	5.3338
GGCGCUAAGCGU	  ENERGY = 7.5  "HIST1H4E"$1	su4	73	85	4.8321
AGGGCGGCGUCC	  ENERGY = 9.1  "HIST1H2AC"$1	su10	43	55	4.8321
UGACUCUCAGUC	  ENERGY = 8.8  "HIST1H2AD"$1	su4	64	76	5.8765
AAUGGAAGUCGU	  ENERGY = 7.9  "HIST1H2AB"$1	su4	37	49	2.7287
CACCUUCCGGUG	  ENERGY = 10.7  "HIST4H4"$1	su7	112	124	6.6667
UAUCCUCAAAGA	  ENERGY = 9.0  "HIST1H3G"$1	su4	80	92	3.2391
UCUGCCUAAGAA	  ENERGY = 9.8  "HIST1H2AC"$1	su10	57	69	5.3338
CCGCAUCCGCGG	  ENERGY = 7.4  "HIST1H3A"$1	su4	18	30	6.6667
AACUGUUUCAGU	  ENERGY = 9.6  "HIST1H4C"$1	su4	0	12	4.8321
UCAGUUUUCUUU	  ENERGY = 7.8  "HIST1H2AJ"$1	su4	75	87	6.2277
AGGGAGAUCCAA	  ENERGY = 7.5  "HIST1H2BI"$1	su4	42	54	3.7975
GUGCUACGGCGC	  ENERGY = 9.7  "HIST1H3F"$1	su12	12	24	5.3606
UGGAGUAGCUCU	  ENERGY = 9.4  "HIST2H2BE"$1	su4	65	77	5.8180
CUUGGUGACCGC	  ENERGY = 5.2  "HIST2H2BE"$1	su4	82	94	3.9548
CCGCGAAUGCGG	  ENERGY = 5.8  "HIST1H3F"$1	su4	27	39	6.6667
GGGCCGGCGCUC	  ENERGY = 7.4  "HIST1H2AE"$1	su4	59	71	5.3606
CUGCUUGCGCGG	  ENERGY = 10.6  "HIST1H3G"$1	su4	9	21	5.3606
UGUAAGUUUACA	  ENERGY = 8.1  "HIST1H2AM"$1	su4	15	27	6.6667
GUCUCCUCAUAG	  ENERGY = 9.8  "HIST1H4H"$1	su7	20	32	6.2277
GGGCUCCAAGAA	  ENERGY = 8.8  "HIST1H2BD"$1	su3	87	99	3.4729
GCGAGCGAGCGC	  ENERGY = 8.2  "HIST2H2BE"$1	su4	77	89	4.8140
AGCCUUAGCCAC	  ENERGY = 8.0  "HIST1H4H"$1	su7	72	84	3.6734
GUGCUACGGCGC	  ENERGY = 9.3  "HIST1H3F"$1	su8	14	26	5.3606
UAUUUUCGUUGG	  ENERGY = 8.3  "HIST1H4E"$1	su4	43	55	6.2277
GCGCUUAAGCGC	  ENERGY = 6.2  "HIST1H4A"$1	su4	15	27	6.6667
GCUUGUUGUAGU	  ENERGY = 9.5  "HIST2H2BE"$1	su4	26	38	5.2971
CAGUGUACCUGG	  ENERGY = 7.2  "HIST1H2AE"$1	su4	49	61	5.3338
CGGACAUUUCCG	  ENERGY = 8.9  "HIST3H2A"$1	su3	51	63	6.6667
ACCGUAGAGGGU	  ENERGY = 7.5  "HIST1H4K"$1	su8	85	97	4.8140
GUGAGCUCUCGC	  ENERGY = 8.8  "HIST1H2BO"$1	su4	2	14	6.6667
GCGCUCAAGCGC	  ENERGY = 9.4  "HIST1H4I"$1	su4	72	84	6.6667
GCCCCACCAGGU	  ENERGY = 7.7  "HIST1H3F"$1	su4	85	97	4.8140
GCCUUCUUGGGC	  ENERGY = 6.3  "HIST1H1C"$1	su4	65	77	6.6667
UGGAUGUGGUCU	  ENERGY = 8.5  "HIST1H4E"$1	su4	70	82	4.8321
CCGCGAAUGCGG	  ENERGY = 7.3  "HIST1H3F"$1	su4	31	43	6.6667
GUGCUGGAGUAC	  ENERGY = 7.4  "HIST1H2AG"$1	su4	18	30	5.3606
GCUCGGAAGAGC	  ENERGY = 5.8  "HIST1H3H"$1	su4	87	99	6.6667
ACCGUAGAGGGU	  ENERGY = 6.1  "HIST1H4K"$1	su4	75	87	4.8140
GCGCUUGAGCGC	  ENERGY = 8.2  "HIST1H4K"$1	su4	70	82	6.6667
UUUCUGCGGGAG	  ENERGY = 6.8  "HIST1H2AL"$1	su4	81	93	4.6157
CUCUUCUAAGAG	  ENERGY = 7.6  "HIST1H2BI"$1	su5	88	100	5.3606
CUGGAUGUUAGG	  ENERGY = 8.9  "HIST1H3J"$1	su3	55	67	4.1976
GUCUUGACGCUC	  ENERGY = 8.4  "HIST1H1A"$1	su4	3	15	3.2770
GCCAGCUCGGGC	  ENERGY = 8.9  "HIST1H2BL"$1	su1	39	51	4.8140
AUAGAAUUACUG	  ENERGY = 7.1  "HIST1H3G"$1	su4	63	75	2.7287
GGAAUCAUGUCU	  ENERGY = 9.1  "HIST1H4C"$1	su1	44	56	4.8140
GCUCCAAGUGAG	  ENERGY = 6.7  "HIST1H2BO"$1	su4	51	63	4.2427
CCUACCAAGUAG	  ENERGY = 10.0  "HIST1H3B"$1	su4	55	67	4.8321
AGUGACUUUACA	  ENERGY = 8.0  "HIST1H3B"$1	su4	84	96	5.1887
GCUGCAGUAACA	  ENERGY = 7.5  "HIST1H2BM"$1	su4	41	53	6.2277
AUCGCACAGGGU	  ENERGY = 8.2  "HIST1H2AI"$1	su4	33	45	5.2971
UGUCAAGCGCAU	  ENERGY = 6.2  "HIST1H4E"$1	su4	17	29	5.3338
CGUCGUUGCGGA	  ENERGY = 6.4  "HIST1H3J"$1	su3	74	86	6.2277
GUGUAGGUCACG	  ENERGY = 7.0  "HIST1H4B"$1	su4	14	26	4.1976
GUUGUGACCAGU	  ENERGY = 8.4  "HIST1H2AH"$1	su4	49	61	3.6746
UCAGAUAAAACU	  ENERGY = 8.3  "HIST1H2AK"$1	su4	8	20	6.2277
CCGCCCUGGGCA	  ENERGY = 8.3  "HIST2H2AB"$1	su8	81	93	4.6720
CGAGGAGACUCG	  ENERGY = 6.1  "HIST1H4E"$1	su4	16	28	6.6667
AAGCAGACUGCU	  ENERGY = 7.0  "HIST1H3H"$1	su4	10	22	5.8180
CGUGAAUGGCGC	  ENERGY = 6.4  "HIST1H3D"$1	su7	65	77	5.3338
GAUGAUGCGCGU	  ENERGY = 7.5  "HIST2H2AB"$1	su4	27	39	5.4151
CUGGAUGUUAGG	  ENERGY = 9.5  "HIST1H3J"$1	su3	62	74	4.1976
CCGCGAAUGCGG	  ENERGY = 9.4  "HIST1H3B"$1	su12	69	81	6.6667

#PSSM
d : 0.51	e : 0.24	c : 0.09	[ : 0.04	! : 0.04	: : 0.02	" : 0.01	a : 0.01	] : 0.01	# : 0.01	
d : 0.54	e : 0.24	c : 0.15	[ : 0.02	" : 0.01	a : 0.01	! : 0.01	
d : 0.53	e : 0.24	c : 0.16	b : 0.04	[ : 0.01	
d : 0.46	e : 0.18	o : 0.10	c : 0.09	n : 0.09	b : 0.04	a : 0.01	
m : 0.42	o : 0.22	n : 0.13	e : 0.07	d : 0.06	l : 0.02	4 : 0.02	a : 0.01	# : 0.01	c : 0.01	
m : 0.42	o : 0.22	l : 0.15	n : 0.13	4 : 0.04	# : 0.01	
m : 0.42	o : 0.22	l : 0.15	n : 0.13	4 : 0.04	# : 0.01	
m : 0.42	o : 0.22	l : 0.13	n : 0.13	4 : 0.04	b : 0.01	c : 0.01	# : 0.01	
d : 0.40	o : 0.22	e : 0.18	c : 0.06	b : 0.04	n : 0.04	4 : 0.02	a : 0.01	
d : 0.42	e : 0.22	c : 0.16	o : 0.12	b : 0.03	] : 0.02	
d : 0.53	e : 0.24	c : 0.16	4 : 0.02	a : 0.01	b : 0.01	] : 0.01	
d : 0.54	e : 0.24	c : 0.11	4 : 0.02	] : 0.02	3 : 0.02	: : 0.01	b : 0.01	5 : 0.01	

#score	515.9726428444421
#seq	96
#width	12
#escape	false
#onStep	15000
#minSteps	10000
#maxSteps	15000.0