[bboooooobb]	  ENERGY = 12.4  chr1:149784775-149784934_bg$1	159	132	144	8.1059
dddooooooddd	  ENERGY = 8.9  chr1:149821795-149821916_bg$1	121	16	28	8.6299
ddddnnnnnddd	  ENERGY = 18.6  chr1:149857682-149857891_bg$1	209	12	24	4.2663
====nnnnn===	  ENERGY = 22.9  chr1:149857897-149858240_bg$1	343	290	302	4.5172
cccooooooccc	  ENERGY = 18.8  chr1:149858474-149858722_bg$1	248	8	20	9.5762
cccooooooccc	  ENERGY = 38.6  chr1:149858798-149859350_bg$1	552	130	142	9.5762
ddddnnnnnddd	  ENERGY = 8.3  chr1:228612688-228612823_bg$1	135	11	23	4.2663
cccooooooccc	  ENERGY = 14.2  chr1:228645015-228645187_bg$1	172	86	98	9.5762
====nnnnn===	  ENERGY = 11.5  chr1:228645445-228645578_bg$1	133	30	42	4.5172
dddooooooddd	  ENERGY = 12.4  chr1:228645808-228645944_bg$1	136	38	50	8.6299
ddddnnnnnddd	  ENERGY = 18.2  chr1:228646030-228646306_bg$1	276	254	266	4.2663
dddooooooddd	  ENERGY = 9.3  chr1:228651813-228651945_bg$1	132	112	124	8.6299
dddccclllccc	  ENERGY = 34.4  chr12:14923605-14924052_bg$1	447	49	61	4.4305
cccccmmmmccc	  ENERGY = 10.0  chr6:25727491-25727622_bg$1	131	46	58	4.3529
:bboooooobb:	  ENERGY = 34.2  chr6:26017210-26017638_bg$1	428	279	291	6.5476
"bboooooobb]	  ENERGY = 22.6  chr6:26020948-26021229_bg$1	281	93	105	8.0913
bb[ccclllccc	  ENERGY = 12.9  chr6:26022092-26022328_bg$1	236	192	204	3.9470
fffoooooofff	  ENERGY = 29.5  chr6:26027073-26027415_bg$1	342	182	194	7.9561
fffoooooofff	  ENERGY = 38.3  chr6:26031769-26032338_bg$1	569	311	323	7.9561
c[cccmmmmccc	  ENERGY = 23.9  chr6:26033269-26033611_bg$1	342	245	257	4.1341
###ccclllccc	  ENERGY = 10.8  chr6:26033681-26033817_bg$1	136	42	54	4.1213
ddaooooooa]d	  ENERGY = 53.2  chr6:26055917-26056705_bg$1	788	235	247	8.6652
cccooooooccc	  ENERGY = 29.9  chr6:26104115-26104568_bg$1	453	416	428	9.5762
cccooooooccc	  ENERGY = 41.6  chr6:26123643-26124198_bg$1	555	520	532	9.5762
dddooooooddd	  ENERGY = 41.8  chr6:26124441-26124971_bg$1	530	22	34	8.6299
!bboooooobb]	  ENERGY = 75.8  chr6:26156508-26157392_bg$1	884	169	181	8.1536
[bboooooobb]	  ENERGY = 19.7  chr6:26158627-26158885_bg$1	258	232	244	8.1059
cccrrrrrrrrr	  ENERGY = 10.3  chr6:26184323-26184441_bg$1	118	58	70	4.6681
cccooooooccc	  ENERGY = 15.8  chr6:26197017-26197271_bg$1	254	240	252	9.5762
dddooooooddd	  ENERGY = 40.8  chr6:26198957-26199526_bg$1	569	555	567	8.6299
cccooooooccc	  ENERGY = 38.5  chr6:26199759-26200266_bg$1	507	417	429	9.5762
===oooooo===	  ENERGY = 40.6  chr6:26204807-26205302_bg$1	495	154	166	8.5761
hhhoooooohhh	  ENERGY = 39.3  chr6:26216390-26216872_bg$1	482	100	112	7.5998
!bboooooobb2	  ENERGY = 44.6  chr6:26217131-26217716_bg$1	585	125	137	7.9486
cccooooooccc	  ENERGY = 46.9  chr6:26251828-26252353_bg$1	525	126	138	9.5762
cccooooooccc	  ENERGY = 43.8  chr6:26271095-26271662_bg$1	567	293	305	9.5762
cccooooooccc	  ENERGY = 30.7  chr6:26273328-26273672_bg$1	344	146	158	9.5762
dddooooooddd	  ENERGY = 41.4  chr6:26285302-26285805_bg$1	503	246	258	8.6299
cccooooooccc	  ENERGY = 46.1  chr6:27100046-27100591_bg$1	545	352	364	9.5762
dddooooooddd	  ENERGY = 41.4  chr6:27100800-27101364_bg$1	564	13	25	8.6299
dddooooooddd	  ENERGY = 33.8  chr6:27107023-27107502_bg$1	479	192	204	8.6299
:bboooooobb:	  ENERGY = 9.1  chr6:27108031-27108148_bg$1	117	52	64	6.5476
ddddnnnnnddd	  ENERGY = 9.8  chr6:27110722-27110853_bg$1	131	68	80	4.2663
dddooooooddd	  ENERGY = 15.8  chr6:27114052-27114267_bg$1	215	41	53	8.6299
:bboooooobbe	  ENERGY = 9.3  chr6:27114439-27114575_bg$1	136	5	17	7.2073
eeeooooooeee	  ENERGY = 9.4  chr6:27114846-27114982_bg$1	136	8	20	7.8799
:cccnnnnnccc	  ENERGY = 26.3  chr6:27114988-27115367_bg$1	379	308	320	4.2690
gggooooooggg	  ENERGY = 15.9  chr6:27775206-27775467_bg$1	261	159	171	8.3924
c[cccmmmmccc	  ENERGY = 15.7  chr6:27776250-27776479_bg$1	229	18	30	4.1341
[cccnnnnnccc	  ENERGY = 43.3  chr6:27777791-27778364_bg$1	573	478	490	5.1596
fffoooooofff	  ENERGY = 15.6  chr6:27782061-27782256_bg$1	195	113	125	7.9561
cccvvvvvvvvv	  ENERGY = 11.5  chr6:27782771-27782894_bg$1	123	48	60	3.9004
[cccnnnnnccc	  ENERGY = 9.6  chr6:27782943-27783074_bg$1	131	70	82	5.1596
dddooooooddd	  ENERGY = 12.4  chr6:27783114-27783315_bg$1	201	105	117	8.6299
"cccnnnnnccc	  ENERGY = 13.1  chr6:27792146-27792305_bg$1	159	88	100	5.1450
!bboooooobb0	  ENERGY = 32.0  chr6:27805607-27805995_bg$1	388	102	114	7.8965
[bboooooobb2	  ENERGY = 25.2  chr6:27806591-27806934_bg$1	343	69	81	7.9009
dddooooooddd	  ENERGY = 19.3  chr6:27833133-27833343_bg$1	210	37	49	8.6299
cccooooooccc	  ENERGY = 20.2  chr6:27833349-27833624_bg$1	275	178	190	9.5762
ggggnnnnnggg	  ENERGY = 45.1  chr6:27834519-27835059_bg$1	540	151	163	3.9906
eeerrrrrrrrr	  ENERGY = 9.3  chr6:27839574-27839704_bg$1	130	89	101	3.8481
dddooooooddd	  ENERGY = 38.1  chr6:27860427-27860895_bg$1	468	434	446	8.6299
fffrrrrrrrrr	  ENERGY = 12.6  chr6:27792146-27792305$1	159	40	52	3.8495
eeeooooooeee	  ENERGY = 9.7  chr6:26046022-26046145$1	123	21	33	7.8799
ddddnnnnnddd	  ENERGY = 8.9  chr1:149821795-149821916$1	121	42	54	4.2663
dddooooooddd	  ENERGY = 22.9  chr6:27775206-27775467$1	261	2	14	8.6299
cccooooooccc	  ENERGY = 36.2  chr6:26199759-26200266$1	507	214	226	9.5762
cccooooooccc	  ENERGY = 25.8  chr6:26033269-26033611$1	342	23	35	9.5762
###ccclllccc	  ENERGY = 11.6  chr1:228645015-228645187$1	172	113	125	4.1213
cccooooooccc	  ENERGY = 27.3  chr6:26027073-26027415$1	342	145	157	9.5762
dddooooooddd	  ENERGY = 29.9  chr6:26204807-26205302$1	495	346	358	8.6299
cccooooooccc	  ENERGY = 50.0  chr1:149858798-149859350$1	552	108	120	9.5762
[bboooooobbd	  ENERGY = 11.9  chr1:228645445-228645578$1	133	20	32	8.2138
eeeooooooeee	  ENERGY = 36.0  chr6:26198957-26199526$1	569	241	253	7.8799
eeeooooooeee	  ENERGY = 14.8  chr1:149784775-149784934$1	159	136	148	7.8799
ddcccmmmmccc	  ENERGY = 8.7  chr1:149400080-149400191$1	111	59	71	4.1057
dddooooooddd	  ENERGY = 21.3  chr6:26020948-26021229$1	281	233	245	8.6299
$bboooooobb5	  ENERGY = 9.8  chr6:26158489-26158625$1	136	50	62	7.2518
!!aooooooa22	  ENERGY = 34.1  chr6:26216390-26216872$1	482	307	319	8.1403
cccooooooccc	  ENERGY = 43.7  chr6:27777791-27778364$1	573	220	232	9.5762
cccooooooccc	  ENERGY = 10.2  chr1:228612500-228612631$1	131	109	121	9.5762
cccooooooccc	  ENERGY = 11.5  chr6:27798901-27799061$1	160	31	43	9.5762
ddddnnnnnddd	  ENERGY = 29.6  chr6:26273328-26273672$1	344	252	264	4.2663
cccooooooccc	  ENERGY = 38.8  chr6:26251828-26252353$1	525	194	206	9.5762
dddooooooddd	  ENERGY = 30.2  chr6:26124441-26124971$1	530	52	64	8.6299
$bboooooobb5	  ENERGY = 42.4  chr6:26217131-26217716$1	585	112	124	7.2518
gggooooooggg	  ENERGY = 27.3  chr6:27114988-27115367$1	379	225	237	8.3924
#bboooooobbe	  ENERGY = 40.9  chr6:26123643-26124198$1	555	290	302	8.0499
cccooooooccc	  ENERGY = 38.4  chr6:26104115-26104568$1	453	54	66	9.5762
cccooooooccc	  ENERGY = 42.6  chr6:26271095-26271662$1	567	430	442	9.5762
ibboooooobbc	  ENERGY = 14.4  chr6:26158320-26158483$1	163	106	118	8.3447
gggooooooggg	  ENERGY = 10.7  chr6:26197436-26197573$1	137	80	92	8.3924
ddddnnnnnddd	  ENERGY = 10.8  chr6:27775564-27775737$1	173	3	15	4.2663
dddooooooddd	  ENERGY = 24.4  chr6:27806591-27806934$1	343	252	264	8.6299
cccooooooccc	  ENERGY = 10.1  chr6:27782771-27782894$1	123	60	72	9.5762
DDaooooooa::	  ENERGY = 8.2  chr1:228612688-228612823$1	135	28	40	6.0998
fffoooooofff	  ENERGY = 52.2  chr6:26055917-26056705$1	788	14	26	7.9561
cccooooooccc	  ENERGY = 35.8  chr12:14923605-14924052$1	447	151	163	9.5762
cccrrrrrrrrr	  ENERGY = 40.8  chr6:26031769-26032338$1	569	399	411	4.6681
dddooooooddd	  ENERGY = 13.8  chr6:27782061-27782256$1	195	93	105	8.6299
cccooooooccc	  ENERGY = 23.1  chr1:149857897-149858240$1	343	92	104	9.5762
dddooooooddd	  ENERGY = 31.3  chr6:27805607-27805995$1	388	13	25	8.6299
b[aooooooa]b	  ENERGY = 20.4  chr6:26197017-26197271$1	254	62	74	8.0830
cccooooooccc	  ENERGY = 43.5  chr6:27834519-27835059$1	540	195	207	9.5762
fffoooooofff	  ENERGY = 33.2  chr6:27860427-27860895$1	468	287	299	7.9561
maaooooooa::	  ENERGY = 14.3  chr6:27114052-27114267$1	215	171	183	6.6781
dddooooooddd	  ENERGY = 14.7  chr1:149857682-149857891$1	209	94	106	8.6299
!!cccmmmmccc	  ENERGY = 30.8  chr6:26017210-26017638$1	428	32	44	4.1041
aarrrrrrrrra	  ENERGY = 7.1  chr6:27835061-27835214$1	153	77	89	4.1994
cccooooooccc	  ENERGY = 20.0  chr6:26158627-26158885$1	258	112	124	9.5762
cccooooooccc	  ENERGY = 21.0  chr6:26022092-26022328$1	236	215	227	9.5762
cccooooooccc	  ENERGY = 11.2  chr6:27782943-27783074$1	131	65	77	9.5762
fffoooooofff	  ENERGY = 21.5  chr6:27833349-27833624$1	275	89	101	7.9561
cccooooooccc	  ENERGY = 30.7  chr6:26285302-26285805$1	503	19	31	9.5762
eeerrrrrrrrr	  ENERGY = 11.4  chr6:27110722-27110853$1	131	23	35	3.8481
gggooooooggg	  ENERGY = 37.8  chr6:27107023-27107502$1	479	436	448	8.3924
dcccnnnnnccc	  ENERGY = 10.3  chr6:26198147-26198284$1	137	99	111	5.1761
dddooooooddd	  ENERGY = 39.5  chr6:26250319-26250865$1	546	5	17	8.6299
::aooooooa::	  ENERGY = 8.5  chr6:27840878-27840997$1	119	102	114	5.5406
cccooooooccc	  ENERGY = 41.4  chr6:27100800-27101364$1	564	231	243	9.5762
cccooooooccc	  ENERGY = 22.6  chr1:228646030-228646306$1	276	161	173	9.5762
[bboooooobb]	  ENERGY = 8.4  chr1:120906264-120906400$1	136	25	37	8.1059

#otherMatches

#Seq PSSM
CCGCACCCUCUA	  ENERGY = 12.6  chr6:27792146-27792305$1	su1	40	52	3.8495
GCAUAAGUCUGC	  ENERGY = 9.7  chr6:26046022-26046145$1	su1	21	33	7.8799
AAGAAAGAUUCU	  ENERGY = 8.9  chr1:149821795-149821916$1	su1	42	54	4.2663
CGCCCCCCAGUG	  ENERGY = 22.9  chr6:27775206-27775467$1	su1	2	14	8.6299
UGAACUCCUUCG	  ENERGY = 36.2  chr6:26199759-26200266$1	su1	214	226	9.5762
AGCACAACAGCU	  ENERGY = 25.8  chr6:26033269-26033611$1	su1	23	35	9.5762
CUUGCCCUUGGC	  ENERGY = 11.6  chr1:228645015-228645187$1	su1	113	125	4.1213
CCACAUCCAUGG	  ENERGY = 27.3  chr6:26027073-26027415$1	su1	145	157	9.5762
GGGACGCACUCU	  ENERGY = 29.9  chr6:26204807-26205302$1	su1	346	358	8.6299
GCAAAUAAAUGC	  ENERGY = 50.0  chr1:149858798-149859350$1	su1	108	120	9.5762
CGCGACUUAGCC	  ENERGY = 11.9  chr1:228645445-228645578$1	su1	20	32	8.2138
GUCGUUGCGGAU	  ENERGY = 36.0  chr6:26198957-26199526$1	su1	241	253	7.8799
UCGUGUCUUCGA	  ENERGY = 14.8  chr1:149784775-149784934$1	su1	136	148	7.8799
GCUCCCCGCGGA	  ENERGY = 8.7  chr1:149400080-149400191$1	su1	59	71	4.1057
UUUUCAAGUAAA	  ENERGY = 21.3  chr6:26020948-26021229$1	su1	233	245	8.6299
AGGUCCAUCCCG	  ENERGY = 9.8  chr6:26158489-26158625$1	su1	50	62	7.2518
CUUGGAUGAGAU	  ENERGY = 34.1  chr6:26216390-26216872$1	su1	307	319	8.1403
GCUACCAGAAGU	  ENERGY = 43.7  chr6:27777791-27778364$1	su1	220	232	9.5762
GCCCUCCUAGGC	  ENERGY = 10.2  chr1:228612500-228612631$1	su1	109	121	9.5762
GGCUCCUCAGCU	  ENERGY = 11.5  chr6:27798901-27799061$1	su1	31	43	9.5762
GUAAACUAGUUA	  ENERGY = 29.6  chr6:26273328-26273672$1	su1	252	264	4.2663
GUCCACCCCGAC	  ENERGY = 38.8  chr6:26251828-26252353$1	su1	194	206	9.5762
CGCGCCAAAGCG	  ENERGY = 30.2  chr6:26124441-26124971$1	su1	52	64	8.6299
AGCUAAAACGCG	  ENERGY = 42.4  chr6:26217131-26217716$1	su1	112	124	7.2518
AUCGCGCAGGGU	  ENERGY = 27.3  chr6:27114988-27115367$1	su1	225	237	8.3924
CGAAAGAAUUCA	  ENERGY = 40.9  chr6:26123643-26124198$1	su1	290	302	8.0499
GGAAUCAUGUCU	  ENERGY = 38.4  chr6:26104115-26104568$1	su1	54	66	9.5762
GCUUUUCCGAGC	  ENERGY = 42.6  chr6:26271095-26271662$1	su1	430	442	9.5762
CCCAAAGAAGGG	  ENERGY = 14.4  chr6:26158320-26158483$1	su1	106	118	8.3447
AAGUCUAGCCUU	  ENERGY = 10.7  chr6:26197436-26197573$1	su1	80	92	8.3924
GGAGUAGCUCUC	  ENERGY = 10.8  chr6:27775564-27775737$1	su1	3	15	4.2663
GUCAGUCUCGGC	  ENERGY = 24.4  chr6:27806591-27806934$1	su1	252	264	8.6299
CAGUCAAAUCUG	  ENERGY = 10.1  chr6:27782771-27782894$1	su1	60	72	9.5762
GCCCCACCAGGU	  ENERGY = 8.2  chr1:228612688-228612823$1	su1	28	40	6.0998
AGUAAAGAAAUU	  ENERGY = 52.2  chr6:26055917-26056705$1	su1	14	26	7.9561
CCACAUCCAUGG	  ENERGY = 35.8  chr12:14923605-14924052$1	su1	151	163	9.5762
GUGAGGCUUUUU	  ENERGY = 40.8  chr6:26031769-26032338$1	su1	399	411	4.6681
CAGUUUUCUUUG	  ENERGY = 13.8  chr6:27782061-27782256$1	su1	93	105	8.6299
GACGAAGGAGUU	  ENERGY = 23.1  chr1:149857897-149858240$1	su1	92	104	9.5762
CAGAUAAAACUG	  ENERGY = 31.3  chr6:27805607-27805995$1	su1	13	25	8.6299
CCCACGAAUGCG	  ENERGY = 20.4  chr6:26197017-26197271$1	su1	62	74	8.0830
GGCUUAACUGCC	  ENERGY = 43.5  chr6:27834519-27835059$1	su1	195	207	9.5762
GGCUGCGUUGCC	  ENERGY = 33.2  chr6:27860427-27860895$1	su1	287	299	7.9561
GGCCUUGGUGCC	  ENERGY = 14.3  chr6:27114052-27114267$1	su1	171	183	6.6781
UCGAGCGAGCGA	  ENERGY = 14.7  chr1:149857682-149857891$1	su1	94	106	8.6299
UCUUUUCCUGAA	  ENERGY = 30.8  chr6:26017210-26017638$1	su1	32	44	4.1041
GCUCCUUAGAAG	  ENERGY = 7.1  chr6:27835061-27835214$1	su1	77	89	4.1994
GGCACCAAGGCC	  ENERGY = 20.0  chr6:26158627-26158885$1	su1	112	124	9.5762
AGUCAAGAAGCU	  ENERGY = 21.0  chr6:26022092-26022328$1	su1	215	227	9.5762
UGAACUCCUUCG	  ENERGY = 11.2  chr6:27782943-27783074$1	su1	65	77	9.5762
AUCGCUCAGGGU	  ENERGY = 21.5  chr6:27833349-27833624$1	su1	89	101	7.9561
AUAACAAGAUGU	  ENERGY = 30.7  chr6:26285302-26285805$1	su1	19	31	9.5762
AGUAACAAACUG	  ENERGY = 11.4  chr6:27110722-27110853$1	su1	23	35	3.8481
AACAAAAGAGUU	  ENERGY = 37.8  chr6:27107023-27107502$1	su1	436	448	8.3924
AUUGAUAAUUAA	  ENERGY = 10.3  chr6:26198147-26198284$1	su1	99	111	5.1761
GAGACAUUACUC	  ENERGY = 39.5  chr6:26250319-26250865$1	su1	5	17	8.6299
CCGCCAAAGCCA	  ENERGY = 8.5  chr6:27840878-27840997$1	su1	102	114	5.5406
CCGAGAUCCUGG	  ENERGY = 41.4  chr6:27100800-27101364$1	su1	231	243	9.5762
AGUACACCAGCU	  ENERGY = 22.6  chr1:228646030-228646306$1	su1	161	173	9.5762
ACUACAACAAGC	  ENERGY = 8.4  chr1:120906264-120906400$1	su1	25	37	8.1059

#PSSM
c : 0.31	d : 0.26	[ : 0.05	f : 0.05	e : 0.04	: : 0.04	! : 0.04	g : 0.04	= : 0.02	# : 0.02	" : 0.01	b : 0.01	$ : 0.01	h : 0.00	i : 0.00	D : 0.00	m : 0.00	a : 0.00	
c : 0.33	d : 0.25	b : 0.13	f : 0.05	e : 0.04	g : 0.04	= : 0.02	[ : 0.02	# : 0.01	! : 0.01	a : 0.01	h : 0.00	D : 0.00	: : 0.00	
c : 0.36	d : 0.23	b : 0.13	f : 0.05	a : 0.04	e : 0.04	g : 0.04	= : 0.02	# : 0.01	[ : 0.00	h : 0.00	r : 0.00	
o : 0.74	c : 0.11	d : 0.05	r : 0.04	= : 0.01	v : 0.00	g : 0.00	
o : 0.74	n : 0.12	c : 0.07	r : 0.04	v : 0.00	
o : 0.74	n : 0.12	r : 0.04	m : 0.04	c : 0.03	v : 0.00	
o : 0.74	n : 0.12	r : 0.04	m : 0.04	l : 0.03	v : 0.00	
o : 0.74	n : 0.12	r : 0.04	m : 0.04	l : 0.03	v : 0.00	
o : 0.74	n : 0.12	r : 0.04	m : 0.04	l : 0.03	v : 0.00	
c : 0.37	d : 0.22	b : 0.13	f : 0.04	a : 0.04	r : 0.04	g : 0.04	e : 0.03	= : 0.02	h : 0.00	v : 0.00	
c : 0.37	d : 0.22	b : 0.13	f : 0.04	r : 0.04	g : 0.04	e : 0.03	= : 0.02	: : 0.02	] : 0.01	h : 0.00	v : 0.00	2 : 0.00	
c : 0.38	d : 0.24	f : 0.04	e : 0.04	] : 0.04	: : 0.04	r : 0.04	g : 0.04	= : 0.02	2 : 0.02	5 : 0.01	h : 0.00	v : 0.00	0 : 0.00	b : 0.00	a : 0.00	

#score	0.0
#seq	122
#width	12
#escape	true
#onStep	-1
#minSteps	-1
#maxSteps	-1