40	52	25	32	17
21	33	17	26	13
42	54	34	44	13
2	14	0	5	29
214	226	42	44	57
23	35	6	10	38
113	125	65	72	19
145	157	42	45	38
346	358	69	72	55
108	120	19	21	62
20	32	15	24	15
241	253	42	44	64
136	148	85	93	17
59	71	53	63	12
233	245	82	87	31
50	62	36	45	15
307	319	63	66	54
220	232	38	40	64
109	121	83	92	14
31	43	19	26	18
252	264	73	76	38
194	206	36	39	59
52	64	9	12	59
112	124	19	21	66
225	237	59	62	42
290	302	52	54	62
54	66	11	14	51
430	442	75	77	64
106	118	65	72	18
80	92	58	67	15
3	15	1	8	19
252	264	73	76	38
60	72	48	58	13
28	40	20	29	15
14	26	1	3	89
151	163	33	36	50
399	411	70	72	64
93	105	47	53	22
92	104	26	30	38
13	25	3	6	43
62	74	24	29	28
195	207	36	38	61
287	299	61	63	52
171	183	79	85	24
94	106	44	50	23
32	44	7	10	48
77	89	50	58	17
112	124	43	48	29
215	227	91	96	26
65	77	49	58	14
89	101	32	36	31
19	31	3	6	56
23	35	17	26	14
436	448	91	93	54
99	111	72	81	15
5	17	0	3	61
102	114	85	95	13
231	243	40	43	63
161	173	58	62	31
25	37	18	27	15
