SeqCat01|25	99	52	71	97	132	30.4166
SeqCat01|189	99	77	96	144	179	30.4166
SeqCat01|158	99	80	99	149	184	28.3122
SeqCat01|5	99	29	48	55	90	28.3122
SeqCat01|75	99	23	42	44	79	30.4166
SeqCat01|43	99	60	79	112	147	30.4166
SeqCat01|90	99	48	67	90	125	30.4166
SeqCat01|115	99	68	87	126	161	28.3122
SeqCat01|32	99	63	82	118	153	17.4102
SeqCat01|152	99	55	74	102	137	30.4166
SeqCat01|140	99	62	81	116	151	28.2693
SeqCat01|38	99	18	37	34	69	28.3122
SeqCat01|98	99	57	76	107	142	30.4166
SeqCat01|118	99	71	90	132	167	28.3122
SeqCat01|88	99	52	71	97	132	30.4166
SeqCat01|128	99	63	82	117	152	30.4166
SeqCat03|29	91	27	47	46	81	16.2565
SeqCat01|54	99	16	35	31	66	30.4166
SeqCat01|173	99	57	76	107	142	26.2533
SeqCat01|166	99	42	61	78	113	30.4166
SeqCat01|55	99	79	98	147	182	28.2693
SeqCat01|95	99	42	61	78	113	28.3122
SeqCat02|91	91	38	59	66	101	14.2675
SeqCat01|49	99	45	64	85	120	28.2693
SeqCat01|146	99	61	80	113	148	28.2693
SeqCat01|60	99	75	94	140	175	30.4166
SeqCat01|141	99	55	74	103	138	30.4166
SeqCat01|12	99	58	77	108	143	30.4166
SeqCat01|28	99	20	39	38	73	30.4166
SeqCat02|190	91	17	37	29	64	14.1466
SeqCat03|34	91	45	66	78	113	15.6863
SeqCat01|39	99	61	80	114	149	30.4166
SeqCat01|175	99	24	43	46	81	30.4166
SeqCat01|51	99	23	42	44	79	28.3122
SeqCat01|13	99	49	68	92	127	30.4166
SeqCat01|138	99	44	63	82	117	28.3122
SeqCat01|124	99	60	79	112	147	30.4166
SeqCat01|161	99	69	88	128	163	30.4166
SeqCat01|153	99	20	38	37	72	30.4166
SeqCat01|80	99	38	57	71	106	28.3122
SeqCat01|99	99	55	74	103	138	28.3122
SeqCat01|16	99	45	64	85	120	28.2693
SeqCat01|74	99	34	52	63	98	30.4166
SeqCat01|62	99	25	44	47	82	28.3122
SeqCat01|186	99	50	69	94	129	17.2996
SeqCat01|172	99	38	57	71	106	30.4166
SeqCat01|193	99	37	56	69	104	27.0153
SeqCat01|127	99	71	90	133	168	30.4166
SeqCat01|121	99	26	45	49	84	30.4166
SeqCat01|36	99	40	59	75	110	30.4166
SeqCat01|76	99	33	52	62	97	28.2693
SeqCat01|102	99	38	57	71	106	30.4166
SeqCat01|18	99	39	58	73	108	30.4166
SeqCat01|68	100	65	84	122	157	30.4166
SeqCat01|22	99	23	42	43	78	17.7137
SeqCat01|72	99	75	94	140	175	30.4166
SeqCat01|21	99	62	81	115	150	30.4166
SeqCat01|143	99	48	67	90	125	30.4166
SeqCat01|192	99	34	53	64	99	30.4166
SeqCat01|71	99	55	74	103	138	28.3122
SeqCat01|31	99	20	38	37	72	28.2693
SeqCat01|44	99	60	78	111	146	30.4166
SeqCat03|86	91	68	89	117	152	13.2392
