::::bb"""ffffffmmmmffffff333bb::ddd	RF01051_AE017194.1/504284-504368_bg$1	85	7	42	15.4078
::::bb"""ffffffmmmmffffff333bb::ddd	RF01051_AE016879.1/397292-397376_bg$1	85	7	42	15.4078
::::bb"""ffffffmmmmffffff333bb::ddd	RF01051_CP001177.1/464065-464149_bg$1	85	7	42	15.4078
::::bb"""ffffffmmmmffffff333bb::ddd	RF01051_AE017355.1/421273-421357_bg$1	85	7	42	15.4078
eeee[bb[affffffmmmmffffff]a]bbeeeee	SeqCat01|25$1	185	97	132	30.4166
eeee[bb[affffffmmmmffffff]a]bbeeeee	SeqCat01|189$1	185	144	179	30.4166
ffff[bb[affffffmmmmffffff]a]bbfffff	SeqCat01|158$1	185	149	184	28.3122
ffff[bb[affffffmmmmffffff]a]bbfffff	SeqCat01|5$1	185	55	90	28.3122
eeee[bb[affffffmmmmffffff]a]bbeeeee	SeqCat01|75$1	185	44	79	30.4166
eeee[bb[affffffmmmmffffff]a]bbeeeee	SeqCat01|43$1	185	112	147	30.4166
eeee[bb[affffffmmmmffffff]a]bbeeeee	SeqCat01|90$1	185	90	125	30.4166
ffff[bb[affffffmmmmffffff]a]bbfffff	SeqCat01|115$1	185	126	161	28.3122
[a[dddd!!ffffffmmmmffffffdddda]a]ff	SeqCat01|32$1	185	118	153	17.4102
eeee[bb[affffffmmmmffffff]a]bbeeeee	SeqCat01|152$1	185	102	137	30.4166
gggg[bb[affffffmmmmffffff]a]bbggggg	SeqCat01|140$1	185	116	151	28.2693
ffff[bb[affffffmmmmffffff]a]bbfffff	SeqCat01|38$1	185	34	69	28.3122
eeee[bb[affffffmmmmffffff]a]bbeeeee	SeqCat01|98$1	185	107	142	30.4166
ffff[bb[affffffmmmmffffff]a]bbfffff	SeqCat01|118$1	185	132	167	28.3122
eeee[bb[affffffmmmmffffff]a]bbeeeee	SeqCat01|88$1	185	97	132	30.4166
eeee[bb[affffffmmmmffffff]a]bbeeeee	SeqCat01|128$1	185	117	152	30.4166
ccbb[bb!!ffffffnnnnnffffffbb]bb]ccc	SeqCat03|29$1	170	46	81	16.2565
eeee[bb[affffffmmmmffffff]a]bbeeeee	SeqCat01|54$1	185	31	66	30.4166
hhhh[bb[affffffmmmmffffff]a]bbhhhhh	SeqCat01|173$1	185	107	142	26.2533
eeee[bb[affffffmmmmffffff]a]bbeeeee	SeqCat01|166$1	185	78	113	30.4166
gggg[bb[affffffmmmmffffff]a]bbggggg	SeqCat01|55$1	185	147	182	28.2693
ffff[bb[affffffmmmmffffff]a]bbfffff	SeqCat01|95$1	185	78	113	28.3122
eeeeeaeeeee[cccmmmmccceeeee]a]eeeee	SeqCat02|91$1	170	66	101	14.2675
gggg[bb[affffffmmmmffffff]a]bbggggg	SeqCat01|49$1	185	85	120	28.2693
gggg[bb[affffffmmmmffffff]a]bbggggg	SeqCat01|146$1	185	113	148	28.2693
eeee[bb[affffffmmmmffffff]a]bbeeeee	SeqCat01|60$1	185	140	175	30.4166
eeee[bb[affffffmmmmffffff]a]bbeeeee	SeqCat01|141$1	185	103	138	30.4166
eeee[bb[affffffmmmmffffff]a]bbeeeee	SeqCat01|12$1	185	108	143	30.4166
eeee[bb[affffffmmmmffffff]a]bbeeeee	SeqCat01|28$1	185	38	73	30.4166
:bb!!bb[gggggggmmmmggggggg22bb22bb:	SeqCat02|190$1	170	29	64	14.1466
ffffff[cccfffffflllffffff]cccffffff	SeqCat03|34$1	170	78	113	15.6863
eeee[bb[affffffmmmmffffff]a]bbeeeee	SeqCat01|39$1	185	114	149	30.4166
eeee[bb[affffffmmmmffffff]a]bbeeeee	SeqCat01|175$1	185	46	81	30.4166
ffff[bb[affffffmmmmffffff]a]bbfffff	SeqCat01|51$1	185	44	79	28.3122
eeee[bb[affffffmmmmffffff]a]bbeeeee	SeqCat01|13$1	185	92	127	30.4166
ffff[bb[affffffmmmmffffff]a]bbfffff	SeqCat01|138$1	185	82	117	28.3122
eeee[bb[affffffmmmmffffff]a]bbeeeee	SeqCat01|124$1	185	112	147	30.4166
eeee[bb[affffffmmmmffffff]a]bbeeeee	SeqCat01|161$1	185	128	163	30.4166
eeee[bb[affffffmmmmffffff]a]bbeeeee	SeqCat01|153$1	185	37	72	30.4166
ffff[bb[affffffmmmmffffff]a]bbfffff	SeqCat01|80$1	185	71	106	28.3122
ffff[bb[affffffmmmmffffff]a]bbfffff	SeqCat01|99$1	185	103	138	28.3122
gggg[bb[affffffmmmmffffff]a]bbggggg	SeqCat01|16$1	185	85	120	28.2693
eeee[bb[affffffmmmmffffff]a]bbeeeee	SeqCat01|74$1	185	63	98	30.4166
ffff[bb[affffffmmmmffffff]a]bbfffff	SeqCat01|62$1	185	47	82	28.3122
ccbb[bb[ffffffmmmmffffff22bb]bb]ccc	SeqCat01|186$1	185	94	129	17.2996
eeee[bb[affffffmmmmffffff]a]bbeeeee	SeqCat01|172$1	185	71	106	30.4166
dddd[bb[affffffmmmmffffff]a]bbdddd]	SeqCat01|193$1	185	69	104	27.0153
eeee[bb[affffffmmmmffffff]a]bbeeeee	SeqCat01|127$1	185	133	168	30.4166
eeee[bb[affffffmmmmffffff]a]bbeeeee	SeqCat01|121$1	185	49	84	30.4166
eeee[bb[affffffmmmmffffff]a]bbeeeee	SeqCat01|36$1	185	75	110	30.4166
gggg[bb[affffffmmmmffffff]a]bbggggg	SeqCat01|76$1	185	62	97	28.2693
eeee[bb[affffffmmmmffffff]a]bbeeeee	SeqCat01|102$1	185	71	106	30.4166
eeee[bb[affffffmmmmffffff]a]bbeeeee	SeqCat01|18$1	185	73	108	30.4166
eeee[bb[affffffmmmmffffff]a]bbeeeee	SeqCat01|68$1	186	122	157	30.4166
e"""bbffffff[bbmmmmbbffffff]bb22eee	SeqCat01|22$1	185	43	78	17.7137
eeee[bb[affffffmmmmffffff]a]bbeeeee	SeqCat01|72$1	185	140	175	30.4166
eeee[bb[affffffmmmmffffff]a]bbeeeee	SeqCat01|21$1	185	115	150	30.4166
eeee[bb[affffffmmmmffffff]a]bbeeeee	SeqCat01|143$1	185	90	125	30.4166
eeee[bb[affffffmmmmffffff]a]bbeeeee	SeqCat01|192$1	185	64	99	30.4166
ffff[bb[affffffmmmmffffff]a]bbfffff	SeqCat01|71$1	185	103	138	28.3122
gggg[bb[affffffmmmmffffff]a]bbggggg	SeqCat01|31$1	185	37	72	28.2693
eeee[bb[affffffmmmmffffff]a]bbeeeee	SeqCat01|44$1	185	111	146	30.4166
eee[ccc[ccc[cccmmmmccc333ccc]ccc]ee	SeqCat03|86$1	170	117	152	13.2392

#otherMatches

#Seq PSSM
ACGUACUUCAUAGGAUCAUUUCUAUAGUAGACGUC	SeqCat01|25$1	su1	97	132	30.4166
ACGUACUUCAUAGGAUCAUUUCUAUAGUAGACGUC	SeqCat01|189$1	su1	144	179	30.4166
ACGUACUUCAUAGGAUCAUUUCUAUAGUAGACGUC	SeqCat01|158$1	su1	149	184	28.3122
ACGUACUUCAUAGGAUCAUUUCUAUAGUAGACGUC	SeqCat01|5$1	su1	55	90	28.3122
ACGUACUUCAUAGGAUCAUUUCUAUAGUAGACGUC	SeqCat01|75$1	su1	44	79	30.4166
ACGUACUUCAUAGGAUCAUUUCUAUAGUAGACGUC	SeqCat01|43$1	su1	112	147	30.4166
ACGUACUUCAUAGGAUCAUUUCUAUAGUAGACGUC	SeqCat01|90$1	su1	90	125	30.4166
ACGUACUUCAUAGGAUCAUUUCUAUAGUAGACGUC	SeqCat01|115$1	su1	126	161	28.3122
ACGUACUUCAUAGGAUCAUUUCUAUAGUAGACGUC	SeqCat01|32$1	su1	118	153	17.4102
ACGUACUUCAUAGGAUCAUUUCUAUAGUAGACGUC	SeqCat01|152$1	su1	102	137	30.4166
ACGUACUUCAUAGGAUCAUUUCUAUAGUAGACGUC	SeqCat01|140$1	su1	116	151	28.2693
ACGUACUUCAUAGGAUCAUUUCUAUAGUAGACGUC	SeqCat01|38$1	su1	34	69	28.3122
ACGUACUUCAUAGGAUCAUUUCUAUAGUAGACGUC	SeqCat01|98$1	su1	107	142	30.4166
ACGUACUUCAUAGGAUCAUUUCUAUAGUAGACGUC	SeqCat01|118$1	su1	132	167	28.3122
ACGUACUUCAUAGGAUCAUUUCUAUAGUAGACGUC	SeqCat01|88$1	su1	97	132	30.4166
ACGUACUUCAUAGGAUCAUUUCUAUAGUAGACGUC	SeqCat01|128$1	su1	117	152	30.4166
GAAGAGUAAGCCUUCCAUGCGAAGGCACCCUAUCC	SeqCat03|29$1	su1	46	81	16.2565
ACGUACUUCAUAGGAUCAUUUCUAUAGUAGACGUC	SeqCat01|54$1	su1	31	66	30.4166
ACGUACUUCAUAGGAUCAUUUCUAUAGUAGACGUC	SeqCat01|173$1	su1	107	142	26.2533
ACGUACUUCAUAGGAUCAUUUCUAUAGUAGACGUC	SeqCat01|166$1	su1	78	113	30.4166
ACGUACUUCAUAGGAUCAUUUCUAUAGUAGACGUC	SeqCat01|55$1	su1	147	182	28.2693
ACGUACUUCAUAGGAUCAUUUCUAUAGUAGACGUC	SeqCat01|95$1	su1	78	113	28.3122
UAUUCGAGGACAGCAGUUAUGCGUCCUGCAGAAUG	SeqCat02|91$1	su1	66	101	14.2675
ACGUACUUCAUAGGAUCAUUUCUAUAGUAGACGUC	SeqCat01|49$1	su1	85	120	28.2693
ACGUACUUCAUAGGAUCAUUUCUAUAGUAGACGUC	SeqCat01|146$1	su1	113	148	28.2693
ACGUACUUCAUAGGAUCAUUUCUAUAGUAGACGUC	SeqCat01|60$1	su1	140	175	30.4166
ACGUACUUCAUAGGAUCAUUUCUAUAGUAGACGUC	SeqCat01|141$1	su1	103	138	30.4166
ACGUACUUCAUAGGAUCAUUUCUAUAGUAGACGUC	SeqCat01|12$1	su1	108	143	30.4166
ACGUACUUCAUAGGAUCAUUUCUAUAGUAGACGUC	SeqCat01|28$1	su1	38	73	30.4166
AUCAACCGCCCGGGGUAAUCUCCGGGAAGGGCGAG	SeqCat02|190$1	su1	29	64	14.1466
AGUGCCUGUCUGGUGUACUACACUACGAUGGCAUU	SeqCat03|34$1	su1	78	113	15.6863
ACGUACUUCAUAGGAUCAUUUCUAUAGUAGACGUC	SeqCat01|39$1	su1	114	149	30.4166
ACGUACUUCAUAGGAUCAUUUCUAUAGUAGACGUC	SeqCat01|175$1	su1	46	81	30.4166
ACGUACUUCAUAGGAUCAUUUCUAUAGUAGACGUC	SeqCat01|51$1	su1	44	79	28.3122
ACGUACUUCAUAGGAUCAUUUCUAUAGUAGACGUC	SeqCat01|13$1	su1	92	127	30.4166
ACGUACUUCAUAGGAUCAUUUCUAUAGUAGACGUC	SeqCat01|138$1	su1	82	117	28.3122
ACGUACUUCAUAGGAUCAUUUCUAUAGUAGACGUC	SeqCat01|124$1	su1	112	147	30.4166
ACGUACUUCAUAGGAUCAUUUCUAUAGUAGACGUC	SeqCat01|161$1	su1	128	163	30.4166
ACGUACUUCAUAGGAUCAUUUCUAUAGUAGACGUC	SeqCat01|153$1	su1	37	72	30.4166
ACGUACUUCAUAGGAUCAUUUCUAUAGUAGACGUC	SeqCat01|80$1	su1	71	106	28.3122
ACGUACUUCAUAGGAUCAUUUCUAUAGUAGACGUC	SeqCat01|99$1	su1	103	138	28.3122
ACGUACUUCAUAGGAUCAUUUCUAUAGUAGACGUC	SeqCat01|16$1	su1	85	120	28.2693
ACGUACUUCAUAGGAUCAUUUCUAUAGUAGACGUC	SeqCat01|74$1	su1	63	98	30.4166
ACGUACUUCAUAGGAUCAUUUCUAUAGUAGACGUC	SeqCat01|62$1	su1	47	82	28.3122
GGCAUAGUUCAGCAGUGGUGCUGGUUCUUUGACCA	SeqCat01|186$1	su1	94	129	17.2996
ACGUACUUCAUAGGAUCAUUUCUAUAGUAGACGUC	SeqCat01|172$1	su1	71	106	30.4166
ACGUACUUCAUAGGAUCAUUUCUAUAGUAGACGUC	SeqCat01|193$1	su1	69	104	27.0153
ACGUACUUCAUAGGAUCAUUUCUAUAGUAGACGUC	SeqCat01|127$1	su1	133	168	30.4166
ACGUACUUCAUAGGAUCAUUUCUAUAGUAGACGUC	SeqCat01|121$1	su1	49	84	30.4166
ACGUACUUCAUAGGAUCAUUUCUAUAGUAGACGUC	SeqCat01|36$1	su1	75	110	30.4166
ACGUACUUCAUAGGAUCAUUUCUAUAGUAGACGUC	SeqCat01|76$1	su1	62	97	28.2693
ACGUACUUCAUAGGAUCAUUUCUAUAGUAGACGUC	SeqCat01|102$1	su1	71	106	30.4166
ACGUACUUCAUAGGAUCAUUUCUAUAGUAGACGUC	SeqCat01|18$1	su1	73	108	30.4166
ACGUACUUCAUAGGAUCAUUUCUAUAGUAGACGUC	SeqCat01|68$1	su1	122	157	30.4166
GCACUCUUCGGAACAGAAAUGUCCGGAUGAACCGA	SeqCat01|22$1	su1	43	78	17.7137
ACGUACUUCAUAGGAUCAUUUCUAUAGUAGACGUC	SeqCat01|72$1	su1	140	175	30.4166
ACGUACUUCAUAGGAUCAUUUCUAUAGUAGACGUC	SeqCat01|21$1	su1	115	150	30.4166
ACGUACUUCAUAGGAUCAUUUCUAUAGUAGACGUC	SeqCat01|143$1	su1	90	125	30.4166
ACGUACUUCAUAGGAUCAUUUCUAUAGUAGACGUC	SeqCat01|192$1	su1	64	99	30.4166
ACGUACUUCAUAGGAUCAUUUCUAUAGUAGACGUC	SeqCat01|71$1	su1	103	138	28.3122
ACGUACUUCAUAGGAUCAUUUCUAUAGUAGACGUC	SeqCat01|31$1	su1	37	72	28.2693
ACGUACUUCAUAGGAUCAUUUCUAUAGUAGACGUC	SeqCat01|44$1	su1	111	146	30.4166
UCUGACUUACCACAUAUGAAUGAUCGGUUGGUGAG	SeqCat03|86$1	su1	117	152	13.2392

#PSSM
e : 0.55	f : 0.19	g : 0.10	: : 0.07	c : 0.02	[ : 0.01	h : 0.01	d : 0.01	
e : 0.53	f : 0.19	g : 0.10	: : 0.05	c : 0.02	a : 0.01	h : 0.01	b : 0.01	d : 0.01	" : 0.01	
e : 0.53	f : 0.19	g : 0.10	: : 0.05	b : 0.04	[ : 0.01	h : 0.01	d : 0.01	" : 0.01	
e : 0.52	f : 0.19	g : 0.10	: : 0.05	d : 0.02	b : 0.02	h : 0.01	! : 0.01	" : 0.01	[ : 0.01	
[ : 0.85	b : 0.07	d : 0.01	e : 0.01	! : 0.01	f : 0.01	c : 0.01	
b : 0.94	d : 0.01	a : 0.01	f : 0.01	c : 0.01	
b : 0.86	" : 0.05	d : 0.01	e : 0.01	[ : 0.01	f : 0.01	c : 0.01	
[ : 0.86	" : 0.05	! : 0.02	e : 0.01	c : 0.01	f : 0.01	
a : 0.82	" : 0.05	! : 0.02	c : 0.02	f : 0.02	e : 0.01	g : 0.01	
f : 0.94	c : 0.02	e : 0.01	g : 0.01	
f : 0.95	e : 0.01	g : 0.01	c : 0.01	
f : 0.95	[ : 0.02	g : 0.01	
f : 0.94	c : 0.02	g : 0.01	[ : 0.01	
f : 0.94	c : 0.02	g : 0.01	b : 0.01	
f : 0.92	c : 0.02	g : 0.01	m : 0.01	b : 0.01	
m : 0.97	n : 0.01	f : 0.01	
m : 0.97	n : 0.01	l : 0.01	
m : 0.97	n : 0.01	l : 0.01	
m : 0.95	n : 0.01	l : 0.01	f : 0.01	
f : 0.92	c : 0.02	n : 0.01	g : 0.01	b : 0.01	
f : 0.94	c : 0.02	g : 0.01	b : 0.01	
f : 0.95	c : 0.02	g : 0.01	
f : 0.95	e : 0.01	g : 0.01	3 : 0.01	
f : 0.95	e : 0.01	g : 0.01	3 : 0.01	
f : 0.94	e : 0.01	g : 0.01	2 : 0.01	3 : 0.01	
] : 0.83	3 : 0.05	f : 0.02	d : 0.01	e : 0.01	g : 0.01	2 : 0.01	c : 0.01	
a : 0.82	3 : 0.05	b : 0.02	c : 0.02	d : 0.01	e : 0.01	2 : 0.01	f : 0.01	
] : 0.85	3 : 0.05	b : 0.02	c : 0.02	d : 0.01	2 : 0.01	
b : 0.91	] : 0.04	d : 0.01	a : 0.01	c : 0.01	
b : 0.94	a : 0.01	] : 0.01	f : 0.01	c : 0.01	
e : 0.52	f : 0.19	g : 0.10	: : 0.05	b : 0.02	2 : 0.02	] : 0.01	h : 0.01	d : 0.01	c : 0.01	
e : 0.52	f : 0.19	g : 0.10	: : 0.05	] : 0.02	2 : 0.02	a : 0.01	h : 0.01	d : 0.01	c : 0.01	
e : 0.53	f : 0.19	g : 0.10	d : 0.07	] : 0.02	c : 0.02	h : 0.01	b : 0.01	
e : 0.55	f : 0.20	g : 0.10	d : 0.07	c : 0.02	h : 0.01	b : 0.01	
e : 0.55	f : 0.20	g : 0.10	d : 0.05	c : 0.02	h : 0.01	: : 0.01	] : 0.01	

#score	0.0
#seq	67
#width	35
#escape	true
#onStep	-1
#minSteps	-1
#maxSteps	-1