14	41	5	15	29
72	99	30	41	26
263	290	76	84	38
187	214	34	39	61
62	89	29	42	23
85	112	43	57	22
326	353	57	62	64
348	375	61	66	63
81	108	29	39	31
54	81	33	50	17
6	33	0	4	89
11	38	2	7	56
46	73	10	16	51
42	69	30	50	15
12	39	9	29	15
415	442	76	80	61
98	125	60	76	18
90	117	73	95	13
731	758	82	85	100
210	237	61	69	38
85	112	62	82	15
306	333	89	97	38
421	448	77	82	61
153	180	30	35	57
310	337	67	73	52
119	146	74	91	17
217	244	57	64	42
201	228	58	66	38
286	313	49	54	64
77	104	56	76	15
54	81	40	60	15
55	82	40	59	15
365	392	65	70	62
215	242	45	51	52
12	39	9	29	14
149	176	43	51	38
39	66	33	56	13
298	325	52	57	64
338	365	68	73	55
29	56	21	41	15
178	205	32	37	62
174	201	32	37	59
428	455	89	94	54
72	99	52	72	15
78	105	30	40	29
73	100	17	23	48
74	101	54	74	15
48	75	30	46	18
52	79	46	71	12
173	200	38	44	50
42	69	16	27	28
467	494	79	84	66
233	260	40	45	64
35	62	6	11	59
77	104	56	76	15
35	62	15	27	25
15	42	11	32	14
4	31	1	14	24
3	30	1	11	28
87	114	22	29	43
92	119	70	90	14
