feeeee[cccmmmmccc]eeee	chr6:27860427-27860895$1	468	256	278	6.2705
hhh!!ddddmmmmdddd22hhh	chr6:27792146-27792305$1	159	18	40	4.7732
ccc[a[cccnnnnnccc]a]cc	chr6:26199759-26200266$1	507	338	360	8.5063
[a[ccccccnnnnnccc333cc	chr1:228612688-228612823$1	135	57	79	8.3035
[dddd[bboooooobbdddd]g	chr1:228645445-228645578$1	133	15	37	9.2125
"ccc[cccooooooccc22ccc	chr1:228612500-228612631$1	131	95	117	11.3249
h!!a!!bboooooobb22a22h	chr6:27782943-27783074$1	131	15	37	10.0758
[ccc[bb[ammmma]bb]ccc]	chr6:26271095-26271662$1	567	114	136	6.7879
dddd[cccooooooccc]dddd	chr6:26022092-26022328$1	236	210	232	10.7680
d!!eeeeeooooooeeeee22d	chr6:26198957-26199526$1	569	236	258	9.1645
b[ffffffooooooffffff22	chr6:26055917-26056705$1	788	9	31	8.8465
ccc[ddddoooooodddd]ccc	chr6:27782061-27782256$1	195	88	110	9.4291
ffff:cccmmmmcccccc[ccc	chr6:26198147-26198284$1	137	37	59	5.0953
iiiiiibboooooobbcccbbn	chr6:26158320-26158483$1	163	101	123	9.0782
e[eeeeerrrrrrrrreeeee]	chr6:26139061-26139197$1	136	79	101	5.3623
cccc[cccooooooccc]ccc]	chr1:149857897-149858240$1	343	266	288	11.8932
gggg[cccooooooccc]gggg	chr6:26104115-26104568$1	453	49	71	11.8920
ddd[ddddoooooodddddddd	chr1:149857682-149857891$1	209	89	111	8.5442
fffff[bboooooobb]fffff	chr6:26027073-26027415$1	342	213	235	9.2111
ddd!!cccooooooccc22ddd	chr6:27834519-27835059$1	540	190	212	10.6467
Dccc[bboooooobb]ccc:dd	chr6:27100046-27100591$1	545	305	327	6.6338
dddd"""aooooooa333dddd	chr1:228646030-228646306$1	276	224	246	9.8317
GGbb[cccooooooccc]bb::	chr6:27806591-27806934$1	343	185	207	7.7944
:::cccbboooooobb]ccc:c	chr6:27798901-27799061$1	160	10	32	6.2627
fffff[cccnnnnnccc]ffff	chr6:27100800-27101364$1	564	192	214	7.3615
ccbb[cccooooooccc]bb::	chr6:26251828-26252353$1	525	387	409	9.0141
cc"""cccooooooccc333cc	chr12:14923605-14924052$1	447	332	354	11.8057
eeee[cccooooooccc]eeee	chr6:27114283-27114419$1	136	88	110	10.9271
dd[a!!cccnnnnnccc22a]d	chr6:27114052-27114267$1	215	6	28	7.8576
b[ffffffooooooffffff22	chr6:26033269-26033611$1	342	309	331	8.8465
==========:iiiiiiiii[c	chr1:149858474-149858722$1	248	134	156	4.5960
==========mmmm========	chr6:27839574-27839704$1	130	49	71	7.3358
gggg[a[aooooooa]aggggg	chr6:26217131-26217716$1	585	470	492	10.6769
bbaddddcccmmmmccc]dddd	chr1:149400080-149400191$1	111	54	76	5.6826
ccc[ccccccmmmmccc]ccc]	chr1:120906264-120906400$1	136	76	98	7.6359
ggg####cccmmmmcccggggg	chr1:149784775-149784934$1	159	57	79	7.1659
ccc!!cccoooooocccccc:f	chr6:26156508-26157392$1	884	734	756	10.5075
$gggggggooooooggggggg3	chr6:26197436-26197573$1	137	75	97	10.1820
cc[a!!cccnnnnnccc]a]cc	chr6:26158627-26158885$1	258	81	103	8.8275
&&&eeeeeooooooeeeee444	chr6:26017210-26017638$1	428	289	311	7.1563
ggg"""bboooooobbgggggg	chr6:27777791-27778364$1	573	289	311	10.5835
gggg[cccooooooccc]gggg	chr6:26250319-26250865$1	546	418	440	11.8920
hhhh[eeeeeooooooeeeee5	chr6:26046022-26046145$1	123	14	36	5.7502
h!!a!!bboooooobb22a22h	chr6:26158489-26158625$1	136	45	67	10.0758
c!!ccc[aooooooa]cccccc	chr6:27833349-27833624$1	275	42	64	10.6896
[gggggggooooooggggggg]	chr6:27114988-27115367$1	379	220	242	10.5174
:gggggggooooooggggggg:	chr6:27107023-27107502$1	479	431	453	8.5804
cc[eeeeellleeeeecccggg	chr6:26204807-26205302$1	495	315	337	5.5962
c!!eeeeeooooooeeeee22c	chr6:27805607-27805995$1	388	90	112	9.4439
f"""eeeeennnnneeeeefff	chr6:27775564-27775737$1	173	70	92	5.6796
c[bb[cccoooooocccbb]cc	chr1:149858798-149859350$1	552	181	203	10.5387
ffccc[bboooooobbccc]ff	chr6:26124441-26124971$1	530	177	199	9.9272
eeebb[bboooooobb]bb22e	chr6:26031769-26032338$1	569	329	351	8.3135
ggggggg]iiiiiiiii]gggg	chr6:26123643-26124198$1	555	96	118	4.9672
!!ffffffrrrrrrrrrfffff	chr6:27776250-27776479$1	229	35	57	5.3569
eeee[cccooooooccceeeee	chr6:26285302-26285805$1	503	14	36	10.5045
ddddd[bblllbbdddd]dddd	chr6:27861256-27861716$1	460	208	230	4.6803

#otherMatches

#Seq PSSM
GCGGGAUGAUGCGGGUCUUUUU	chr6:27860427-27860895$1	su1	256	278	6.2705
UCUACGCGCUCAAGCGCCAGGG	chr6:27792146-27792305$1	su1	18	40	4.7732
CGGGGAGCUGGCUAAGCACGCC	chr6:26199759-26200266$1	su1	338	360	8.5063
UGCAGCGCCAUCACGGCCGAGC	chr1:228612688-228612823$1	su1	57	79	8.3035
ACGAGCGCGACUUAGCCUUGGC	chr1:228645445-228645578$1	su1	15	37	9.2125
CAGGUGGCGAGAUAGCCCUCCU	chr1:228612500-228612631$1	su1	95	117	11.3249
GAAGCAGGUCCACCCCGACACC	chr6:27782943-27783074$1	su1	15	37	10.0758
UCUCCCCACGAAUGCGGCGAGC	chr6:26271095-26271662$1	su1	114	136	6.7879
CAUUAAGUCAAGAAGCUCAAUG	chr6:26022092-26022328$1	su1	210	232	10.7680
UCCUCGUCGUUGCGGAUGGCCA	chr6:26198957-26199526$1	su1	236	258	9.1645
CAGAUAGUAAAGAAAUUAUCCA	chr6:26055917-26056705$1	su1	9	31	8.8465
GCUCUCAGUUUUCUUUGGCAGC	chr6:27782061-27782256$1	su1	88	110	9.4291
ACUGUGCUAAGAAGCUCCACCU	chr6:26198147-26198284$1	su1	37	59	5.0953
CCUGCCCCAAAGAAGGGCUCCA	chr6:26158320-26158483$1	su1	101	123	9.0782
UGGUGCUCUAAAGAACAGCACa	chr6:26139061-26139197$1	su1	79	101	5.3623
CGGAGCGGAUUUUGCCGGUUCA	chr1:149857897-149858240$1	su1	266	288	11.8932
CGAUAGGAAUCAUGUCUGGUCG	chr6:26104115-26104568$1	su1	49	71	11.8920
GCGACUCGAGCGAGCGAGCGCC	chr1:149857682-149857891$1	su1	89	111	8.5442
UUCUCCAGAAACACCUUGAGAA	chr6:26027073-26027415$1	su1	213	235	9.2111
CCUUCGGCUUAACUGCCUUGGG	chr6:27834519-27835059$1	su1	190	212	10.6467
UGGCCUUGGACGAAAUGCCGGU	chr6:27100046-27100591$1	su1	305	327	6.6338
ACCCACACGAUCAAGAAAGGGU	chr1:228646030-228646306$1	su1	224	246	9.8317
CGGAGGGCACCAAGGCCGUCAC	chr6:27806591-27806934$1	su1	185	207	7.7944
AACUGGGCAAACAAGCAUCACG	chr6:27798901-27799061$1	su1	10	32	6.2627
CGCCGGUGUAUCUGGCAGCGGU	chr6:27100800-27101364$1	su1	192	214	7.3615
CCGAGGGCACUAAGGCCGUCAC	chr6:26251828-26252353$1	su1	387	409	9.0141
GAUAUUGUCCCGCAGCACCUUC	chr12:14923605-14924052$1	su1	332	354	11.8057
UCGUUGACGAAGGAGUUCAUGA	chr6:27114283-27114419$1	su1	88	110	10.9271
UCAUGAUAAUCCCUUUAAAAAG	chr6:27114052-27114267$1	su1	6	28	7.8576
UCGCGGGCCGCAUUGCCCGCCA	chr6:26033269-26033611$1	su1	309	331	8.8465
GGGCGAGUGCACCGCUUGCUGC	chr1:149858474-149858722$1	su1	134	156	4.5960
GAGGGGCUCUGAAAAGAGCCUU	chr6:27839574-27839704$1	su1	49	71	7.3358
UACUAGUCAAAUCCGUCAGUGA	chr6:26217131-26217716$1	su1	470	492	10.6769
GGCCCGCUCCCCGCGGAUGCGG	chr1:149400080-149400191$1	su1	54	76	5.6826
GCCUGCUGCUGCCCGGCGAGCU	chr1:120906264-120906400$1	su1	76	98	7.6359
CGCUCCCCGCGGAUGCGGCGGG	chr1:149784775-149784934$1	su1	57	79	7.1659
GCCAAGCCAAAGAAGGCGGCAG	chr6:26156508-26157392$1	su1	734	756	10.5075
AACGAAAGUCUAGCCUUUCGUA	chr6:26197436-26197573$1	su1	75	97	10.1820
GGGGGAGCUGGCCAAGCACGCC	chr6:26158627-26158885$1	su1	81	103	8.8275
UUCGGAGUCUUGACGCUCUUUU	chr6:26017210-26017638$1	su1	289	311	7.1563
AGGACUUCAAGACCGACUUGCG	chr6:27777791-27778364$1	su1	289	311	10.5835
GGCUGGCGCGCUUUUGCGAGCC	chr6:26250319-26250865$1	su1	418	440	11.8920
GGAAAGGGCAUAAGUCUGCCCG	chr6:26046022-26046145$1	su1	14	36	5.7502
GAAGCAGGUCCAUCCCGACACC	chr6:26158489-26158625$1	su1	45	67	10.0758
CCAUCCGCAACGACGAGGAGCU	chr6:27833349-27833624$1	su1	42	64	10.6896
UCACCAUCGCGCAGGGUGGUGU	chr6:27114988-27115367$1	su1	220	242	10.5174
CUUUCAACAAAAGAGUUGAAAU	chr6:27107023-27107502$1	su1	431	453	8.5804
CGAUGGAUGUGGUCUACGCGCU	chr6:26204807-26205302$1	su1	315	337	5.5962
UAUGAGUAAUGAACUGCUCCAG	chr6:27805607-27805995$1	su1	90	112	9.4439
UUCUUGGAGCCCUUCUUCGGGG	chr6:27775564-27775737$1	su1	70	92	5.6796
UAAUGCGCUAUUUCGUGAUCAG	chr1:149858798-149859350$1	su1	181	203	10.5387
GGCGGUGUUAGAGUACCUGACC	chr6:26124441-26124971$1	su1	177	199	9.9272
GAAUCAGCAACUCGGUCGACUU	chr6:26031769-26032338$1	su1	329	351	8.3135
UACUUGGAAUGUUUACUUGGAG	chr6:26123643-26124198$1	su1	96	118	4.9672
AAGUCACCAUCGCACAGGGUGG	chr6:27776250-27776479$1	su1	35	57	5.3569
GCAGGAUAACAAGAUGUCUGCU	chr6:26285302-26285805$1	su1	14	36	10.5045
UGGCGAGGCUUCCCGCCUGGCG	chr6:27861256-27861716$1	su1	208	230	4.6803

#PSSM
c : 0.21	d : 0.12	f : 0.10	g : 0.10	h : 0.07	[ : 0.07	e : 0.07	b : 0.05	: : 0.03	= : 0.03	" : 0.01	i : 0.01	D : 0.01	G : 0.01	$ : 0.01	& : 0.01	! : 0.01	
c : 0.21	g : 0.15	d : 0.12	! : 0.10	e : 0.07	[ : 0.07	f : 0.07	h : 0.03	= : 0.03	a : 0.01	i : 0.01	G : 0.01	: : 0.01	b : 0.01	& : 0.01	" : 0.01	
c : 0.15	g : 0.15	d : 0.10	f : 0.10	e : 0.08	! : 0.08	[ : 0.07	b : 0.05	h : 0.03	" : 0.03	= : 0.03	i : 0.01	: : 0.01	a : 0.01	& : 0.01	
e : 0.14	c : 0.14	g : 0.12	f : 0.10	d : 0.08	[ : 0.07	a : 0.07	b : 0.07	! : 0.05	" : 0.05	= : 0.03	i : 0.01	# : 0.01	h : 0.01	
[ : 0.24	e : 0.12	! : 0.12	c : 0.08	d : 0.08	f : 0.08	g : 0.07	" : 0.05	= : 0.03	a : 0.01	: : 0.01	i : 0.01	# : 0.01	b : 0.01	
c : 0.31	e : 0.14	[ : 0.12	d : 0.07	! : 0.07	g : 0.07	f : 0.05	b : 0.03	" : 0.03	= : 0.03	i : 0.01	a : 0.01	# : 0.01	
c : 0.35	b : 0.21	e : 0.12	d : 0.07	g : 0.07	[ : 0.05	f : 0.05	= : 0.03	" : 0.01	# : 0.01	
c : 0.40	b : 0.17	e : 0.10	d : 0.05	f : 0.05	a : 0.05	g : 0.05	= : 0.03	[ : 0.01	r : 0.01	o : 0.01	] : 0.01	
o : 0.63	c : 0.15	r : 0.03	= : 0.03	e : 0.03	l : 0.03	d : 0.01	a : 0.01	m : 0.01	i : 0.01	
o : 0.63	n : 0.10	c : 0.07	m : 0.05	r : 0.03	= : 0.03	l : 0.03	e : 0.01	i : 0.01	
o : 0.64	m : 0.14	n : 0.10	r : 0.03	l : 0.03	: : 0.01	i : 0.01	
o : 0.64	m : 0.14	n : 0.10	r : 0.03	i : 0.03	e : 0.01	b : 0.01	
o : 0.64	m : 0.12	n : 0.10	r : 0.03	i : 0.03	c : 0.01	e : 0.01	b : 0.01	
o : 0.63	n : 0.10	m : 0.08	d : 0.03	r : 0.03	i : 0.03	a : 0.01	c : 0.01	b : 0.01	e : 0.01	
c : 0.40	b : 0.17	e : 0.08	d : 0.07	a : 0.05	g : 0.05	f : 0.03	r : 0.03	i : 0.03	] : 0.01	= : 0.01	o : 0.01	
c : 0.40	b : 0.17	e : 0.08	d : 0.07	] : 0.05	g : 0.05	f : 0.03	r : 0.03	i : 0.03	3 : 0.01	= : 0.01	o : 0.01	
c : 0.49	e : 0.10	d : 0.08	g : 0.07	] : 0.05	2 : 0.03	f : 0.03	i : 0.03	b : 0.01	3 : 0.01	= : 0.01	a : 0.01	r : 0.01	
] : 0.28	c : 0.14	e : 0.12	2 : 0.10	g : 0.10	f : 0.07	3 : 0.05	d : 0.05	b : 0.03	i : 0.01	= : 0.01	
c : 0.17	e : 0.15	g : 0.15	d : 0.10	f : 0.08	2 : 0.07	a : 0.07	b : 0.07	3 : 0.03	] : 0.01	[ : 0.01	i : 0.01	= : 0.01	
g : 0.17	c : 0.15	d : 0.12	f : 0.10	e : 0.08	2 : 0.08	] : 0.07	b : 0.05	3 : 0.03	h : 0.01	: : 0.01	a : 0.01	i : 0.01	= : 0.01	4 : 0.01	
c : 0.21	g : 0.17	2 : 0.12	d : 0.12	e : 0.08	f : 0.08	: : 0.07	] : 0.03	h : 0.01	b : 0.01	[ : 0.01	= : 0.01	4 : 0.01	
c : 0.21	d : 0.15	g : 0.14	f : 0.10	] : 0.08	e : 0.07	h : 0.05	: : 0.05	2 : 0.03	n : 0.01	= : 0.01	3 : 0.01	4 : 0.01	5 : 0.01	

#score	484.3873527833683
#seq	57
#width	22
#escape	false
#onStep	15000
#minSteps	10000
#maxSteps	15000.0