:ffffffooooooffffff	chr1:44432306-44432442$1	136	51	70	7.6853
=======oooooo======	chr17:56247013-56247128$1	115	50	69	9.3077
#ccccccooooooccc]cc	chr17:48276061-48276181$1	120	90	109	8.6756
gggggggccc[ggggggg"	chr11:57192013-57192131$1	118	36	55	3.2620
""eeeeennnnneeeee33	chr1:17304574-17304693$1	119	55	74	5.6193
gggg"""ccclllccc22g	chr12:109040400-109040536$1	136	41	60	5.7590
cffffffooooooffffff	chr11:90017264-90017394$1	130	104	123	8.5338
:ffffffooooooffffff	chr11:66700653-66700774$1	121	49	68	7.6853
""ffffffnnnnnffffff	chr1:237206256-237206371$1	115	34	53	5.9249
##eeeeeooooooeeeee2	chr17:45759779-45759909$1	130	64	83	8.4725
iiiiiiirrrrrrrrriii	chr16:61785447-61785566$1	119	68	87	5.5166
[ccc[cccmmmmcccccc]	chr14:23495014-23495157$1	143	111	130	5.5873
eeeee[aooooooa]eeee	chr15:34448791-34448927$1	136	46	65	8.2522
=======oooooo======	chr11:94759987-94760113$1	126	88	107	9.3077
ggg:cccoooooocccBB}	chr10:21836651-21836787$1	136	78	97	5.0121
::eeeee[allla]eeeee	chr1:6324281-6324404$1	123	32	51	4.5865
:ffffffooooooffffff	chr1:150190712-150190959$1	247	32	51	7.6853
eee[fffffflllffffff	chr11:63678317-63678453$1	136	38	57	5.5748
ggggggg^^^^^^^^^^^^	chr17:5469726-5469862$1	136	55	74	3.5360
gggggggoooooogggggg	chr16:58201586-58201722$1	136	69	88	9.0293
dd!!cccooooooccc22d	chr11:65272192-65272673$1	481	314	333	7.9859
d####bboooooobb4444	chr10:90570143-90570262$1	119	64	83	7.4126
c!!bb[aooooooa]bb22	chr12:54385495-54385618$1	123	7	26	7.2751
!gggggggmmmmggggggg	chr11:67165599-67165912$1	313	24	43	5.8381
bb!!cccooooooccc22b	chr15:70371675-70371797$1	122	8	27	7.7718
fgggggggmmmmggggggg	chr1:235906371-235906493$1	122	86	105	5.5874
fffffbboooooobb]fff	chr17:77768128-77768253$1	125	66	85	7.6523
ggg!!bbnnnnnbb]gggg	chr18:1646898-1647034$1	136	86	105	5.0673
dddd[ddddllldddd]dd	chr11:319682-319818$1	136	115	134	4.1959
===!!bboooooobb22==	chr1:182834602-182834738$1	136	39	58	7.8114
iiiiiiiinnnnniiiiii	chr1:161501886-161502009$1	123	69	88	6.1028
!!eeeeeqqqqqqqqeeee	chr11:64088101-64088239$1	138	49	68	3.3014
==========lll======	chr17:49256468-49256604$1	136	23	42	7.3669
f]ccceeeeellleeeee:	chr17:34867069-34867202$1	133	70	89	4.2205
fff[fffffflllffffff	chr14:54943859-54943995$1	136	56	75	5.5882
bb!!cccooooooccc22b	chr1:111983300-111983436$1	136	89	108	7.7718
ee[ddddooooooddddee	chr11:61096851-61096987$1	136	86	105	7.1956
ccc[cccooooooccc]cc	chr14:81807740-81807868$1	128	86	105	8.7294
ddeeeeeooooooeeeee:	chr1:178280272-178280389$1	117	40	59	7.2022
gggggggoooooogggggg	chr12:6646767-6646903$1	136	39	58	9.0293
cccc[eeeeellleeeee2	chr10:67786483-67786597$1	114	27	46	5.4710
egggggggmmmmggggggg	chr16:87778661-87778797$1	136	44	63	5.6070
gggggggoooooogggggg	chr12:94230554-94230674$1	120	2	21	9.0293
cc!!eeeeemmmmeeeeec	chr12:64842202-64842326$1	124	77	96	5.2387
"""ffffffmmmmffffff	chr12:56310540-56310676$1	136	97	116	5.4391
eeebb[cccmmmmccc]bb	chr17:41166984-41167120$1	136	106	125	4.4000
:dddd[aooooooa]dddd	chr1:64245812-64245929$1	117	81	100	6.4296
==========!!ccc[ccc	chr12:128935178-128935298$1	120	0	19	4.3325
b[eeeeeooooooeeeee2	chr10:134941869-134941990$1	121	66	85	8.2679
eeeeebboooooobbdddd	chr1:116932824-116932948$1	124	38	57	7.0171
""eeeeellleeeee]eee	chr12:113770592-113770713$1	121	91	110	4.5878
d"""cccooooooccc333	chr12:116441138-116441254$1	116	65	84	8.8145
gggg"""ccclllccc444	chr11:46771800-46771936$1	136	105	124	6.0213
c[bba[cccmmmmccc]a]	chr11:65269027-65269163$1	136	35	54	5.1202
eeeeerrrrrrrrreeeee	chr14:51101367-51101495$1	128	97	116	4.8179
ffffff[bblllbbfffff	chr17:36882089-36882225$1	136	42	61	5.1364
ccbb[bboooooobb]bb]	chr10:128845518-128845633$1	115	82	101	6.8136
####cccooooooccc555	chr10:112361481-112361617$1	136	20	39	6.2017
[gggggggmmmmggggggg	chr17:22023708-22023896$1	188	55	74	5.8040
ffffff[ammmma]fffff	chr1:2164427-2164563$1	136	88	107	5.6542
b[eeeeeooooooeeeee]	chr10:94455319-94455453$1	134	67	86	8.4467
!!eeeeeooooooeeeee2	chr1:111662941-111663077$1	136	27	46	8.6004
eeeeecccmmmmccc]eee	chr12:93166341-93166460$1	119	4	23	5.2056
iiiiieeeeellleeeee:	chr1:151313079-151313255$1	176	132	151	4.8824
e!!ddddrrrrrrrrrddd	chr1:76265925-76266061$1	136	72	91	4.2819
ddffffffnnnnnffffff	chr15:42064263-42064393$1	130	80	99	5.3867
ddd[cccooooooccc]dd	chr14:102551639-102551793$1	154	25	44	8.0187
"ffffffooooooffffff	chr1:22399219-22399339$1	120	13	32	8.6576
gggggggrrrrrrrrrggg	chr12:49666640-49666807$1	167	74	93	5.6601
ddccc[ccclllcccccc]	chr11:9406190-9406321$1	131	18	37	5.8756
c[eeeeeooooooeeeee3	chr16:67209464-67209588$1	124	67	86	8.6768
==========lll======	chr13:50587189-50587326$1	137	20	39	7.3669
eeee[bboooooobb]eee	chr1:149815003-149815130$1	127	95	114	7.6351
""eeeeeooooooeeeeec	chr15:81047830-81047966$1	136	74	93	8.6225
ffff[bboooooobb]fff	chr11:64031448-64031577$1	129	70	89	7.7197
cc[ddddoooooodddd22	chr14:105915662-105915798$1	136	38	57	7.1705
ccc[eeeeellleeeeecc	chr14:103986420-103986670$1	250	92	111	5.7038
!gggggggmmmmggggggg	chr15:73068766-73068902$1	136	81	100	5.8381
cffffffooooooffffff	chr17:7215095-7215235$1	140	68	87	8.5338
##ffffff####ffffff[	chr14:23754330-23754466$1	136	27	46	3.4569
""ggggggglllggggggg	chr17:40718167-40718339$1	172	45	64	6.5049
:::ddddoooooodddd:c	chr1:26663768-26663904$1	136	49	68	3.4150
f!!bb!!ccclllcccbb3	chr17:21201019-21201139$1	120	48	67	5.1898
:ffffffooooooffffff	chr1:177141867-177141991$1	124	62	81	7.6853
eeeeeeeeemmmmeeeee9	chr1:10572286-10572414$1	128	58	77	4.2918
affffffooooooffffff	chr1:150938395-150938531$1	136	33	52	8.5421
%%%%cccooooooccc333	chr11:57480098-57480234$1	136	11	30	6.3697
[ggggggglllggggggg]	chr12:10566741-10566857$1	116	47	66	6.0202
[ccc!!aooooooa22ccc	chr17:17286996-17287132$1	136	34	53	7.8394
ffffff[bblllbb]ffff	chr15:43438110-43438229$1	119	42	61	5.0697
ggg[bb[ccclllccc]bb	chr10:126338722-126338842$1	120	79	98	5.4289
b:ddddaooooooa]dddd	chr17:38026743-38026861$1	118	33	52	6.0829
=====bboooooobb]===	chr10:38348895-38349031$1	136	99	118	8.3412

#otherMatches

#Seq PSSM
AGGAUCGUUAAACUGAUCU	chr1:44432306-44432442$1	su1	51	70	7.6853
GCUCUCGCAGACUCGGGAG	chr17:56247013-56247128$1	su1	50	69	9.3077
gaUgaUUaaacgcaaUaca	chr17:48276061-48276181$1	su1	90	109	8.6756
CUCCCUUAGCAUUUGGGGG	chr11:57192013-57192131$1	su1	36	55	3.2620
UGGUCAUAAGUCGUGACAA	chr1:17304574-17304693$1	su1	55	74	5.6193
GAAGAAAUACGACGUGAGC	chr12:109040400-109040536$1	su1	41	60	5.7590
UUUgUUggcaUUUcaacaa	chr11:90017264-90017394$1	su1	104	123	8.5338
AUGAGAUGCAACUGUCUCA	chr11:66700653-66700774$1	su1	49	68	7.6853
AACUCGGGCUGUUUCUGGG	chr1:237206256-237206371$1	su1	34	53	5.9249
GGAGUGUGCACGGAUGCUG	chr17:45759779-45759909$1	su1	64	83	8.4725
CGCUGCAUAAAAACACUGU	chr16:61785447-61785566$1	su1	68	87	5.5166
GCAGCUCAUUAAUGACUGG	chr14:23495014-23495157$1	su1	111	130	5.5873
gcUUaggggaaggUgUagg	chr15:34448791-34448927$1	su1	46	65	8.2522
gUcgUggUcgUggUcaUgg	chr11:94759987-94760113$1	su1	88	107	9.3077
agUgcUggUaUUacaggcg	chr10:21836651-21836787$1	su1	78	97	5.0121
CCACCCAGGACACGUGGGU	chr1:6324281-6324404$1	su1	32	51	4.5865
UUGAAGCAAUUCAGUUUCA	chr1:150190712-150190959$1	su1	32	51	7.6853
CUUGGCUCCCAAAGGGGGU	chr11:63678317-63678453$1	su1	38	57	5.5748
aUgUagUUUUcUaaaUUcc	chr17:5469726-5469862$1	su1	55	74	3.5360
GCAGGAUGAUAGAAUUCUG	chr16:58201586-58201722$1	su1	69	88	9.0293
UGUAUUUACAUACAAAGUC	chr11:65272192-65272673$1	su1	314	333	7.9859
ACUUCCCUCUAGUGGCCAA	chr10:90570143-90570262$1	su1	64	83	7.4126
AAAGCUGAAUCUCCCGCCC	chr12:54385495-54385618$1	su1	7	26	7.2751
GUGUCUUAGAUGUGAGACG	chr11:67165599-67165912$1	su1	24	43	5.8381
CCAGACAGGACUGUGUAGG	chr15:70371675-70371797$1	su1	8	27	7.7718
UAACAAUUAACCAAUUGUU	chr1:235906371-235906493$1	su1	86	105	5.5874
AUUUAGAUAUUUUUCUUAA	chr17:77768128-77768253$1	su1	66	85	7.6523
UUACUUAGGGAAUAUUAAC	chr18:1646898-1647034$1	su1	86	105	5.0673
GUCAUGGGCAGAGCUCCUG	chr11:319682-319818$1	su1	115	134	4.1959
UaagaUUaUUaaaaggaUU	chr1:182834602-182834738$1	su1	39	58	7.8114
ggagagcggggUUcgcUcU	chr1:161501886-161502009$1	su1	69	88	6.1028
GUGGAGCAGGCUGAGGCUC	chr11:64088101-64088239$1	su1	49	68	3.3014
AGGUUAAUCAUUUUGAUUA	chr17:49256468-49256604$1	su1	23	42	7.3669
CAACCCCAGCAAUGCUGGC	chr17:34867069-34867202$1	su1	70	89	4.2205
UUUAUUUGGACCCUUUAAA	chr14:54943859-54943995$1	su1	56	75	5.5882
GCACUAUAAAAAAAUAAAG	chr1:111983300-111983436$1	su1	89	108	7.7718
UUAUCGCGAUCUAGUGGAA	chr11:61096851-61096987$1	su1	86	105	7.1956
CCCUGAAUCCUAUUUCCGG	chr14:81807740-81807868$1	su1	86	105	8.7294
gUgUUUUaUUUUaaagaca	chr1:178280272-178280389$1	su1	40	59	7.2022
CUGUGGCGUGAUGGCCGCG	chr12:6646767-6646903$1	su1	39	58	9.0293
UaUUggUGUUAUUGACACA	chr10:67786483-67786597$1	su1	27	46	5.4710
AAUCCUUAAACUUGGGGGU	chr16:87778661-87778797$1	su1	44	63	5.6070
aggcacUacccUgggUgcc	chr12:94230554-94230674$1	su1	2	21	9.0293
UUUAUGUGUGAAGACACAA	chr12:64842202-64842326$1	su1	77	96	5.2387
UaaUcccaacacUUUggga	chr12:56310540-56310676$1	su1	97	116	5.4391
GGCUGAGGAAGCUUCCCCG	chr17:41166984-41167120$1	su1	106	125	4.4000
AACUUUAUUUUUUUCAAGU	chr1:64245812-64245929$1	su1	81	100	6.4296
caaaUUUaUUgaUggcaca	chr12:128935178-128935298$1	su1	0	19	4.3325
CGGCGCCACCCAGGGCGCA	chr10:134941869-134941990$1	su1	66	85	8.2679
UGGcaaggaaaaacUgcUU	chr1:116932824-116932948$1	su1	38	57	7.0171
CUGCCCCCACGGGGCCUGG	chr12:113770592-113770713$1	su1	91	110	4.5878
CAUUAGGGUGGUGCCUCCA	chr12:116441138-116441254$1	su1	65	84	8.8145
CUGUGAGGAAUUUUUCAGA	chr11:46771800-46771936$1	su1	105	124	6.0213
GAUGCUAUAGUACUAUUGA	chr11:65269027-65269163$1	su1	35	54	5.1202
AUGGUAAUAUUUAAACCAU	chr14:51101367-51101495$1	su1	97	116	4.8179
UUUUGGAGGUCCCCCCAGA	chr17:36882089-36882225$1	su1	42	61	5.1364
ACAUUACUCAAAUGUUAUA	chr10:128845518-128845633$1	su1	82	101	6.8136
GAUACUAAAGAACUGGAAA	chr10:112361481-112361617$1	su1	20	39	6.2017
CAAUGGUGCAGCCGCUAUU	chr17:22023708-22023896$1	su1	55	74	5.8040
GGGACGCGGCCCCUUGUCC	chr1:2164427-2164563$1	su1	88	107	5.6542
GGGACGACUGACCUCGUUG	chr10:94455319-94455453$1	su1	67	86	8.4467
UAGUUUAGGAUUGUGAACC	chr1:111662941-111663077$1	su1	27	46	8.6004
AAUAAGGAUCCUUCCAUUG	chr12:93166341-93166460$1	su1	4	23	5.2056
UaUcaaaUaUUacaUaUUa	chr1:151313079-151313255$1	su1	132	151	4.8824
UUUgagUaUaUcaUUgaUU	chr1:76265925-76266061$1	su1	72	91	4.2819
UaUacagUgcaUgacUgUA	chr15:42064263-42064393$1	su1	80	99	5.3867
AGAAUGUUUCUUCACAAUC	chr14:102551639-102551793$1	su1	25	44	8.0187
aUUUgUUaUgaaaaacaag	chr1:22399219-22399339$1	su1	13	32	8.6576
AGGUUGGCAUUAAUUACCA	chr12:49666640-49666807$1	su1	74	93	5.6601
CGGUUGCCGCUGCGGAGCG	chr11:9406190-9406321$1	su1	18	37	5.8756
UUcUcUcUggacUgggagc	chr16:67209464-67209588$1	su1	67	86	8.6768
GUUUUUCAUUUUCAAUGAA	chr13:50587189-50587326$1	su1	20	39	7.3669
AAGCUGUUUUCCCACUGCU	chr1:149815003-149815130$1	su1	95	114	7.6351
CUGUUGCUUGGAUGCGGCA	chr15:81047830-81047966$1	su1	74	93	8.6225
AUUAAGCACGUCAGCCUGA	chr11:64031448-64031577$1	su1	70	89	7.7197
UCAGUCUGCUAUAAGGCCG	chr14:105915662-105915798$1	su1	38	57	7.1705
GCUUGCCCAGGUUGGGCAG	chr14:103986420-103986670$1	su1	92	111	5.7038
AAAAUACAUAGUUGUAUUU	chr15:73068766-73068902$1	su1	81	100	5.8381
UCCUCUGAACCUGCAGAGG	chr17:7215095-7215235$1	su1	68	87	8.5338
UUaUcUUUaaaaUUcccaa	chr14:23754330-23754466$1	su1	27	46	3.4569
CAUGGGUGACUCUUACCCA	chr17:40718167-40718339$1	su1	45	64	6.5049
CCUCCAGCAGAUACUGGUG	chr1:26663768-26663904$1	su1	49	68	3.4150
UGAGGAAGGUACUGCCCCG	chr17:21201019-21201139$1	su1	48	67	5.1898
UUUGUUAAAAGGAUAACAA	chr1:177141867-177141991$1	su1	62	81	7.6853
CAGACCAGGACUUUCUGGA	chr1:10572286-10572414$1	su1	58	77	4.2918
CGUCCCCCUACCUGGGGAU	chr1:150938395-150938531$1	su1	33	52	8.5421
UAAUUGCUCUCGUGUAUUC	chr11:57480098-57480234$1	su1	11	30	6.3697
aUUUgUUUcggaaacaaag	chr12:10566741-10566857$1	su1	47	66	6.0202
UCCACAGAAAUGCCGAUGG	chr17:17286996-17287132$1	su1	34	53	7.8394
GAUAUAGACCCUGUGUAUG	chr15:43438110-43438229$1	su1	42	61	5.0697
caaggaaggacUcUcUaUc	chr10:126338722-126338842$1	su1	79	98	5.4289
GAGAAGCAAAAAGGACUUC	chr17:38026743-38026861$1	su1	33	52	6.0829
AUCUUGUUUCUGUACUAAG	chr10:38348895-38349031$1	su1	99	118	8.3412

#PSSM
g : 0.11	c : 0.11	e : 0.11	f : 0.09	d : 0.08	: : 0.07	= : 0.07	" : 0.07	b : 0.05	# : 0.04	[ : 0.04	! : 0.04	i : 0.03	a : 0.01	% : 0.01	
g : 0.18	f : 0.15	c : 0.09	e : 0.09	= : 0.07	" : 0.07	d : 0.07	! : 0.05	# : 0.04	[ : 0.04	i : 0.03	: : 0.03	b : 0.02	] : 0.01	% : 0.01	
e : 0.20	g : 0.19	f : 0.18	c : 0.08	= : 0.07	! : 0.07	d : 0.04	i : 0.03	# : 0.02	[ : 0.02	" : 0.02	b : 0.02	: : 0.01	% : 0.01	
f : 0.18	e : 0.18	g : 0.16	d : 0.07	= : 0.06	c : 0.06	[ : 0.06	! : 0.06	b : 0.05	i : 0.03	# : 0.02	: : 0.01	" : 0.01	% : 0.01	
f : 0.19	e : 0.19	g : 0.13	c : 0.12	= : 0.06	[ : 0.06	d : 0.06	b : 0.04	i : 0.03	! : 0.03	" : 0.02	# : 0.01	a : 0.01	
f : 0.18	e : 0.18	g : 0.13	c : 0.12	b : 0.10	[ : 0.06	d : 0.06	= : 0.05	" : 0.02	i : 0.02	! : 0.02	r : 0.01	
e : 0.18	c : 0.16	f : 0.15	g : 0.13	b : 0.09	= : 0.05	a : 0.05	d : 0.05	[ : 0.04	" : 0.02	i : 0.02	r : 0.01	! : 0.01	
o : 0.49	c : 0.10	g : 0.07	f : 0.06	e : 0.06	r : 0.04	= : 0.03	n : 0.02	b : 0.02	[ : 0.01	^ : 0.01	d : 0.01	i : 0.01	q : 0.01	l : 0.01	a : 0.01	
o : 0.49	c : 0.08	m : 0.08	e : 0.06	n : 0.05	r : 0.04	f : 0.03	= : 0.03	l : 0.02	b : 0.02	a : 0.01	^ : 0.01	d : 0.01	q : 0.01	# : 0.01	g : 0.01	
o : 0.49	m : 0.13	l : 0.09	c : 0.05	n : 0.05	r : 0.04	= : 0.03	e : 0.03	f : 0.02	^ : 0.01	q : 0.01	# : 0.01	
o : 0.49	l : 0.20	m : 0.13	n : 0.05	r : 0.04	[ : 0.01	^ : 0.01	q : 0.01	! : 0.01	e : 0.01	# : 0.01	
o : 0.49	l : 0.19	m : 0.13	n : 0.05	r : 0.04	g : 0.02	^ : 0.01	q : 0.01	! : 0.01	e : 0.01	# : 0.01	
o : 0.49	l : 0.11	g : 0.08	m : 0.05	r : 0.04	c : 0.04	e : 0.03	n : 0.03	b : 0.03	a : 0.02	^ : 0.01	d : 0.01	q : 0.01	f : 0.01	
c : 0.21	e : 0.16	f : 0.15	g : 0.11	b : 0.11	a : 0.05	= : 0.04	r : 0.04	d : 0.04	] : 0.02	^ : 0.01	i : 0.01	q : 0.01	
c : 0.21	e : 0.18	f : 0.17	g : 0.11	b : 0.08	] : 0.06	= : 0.04	d : 0.04	r : 0.03	^ : 0.01	i : 0.01	q : 0.01	2 : 0.01	
c : 0.19	e : 0.19	f : 0.18	g : 0.12	] : 0.07	d : 0.07	= : 0.04	r : 0.03	2 : 0.02	^ : 0.01	4 : 0.01	b : 0.01	i : 0.01	[ : 0.01	
e : 0.22	f : 0.20	g : 0.13	] : 0.07	d : 0.07	= : 0.05	2 : 0.05	c : 0.04	b : 0.03	i : 0.02	4 : 0.02	3 : 0.02	B : 0.01	^ : 0.01	5 : 0.01	
e : 0.21	f : 0.20	g : 0.13	c : 0.07	= : 0.06	2 : 0.06	d : 0.06	b : 0.04	3 : 0.03	i : 0.02	4 : 0.02	B : 0.01	^ : 0.01	a : 0.01	5 : 0.01	: : 0.01	
f : 0.19	g : 0.12	c : 0.08	e : 0.08	d : 0.07	= : 0.06	2 : 0.06	] : 0.06	3 : 0.05	b : 0.04	: : 0.03	i : 0.02	4 : 0.02	" : 0.01	} : 0.01	^ : 0.01	5 : 0.01	[ : 0.01	9 : 0.01	

#score	604.8478355451085
#seq	93
#width	19
#escape	false
#onStep	15000
#minSteps	10000
#maxSteps	15000.0