b!!ddddqqqqqqqqdddd22	NM_001212|C1QBP$1	su1	48	69	9.2552
hhhhhhhqqqqqqqqhhhhhh	NM_014384|ACAD8$1	su1	23	44	6.7491
e!!ddddqqqqqqqqdddd]e	NM_004453|ETFDH$1	su1	108	129	9.3279
""eeeeerrrrrrrrreeeee	NM_015942|MTERFD1$1	su1	51	72	9.3422
ff!!cccqqqqqqqqccc555	NM_005794|DHRS2$1	su1	99	120	7.3051
!a[a[bbqqqqqqqqbbaa22	NM_175907|ZADH2$1	su1	207	228	8.9628
ffff!!cccpppppppccc22	NM_004793|LONP1$1	su1	76	97	4.7413
ddd[cccqqqqqqqqccc]dd	NM_022132|MCCC2$1	su1	61	82	9.1650
hhhhhhhqqqqqqqqhhhhhh	NM_018706|DHTKD1$1	su1	14	35	6.7491
[ffffffpppppppffffff]	NM_152268|PARS2$1	su1	21	42	6.0826
###ddddqqqqqqqqdddd44	NM_000170|GLDC$1	su1	72	93	9.5430
eeeee[bbpppppppbb]eee	NM_000018|ACADVL$1	su1	110	131	5.9238
Fdddd[bbpppppppbbdddd	NM_001482|GATM$1	su1	29	50	4.9425
=======qqqqqqqq======	NM_146387|MRPL4$1	su1	38	59	9.5100
cffffffqqqqqqqqffffff	NM_024622|FASTKD1$1	su1	40	61	9.0876
##eeeeeqqqqqqqqeeeee3	NM_005138|SCO2$1	su1	84	105	10.3324
$$$$ddddoooooodddd333	NM_000126|ETFA$1	su1	50	71	4.5171
d[eeeeeqqqqqqqqeeeee]	NM_016486|TMEM69$1	su1	127	148	10.0419
dffffffpppppppffffff]	NM_004375|COX11$1	su1	16	37	5.7888
eee[cccqqqqqqqqccc]ee	NM_174922|ADCK5$1	su1	22	43	9.6405
:ffffffqqqqqqqqffffff	NM_001184797|TMLHE$1	su1	82	103	8.3193
""ddddrrrrrrrrrdddd33	NM_021830|C10orf2$1	su1	107	128	9.0814
c[ddddwwwwwwwwwwwwwwd	NM_015160|PMPCA$1	su1	27	48	7.8367
[ddddtttttttttttdddd]	NM_000019|ACAT1$1	su1	27	48	5.8351
ccc[acccpppppppccc]a]	NM_004134|HSPA9$1	su1	150	171	6.6745
c[ddddrrrrrrrrrddddcc	NM_005932|MIPEP$1	su1	39	60	8.5461
!!ddddssssssssssdddd]	NM_000282|PCCA$1	su1	61	82	8.2449
!!eeeeesssssssssseeee	NM_014773|KIAA0141$1	su1	41	62	8.4804
bb[a[bbqqqqqqqqbb]a]b	NM_018127|ELAC2$1	su1	68	89	8.1857
b[eeeeeooooooeeeee]bb	NM_001931|DLAT$1	su1	56	77	4.7799
eeeeuuuuuuuuuuuueeeee	NM_194436|LDHD$1	su1	3	24	5.2058
:dddd[aqqqqqqqqaddddc	NM_021826|FASTKD5$1	su1	198	219	8.4101
""ccc[bboooooobbccc33	NM_000140|FECH$1	su1	74	95	5.4374
d[eeeeepppppppeeeeedd	NM_006440|TXNRD2$1	su1	117	138	6.2428
HHeeeeerrrrrrrrreeeee	NM_015340|LARS2$1	su1	147	168	7.8626
hhhhhhhrrrrrrrrrhhhhh	NM_014394|GHITM$1	su1	160	181	6.2911
:ffffffqqqqqqqqffffff	NM_022100|MRPS14$1	su1	23	44	8.3193
gggggggqqqqqqqqgggggg	NM_024758|AGMAT$1	su1	27	48	9.3699
eeeeesssssssssseeeee3	NM_001001556|GALK2$1	su1	165	186	7.9972
eeddddssssssssssdddd]	NM_032409|PINK1$1	su1	3	24	7.6652
eeeee[bbssssssssssbb]	NM_006793|PRDX3$1	su1	3	24	5.9073
[ddddbbqqqqqqqqbb]ddd	NM_001190|BCAT2$1	su1	27	48	8.5678
====bbssssssssssbb]==	NM_003748|ALDH4A1$1	su1	115	136	7.2545
hffffffqqqqqqqqffffff	NM_152352|FAM210A$1	su1	136	157	8.8633
::eeeeeqqqqqqqqeeeeec	NM_020381|PDSS2$1	su1	9	30	8.0818
!!eeeeeqqqqqqqqeeeee2	NM_014078|MRPL13$1	su1	197	218	10.2951
fffff[aqqqqqqqqafffff	NM_021927|GUF1$1	su1	1	22	9.1434
###ddddooooooddddffff	NM_001161706|FXN$1	su1	152	173	4.7221
eee[ddddooooooddddeee	NM_022366|TFB2M$1	su1	73	94	4.8538
ggggggrrrrrrrrrgggggg	NM_001143997|OGDHL$1	su1	244	265	8.6012
cc"""bbrrrrrrrrrbb333	NM_000098|CPT2$1	su1	456	477	8.1011
CCeeeeeqqqqqqqqeeeee:	NM_006821|ACOT2$1	su1	20	41	6.8621
FFFddddrrrrrrrrrdddd:	NM_003000|SDHB$1	su1	128	149	6.3660
gggggggqqqqqqqqgggggg	NM_000016|ACADM$1	su1	186	207	9.3699
#ffffffrrrrrrrrrfffff	NM_001037161|ACOT1$1	su1	115	136	8.5228
[eeeee[bboooooobbeeee	NM_001609|ACADSB$1	su1	89	110	4.9886
"""ddddqqqqqqqqdddd22	NM_001102368|C14orf159$1	su1	291	312	9.4466
[ffffffqqqqqqqqffffff	NM_152740|HIBADH$1	su1	164	185	9.2375
!!eeeeesssssssssseeee	NM_001875|CPS1$1	su1	50	71	8.4804
ffff[cccpppppppccc]ff	NM_001034173|ALDH1L2$1	su1	91	112	6.2260
ccc[cccqqqqqqqqcccccc	NM_005729|PPIF$1	su1	28	49	9.6103
####cccssssssssssccc6	NM_032380|GFM2$1	su1	109	130	7.5923
gggggggpppppppggggggg	NM_002860|ALDH18A1$1	su1	140	161	5.8485
"""ddddpppppppdddd444	NM_000182|HADHA$1	su1	59	80	6.2950
ccc!!cccpppppppccc22c	NM_001483|GBAS$1	su1	0	21	6.1773
dddbbcccqqqqqqqqccc22	NM_001083614|EARS2$1	su1	1	22	7.3987
ffffff[aooooooa]fffff	NM_018238|AGK$1	su1	85	106	5.0343
hhh[bbrrrrrrrrrbb]hhh	NM_133259|LRPPRC$1	su1	6	27	6.8007
%ffffffqqqqqqqqffffff	NM_078470|COX15$1	su1	391	412	8.6472
""eeeeeqqqqqqqqeeeee4	NM_000255|MUT$1	su1	149	170	10.2799
b[eeeeeooooooeeeee]bb	NM_014180|MRPL22$1	su1	13	34	4.7799
!eeeee[apppppppa]eeee	NM_002541|OGDH$1	su1	105	126	6.8807
bb!!bbrrrrrrrrrbb22bb	NM_005622|ACSM3$1	su1	138	159	6.6454
eeeeeerrrrrrrrreeeee8	NM_152783|D2HGDH$1	su1	150	171	8.5602
ccc[cccqqqqqqqqccc333	NM_018380|DDX28$1	su1	170	191	10.0475
dddbbssssssssssbb]ddd	NM_012318|LETM1$1	su1	198	219	6.1580
gggggggwwwwwwwwwwwwww	NM_017840|MRPL16$1	su1	14	35	7.6936
!!cccwwwwwwwwwwwwwwcc	NM_031280|MRPS15$1	su1	8	29	8.2267
ccxxxxxxxxxxxxxxxccc2	NM_000692|ALDH1B1$1	su1	100	121	6.1853
:ffffffqqqqqqqqffffff	NM_182977|NNT$1	su1	24	45	8.3193
gggggbbqqqqqqqqbb]ggg	NM_001146003|NEK11$1	su1	98	119	9.0135
!!eeeeeqqqqqqqqeeeee2	NM_005881|BCKDK$1	su1	297	318	10.2951
dffffffqqqqqqqqffffff	NM_144567|ANGEL2$1	su1	22	43	8.9437
::ddddrrrrrrrrrdddd::	NM_004208|AIFM1$1	su1	195	216	4.8667

#otherMatches

#Seq PSSM
CAUCUGCACGUGUUCGCAGUC	NM_001212|C1QBP$1	su1	48	69	9.2552
CGUUCAGACUCUUAGCUGAAC	NM_014384|ACAD8$1	su1	23	44	6.7491
CCUGGUUUGGUACAUGACCCG	NM_004453|ETFDH$1	su1	108	129	9.3279
UGCGGCCCAGCGAGUUGGUCG	NM_015942|MTERFD1$1	su1	51	72	9.3422
uuaagagcuguaacacucacc	NM_005794|DHRS2$1	su1	99	120	7.3051
GCAGAGCACAGCCGAGCCGAg	NM_175907|ZADH2$1	su1	207	228	8.9628
CGGCGAGCGGAAAUGACGCGA	NM_004793|LONP1$1	su1	76	97	4.7413
CCCAGCCAGGGAAGCGGCAGG	NM_022132|MCCC2$1	su1	61	82	9.1650
GGGGCGGGGCUCCGGCCGCCU	NM_018706|DHTKD1$1	su1	14	35	6.7491
GGCUUGCUCGAGGCGCAAGCG	NM_152268|PARS2$1	su1	21	42	6.0826
ACUGUCCAGCGAAAGGGGCUC	NM_000170|GLDC$1	su1	72	93	9.5430
GCUGGGUCAGAGCUCGAGCCA	NM_000018|ACADVL$1	su1	110	131	5.9238
GGACGUGCAACAGAAGCCGUC	NM_001482|GATM$1	su1	29	50	4.9425
GCUGUGAGCGCGGAGUCGCGG	NM_146387|MRPL4$1	su1	38	59	9.5100
UGCCGGGCAUUUUUUCCUGGU	NM_024622|FASTKD1$1	su1	40	61	9.0876
UCGGCGCUUCCUCUCGUGCUU	NM_005138|SCO2$1	su1	84	105	10.3324
UAAGGCCGAGGUUGCGGCGGA	NM_000126|ETFA$1	su1	50	71	4.5171
GCUUAGCUGUAACAUGUUAAU	NM_016486|TMEM69$1	su1	127	148	10.0419
UCUCGUCCCUGAGAGGCGGGU	NM_004375|COX11$1	su1	16	37	5.7888
GCUGGGCUGCGAGACGCUAAG	NM_174922|ADCK5$1	su1	22	43	9.6405
AAGGCGGGUGAAAGGCUGCCU	NM_001184797|TMLHE$1	su1	82	103	8.3193
GAGCUCGGAGUAGUAGAGCGG	NM_021830|C10orf2$1	su1	107	128	9.0814
GUCGGCGAGGGGGAGGGGAAG	NM_015160|PMPCA$1	su1	27	48	7.8367
GAGGCCGCUAGUCUACGCCUG	NM_000019|ACAT1$1	su1	27	48	5.8351
GGCGCCUCAGCGGAAGAGCGG	NM_004134|HSPA9$1	su1	150	171	6.6745
UGCUGCCUUGGAAACGCGGAG	NM_005932|MIPEP$1	su1	39	60	8.5461
CGGCUGUGUGAGAGGUCAGCA	NM_000282|PCCA$1	su1	61	82	8.2449
UCGCGGCGGCCUUUCUAGCCG	NM_014773|KIAA0141$1	su1	41	62	8.4804
GCGGGCGUAGGUGACCGGCGG	NM_018127|ELAC2$1	su1	68	89	8.1857
UCCAUCCCCCUUCGGAUGCGC	NM_001931|DLAT$1	su1	56	77	4.7799
CUGGUCACCCUGCCACCCAGU	NM_194436|LDHD$1	su1	3	24	5.2058
GUGGAACACCUCCCCGUCCAG	NM_021826|FASTKD5$1	su1	198	219	8.4101
CGCCGCGGGAGGAGCCCGGAC	NM_000140|FECH$1	su1	74	95	5.4374
GGACUGGACCCGCCCCGGUCC	NM_006440|TXNRD2$1	su1	117	138	6.2428
CCGGCUUAUGAUUUGAGGGCC	NM_015340|LARS2$1	su1	147	168	7.8626
CCGAGCAUUUCAGAUCUGCUC	NM_014394|GHITM$1	su1	160	181	6.2911
GGUUUGUAGUUUGUAGCGGAC	NM_022100|MRPS14$1	su1	23	44	8.3193
GAGCCGGCUCGGGUUCCGGCU	NM_024758|AGMAT$1	su1	27	48	9.3699
CUGGACGCAUCUCAUUCCGGU	NM_001001556|GALK2$1	su1	165	186	7.9972
AGAGGCACCGCCCCAAGUUUG	NM_032409|PINK1$1	su1	3	24	7.6652
GGGCCCGCUCACCACCCCGUA	NM_006793|PRDX3$1	su1	3	24	5.9073
GGCGGGCACAGUUACGCGCCG	NM_001190|BCAT2$1	su1	27	48	8.5678
GAAGCUAAAUAUAGUGGGACU	NM_003748|ALDH4A1$1	su1	115	136	7.2545
CGGGUUCCUGCACGCGGACCC	NM_152352|FAM210A$1	su1	136	157	8.8633
CCAUGCCUCCAAUAUGGCGUC	NM_020381|PDSS2$1	su1	9	30	8.0818
UCGACGGGCUAGGAACUGUCC	NM_014078|MRPL13$1	su1	197	218	10.2951
UGCAGACGUCGGCAAGCUGCG	NM_021927|GUF1$1	su1	1	22	9.1434
AGUGGCCACCAGGGGUCGCCG	NM_001161706|FXN$1	su1	152	173	4.7221
ACUGUAGUAGCUGCACUAGGU	NM_022366|TFB2M$1	su1	73	94	4.8538
CCUUCUAUGACCUUCAGGAGG	NM_001143997|OGDHL$1	su1	244	265	8.6012
UGUUUAGACUCCAGAACUCCC	NM_000098|CPT2$1	su1	456	477	8.1011
CUUUCCAACAUAAAGUGGAGG	NM_006821|ACOT2$1	su1	20	41	6.8621
UGGGGCUGACGUCAGGAGCCA	NM_003000|SDHB$1	su1	128	149	6.3660
UGCGACCCCUCCCCAGGUCGC	NM_000016|ACADM$1	su1	186	207	9.3699
AGCCCGAGAGGAAGAGUUGGG	NM_001037161|ACOT1$1	su1	115	136	8.5228
GCGCAGAGCGGAGAGGCCUGC	NM_001609|ACADSB$1	su1	89	110	4.9886
UAACCCUGCCUUCAAAGGGAC	NM_001102368|C14orf159$1	su1	291	312	9.4466
CCCUCCGGGAGGCGGCGGAGG	NM_152740|HIBADH$1	su1	164	185	9.2375
UUCUUUUACAUUAACUAAAAA	NM_001875|CPS1$1	su1	50	71	8.4804
GCUGCCGCGUCGCCAGUGCUA	NM_001034173|ALDH1L2$1	su1	91	112	6.2260
ACGUCAGUUUGAGUUCUGUGU	NM_005729|PPIF$1	su1	28	49	9.6103
GGACAGGAAAGAGUCACCCUU	NM_032380|GFM2$1	su1	109	130	7.5923
GCGCCGGAAUCAGCCCGGCGU	NM_002860|ALDH18A1$1	su1	140	161	5.8485
ACGGGAGAAAAGUCCUCCGCU	NM_000182|HADHA$1	su1	59	80	6.2950
gcccgggcggugggagccgag	NM_001483|GBAS$1	su1	0	21	6.1773
GGAGAAGCCCACGUGUGCUAU	NM_001083614|EARS2$1	su1	1	22	7.3987
UUCCCUUGAACGAGCCGGGGA	NM_018238|AGK$1	su1	85	106	5.0343
UCCUCCUGUCCUUCUGGCGGA	NM_133259|LRPPRC$1	su1	6	27	6.8007
AGCGCGUCAACAGCUGCGCGC	NM_078470|COX15$1	su1	391	412	8.6472
GAUGUCUGACAGGUGAGGCGG	NM_000255|MUT$1	su1	149	170	10.2799
GGCUUCCGUAGCGGGAGGGCG	NM_014180|MRPL22$1	su1	13	34	4.7799
AUUCGGGUGGAGCUGAGCCGG	NM_002541|OGDH$1	su1	105	126	6.8807
GAACUGGUCUCUGUGCAAAUC	NM_005622|ACSM3$1	su1	138	159	6.6454
CGGGCCCUGAGUACCGGCCCC	NM_152783|D2HGDH$1	su1	150	171	8.5602
CAGAUCUAUGACUUCAGACCC	NM_018380|DDX28$1	su1	170	191	10.0475
CGGGCCGGGUCUGAAGCGCCG	NM_012318|LETM1$1	su1	198	219	6.1580
GGAACUCAACCCCCGUCGCUC	NM_017840|MRPL16$1	su1	14	35	7.6936
CCACCUAAUCCAUUCUCUCGG	NM_031280|MRPS15$1	su1	8	29	8.2267
AGAACCCAAGCGUGAUCCUGA	NM_000692|ALDH1B1$1	su1	100	121	6.1853
ACGUGGCCGCCCGCCGCCGCG	NM_182977|NNT$1	su1	24	45	8.3193
CCCGAUUACCCGCAAGACUUG	NM_001146003|NEK11$1	su1	98	119	9.0135
GCCUGGGUCCUCAGUCCUAGC	NM_005881|BCKDK$1	su1	297	318	10.2951
ACUGCGCAAGAUGGAGUGUAG	NM_144567|ANGEL2$1	su1	22	43	8.9437
AAGGGAAGGAGGAGGUCCCGA	NM_004208|AIFM1$1	su1	195	216	4.8667

#PSSM
e : 0.10	c : 0.10	! : 0.09	d : 0.08	" : 0.07	: : 0.07	g : 0.07	b : 0.05	h : 0.05	f : 0.05	[ : 0.05	# : 0.05	F : 0.02	= : 0.02	$ : 0.01	H : 0.01	C : 0.01	% : 0.01	
f : 0.19	e : 0.11	! : 0.09	d : 0.08	" : 0.07	[ : 0.07	c : 0.07	g : 0.07	h : 0.04	# : 0.04	= : 0.02	b : 0.02	: : 0.02	a : 0.01	$ : 0.01	H : 0.01	C : 0.01	F : 0.01	
e : 0.27	f : 0.17	d : 0.15	c : 0.07	g : 0.07	! : 0.04	h : 0.04	# : 0.03	" : 0.03	[ : 0.02	= : 0.02	$ : 0.01	F : 0.01	x : 0.01	
e : 0.25	d : 0.20	f : 0.17	[ : 0.08	g : 0.07	h : 0.03	! : 0.03	a : 0.02	= : 0.02	c : 0.02	b : 0.02	$ : 0.01	" : 0.01	# : 0.01	x : 0.01	
e : 0.23	d : 0.22	f : 0.15	c : 0.09	g : 0.07	b : 0.05	h : 0.03	[ : 0.03	! : 0.02	= : 0.01	a : 0.01	u : 0.01	" : 0.01	x : 0.01	
e : 0.20	d : 0.17	f : 0.14	c : 0.11	b : 0.09	[ : 0.07	g : 0.05	h : 0.03	s : 0.02	! : 0.01	= : 0.01	t : 0.01	u : 0.01	w : 0.01	x : 0.01	
e : 0.16	c : 0.13	f : 0.13	d : 0.10	b : 0.10	r : 0.08	s : 0.05	g : 0.04	h : 0.03	[ : 0.03	w : 0.02	a : 0.02	= : 0.01	t : 0.01	u : 0.01	x : 0.01	
q : 0.41	r : 0.15	s : 0.09	c : 0.05	p : 0.05	b : 0.05	w : 0.03	o : 0.03	d : 0.02	a : 0.02	t : 0.01	u : 0.01	x : 0.01	
q : 0.42	r : 0.15	p : 0.13	s : 0.10	o : 0.08	w : 0.03	c : 0.01	t : 0.01	u : 0.01	b : 0.01	x : 0.01	
q : 0.42	r : 0.15	p : 0.14	s : 0.10	o : 0.09	w : 0.03	t : 0.01	u : 0.01	x : 0.01	
q : 0.42	r : 0.15	p : 0.14	s : 0.10	o : 0.09	w : 0.03	t : 0.01	u : 0.01	x : 0.01	
q : 0.42	r : 0.15	p : 0.14	s : 0.10	o : 0.09	w : 0.03	t : 0.01	u : 0.01	x : 0.01	
q : 0.42	r : 0.15	p : 0.14	s : 0.10	o : 0.09	w : 0.03	t : 0.01	u : 0.01	x : 0.01	
q : 0.42	r : 0.15	p : 0.14	s : 0.10	o : 0.05	w : 0.03	e : 0.02	t : 0.01	u : 0.01	d : 0.01	x : 0.01	
q : 0.42	r : 0.15	s : 0.10	p : 0.08	d : 0.04	w : 0.03	e : 0.03	f : 0.02	t : 0.01	u : 0.01	b : 0.01	o : 0.01	g : 0.01	a : 0.01	x : 0.01	
e : 0.14	d : 0.13	b : 0.13	f : 0.11	c : 0.09	s : 0.08	r : 0.07	g : 0.04	w : 0.03	a : 0.03	h : 0.02	p : 0.01	= : 0.01	t : 0.01	u : 0.01	q : 0.01	] : 0.01	x : 0.01	
d : 0.19	e : 0.17	f : 0.15	b : 0.14	c : 0.13	s : 0.04	g : 0.04	h : 0.03	w : 0.03	= : 0.01	] : 0.01	x : 0.01	
e : 0.22	d : 0.19	f : 0.16	c : 0.15	] : 0.07	g : 0.04	h : 0.03	w : 0.03	b : 0.02	a : 0.01	= : 0.01	s : 0.01	2 : 0.01	
e : 0.22	d : 0.17	f : 0.16	] : 0.08	c : 0.07	g : 0.05	h : 0.04	3 : 0.03	w : 0.03	a : 0.02	2 : 0.02	5 : 0.01	= : 0.01	b : 0.01	4 : 0.01	
e : 0.22	f : 0.17	d : 0.11	2 : 0.07	3 : 0.05	c : 0.05	g : 0.05	h : 0.04	b : 0.04	] : 0.02	4 : 0.02	= : 0.02	w : 0.02	5 : 0.01	a : 0.01	: : 0.01	
f : 0.15	e : 0.13	2 : 0.09	] : 0.09	3 : 0.08	d : 0.07	c : 0.07	g : 0.05	h : 0.04	b : 0.04	4 : 0.03	: : 0.03	= : 0.02	5 : 0.01	6 : 0.01	8 : 0.01	w : 0.01	

#score	639.988830042576
#seq	84
#width	21
#escape	false
#onStep	11533
#minSteps	10000
#maxSteps	11533.0