ggggggpppppppggggggg7	SeqCat02|111$1	170	48	69	17.1419
ggggggpppppppggggggg:	SeqCat03|26$1	170	23	44	17.0437
ggggggpppppppggggggg:	SeqCat03|20$1	170	3	24	17.0437
ggggggpppppppggggggg:	SeqCat03|85$1	170	38	59	17.0437
ffffffpppppppffffff]c	SeqCat02|119$1	170	84	105	14.0203
ggggggpppppppggggggg:	SeqCat03|27$1	170	43	64	17.0437
ggggggpppppppgggggggb	SeqCat03|81$1	170	16	37	17.3408
ggggggpppppppggggggg:	SeqCat02|151$1	170	41	62	17.0437
dffffffpppppppffffff:	SeqCat01|128$1	185	164	185	10.2473
ggggggpppppppggggggg:	SeqCat03|176$1	170	34	55	17.0437
hhhhhhppppppphhhhhhhh	SeqCat02|109$1	170	19	40	15.0361
hhhhhhppppppphhhhhhhh	SeqCat03|46$1	170	32	53	15.0361
ffffffpppppppffffffBB	SeqCat03|191$1	170	5	26	12.3538
hhhhhhppppppphhhhhhhh	SeqCat03|167$1	170	15	36	15.0361
ggggggpppppppggggggg:	SeqCat02|164$1	170	40	61	17.0437
ggggggpppppppggggggg:	SeqCat03|108$1	170	22	43	17.0437
"eeeeepppppppeeeee333	SeqCat01|44$1	185	57	78	13.5610
ggggggpppppppggggggg:	SeqCat03|50$1	170	43	64	17.0437
ggggggpppppppggggggge	SeqCat02|91$1	170	16	37	17.2643
ggggggpppppppggggggg:	SeqCat03|93$1	170	5	26	17.0437
ggggggpppppppggggggg6	SeqCat02|142$1	170	15	36	17.1496
ggggggpppppppgggggggd	SeqCat03|6$1	170	25	46	17.2599
ggggggpppppppgggggggd	SeqCat03|137$1	170	48	69	17.2599
"""cccpppppppccc22add	SeqCat01|153$1	185	160	181	13.3142
hhhhhhppppppphhhhhhhh	SeqCat02|97$1	170	47	68	15.0361
bb[cccpppppppcccbb22e	SeqCat01|60$1	185	109	130	12.7851
fffffrrrrrrrrrffffff:	SeqCat01|75$1	185	116	137	9.2030
dd!!bbpppppppbb22dddd	SeqCat01|98$1	185	85	106	11.9480
ddddddpppppppdddd]ddd	SeqCat03|86$1	170	63	84	12.0496
ggggggpppppppgggggggf	SeqCat02|126$1	170	48	69	17.1761
ggggggpppppppggggggg:	SeqCat03|120$1	170	34	55	17.0437
======ppppppp========	SeqCat03|7$1	170	13	34	15.6472
ggggggpppppppggggggg]	SeqCat02|185$1	170	49	70	17.5804
!a[cccpppppppcccaffff	SeqCat02|168$1	170	118	139	14.2058
ggggggpppppppggggggg:	SeqCat03|184$1	170	42	63	17.0437
ggggggpppppppgggggggb	SeqCat03|136$1	170	28	49	17.3408
ggggggpppppppggggggg]	SeqCat02|41$1	170	23	44	17.5804
Eeeeeepppppppeeeeeddd	SeqCat03|145$1	170	8	29	12.0861
hhhhhhppppppphhhhhhhh	SeqCat02|182$1	170	31	52	15.0361
ggggggpppppppgggggggc	SeqCat03|53$1	170	46	67	17.4166
hhhhhhppppppphhhhhhhh	SeqCat02|116$1	170	28	49	15.0361
ggggggpppppppggggggg:	SeqCat03|8$1	170	9	30	17.0437
ggggggpppppppggggggg:	SeqCat02|190$1	170	1	22	17.0437
hhhhhhppppppphhhhhhhh	SeqCat03|47$1	170	4	25	15.0361
eeeerrrrrrrrreeeeeeee	SeqCat01|54$1	185	133	154	9.0182
hhhhhhppppppphhhhhhhh	SeqCat02|82$1	170	15	36	15.0361
ggggggpppppppgggggggh	SeqCat02|96$1	170	31	52	17.1435
!eeeeepppppppeeeeeeee	SeqCat01|5$1	185	126	147	13.5151
ggggggpppppppggggggg:	SeqCat03|162$1	170	7	28	17.0437
gg[cccpppppppccc]gggg	SeqCat01|94$1	185	149	170	15.8337
hhhhhhppppppphhhhhhhh	SeqCat03|178$1	170	6	27	15.0361
dd[cccpppppppcccdddd:	SeqCat01|31$1	185	152	173	13.2083
hhhhhhppppppphhhhhhhh	SeqCat03|139$1	170	19	40	15.0361
ffffffpppppppffffffgg	SeqCat03|132$1	170	24	45	14.1621
ggggggpppppppggggggg:	SeqCat02|171$1	170	5	26	17.0437
ggggggpppppppggggggg:	SeqCat02|198$1	170	40	61	17.0437
ggggggpppppppggggggg:	SeqCat03|122$1	170	2	23	17.0437
cc!!bbpppppppbb22ccc:	SeqCat03|125$1	170	78	99	12.6396
ggggggpppppppggggggg]	SeqCat02|177$1	170	19	40	17.5804
ggggggpppppppggggggg:	SeqCat03|34$1	170	43	64	17.0437
ggggggpppppppggggggg3	SeqCat02|57$1	170	44	65	17.5290
hhhhhhppppppphhhhhhhh	SeqCat02|17$1	170	23	44	15.0361
ggggggpppppppggggggg4	SeqCat03|1$1	170	9	30	17.4242
ggggggpppppppggggggg]	SeqCat03|148$1	170	15	36	17.5804
ggggggpppppppgggggggc	SeqCat02|107$1	170	2	23	17.4166
ggggggpppppppggggggg:	SeqCat02|106$1	170	12	33	17.0437
!!ddddrrrrrrrrrdddddd	SeqCat01|92$1	185	145	166	8.2609
ggggggpppppppggggggg]	SeqCat02|15$1	170	12	33	17.5804
ggggggpppppppgggggggb	SeqCat02|199$1	170	31	52	17.3408
ggggggpppppppggggggg]	SeqCat02|23$1	170	38	59	17.5804
ggggggpppppppggggggg2	SeqCat03|149$1	170	23	44	17.3925
!eeeeerrrrrrrrreeeee3	SeqCat01|12$1	185	40	61	9.4670
ggggggpppppppgggggggf	SeqCat03|113$1	170	43	64	17.1761
ggggggpppppppgggggggd	SeqCat03|78$1	170	25	46	17.2599
ggggggpppppppggggggg:	SeqCat02|197$1	170	40	61	17.0437
ggggggpppppppggggggg:	SeqCat03|103$1	170	42	63	17.0437
ggggggqqqqqqqqggggggg	SeqCat03|129$1	170	29	50	7.7701
f[bbrrrrrrrrrbb]fffff	SeqCat01|90$1	185	163	184	8.4472
ggggggpppppppggggggge	SeqCat02|170$1	170	44	65	17.2643
eee[bbpppppppbb]eeeee	SeqCat01|49$1	185	3	24	12.7964
ggggggpppppppggggggg2	SeqCat02|183$1	170	49	70	17.3925
ggggggpppppppggggggg:	SeqCat02|117$1	170	15	36	17.0437
c!!cccpppppppccc22ccc	SeqCat01|88$1	185	22	43	14.3048
ggggggpppppppggggggg6	SeqCat02|30$1	170	46	67	17.1496
ggggggpppppppggggggg2	SeqCat03|73$1	170	11	32	17.3925
ggggggpppppppggggggg3	SeqCat03|134$1	170	39	60	17.5290
b[cccrrrrrrrrrccc]bb:	SeqCat01|72$1	185	1	22	8.9006
gggggggooooooggggggg2	SeqCat01|62$1	185	111	132	7.5974
ggggggpppppppggggggg2	SeqCat03|0$1	170	21	42	17.3925
ggggggpppppppgggggggf	SeqCat02|144$1	170	14	35	17.1761
ggggggpppppppggggggg:	SeqCat01|172$1	185	141	162	17.0437
ggggggpppppppggggggge	SeqCat03|187$1	170	9	30	17.2643
ggggggpppppppgggggggc	SeqCat03|188$1	170	44	65	17.4166
hhhhhhppppppphhhhhhhh	SeqCat03|87$1	170	40	61	15.0361
ffffffpppppppffffff]c	SeqCat03|56$1	170	10	31	14.0203
eeeeeepppppppeeeee]ee	SeqCat01|166$1	185	46	67	13.4349
ggggggpppppppggggggg]	SeqCat02|84$1	170	34	55	17.5804
ddddrrrrrrrrrdddd333b	SeqCat01|39$1	185	58	79	8.1128

#otherMatches

#Seq PSSM
UGGAAGAGUAAGCCUUCCAUU	SeqCat02|111$1	su1	48	69	17.1419
UGGAAGAGUAAGCCUUCCAUU	SeqCat03|26$1	su1	23	44	17.0437
UGGAAGAGUAAGCCUUCCAUU	SeqCat03|20$1	su1	3	24	17.0437
UGGAAGAGUAAGCCUUCCAUU	SeqCat03|85$1	su1	38	59	17.0437
GACUGAGGCGCAGUCGGUCAU	SeqCat02|119$1	su1	84	105	14.0203
UGGAAGAGUAAGCCUUCCAUC	SeqCat03|27$1	su1	43	64	17.0437
UGGAAGAGUAAGCCUUCCAUG	SeqCat03|81$1	su1	16	37	17.3408
UGGAAGAGUAAGCCUUCCAUG	SeqCat02|151$1	su1	41	62	17.0437
UACGUCAUUCGGAUUGACGUC	SeqCat01|128$1	su1	164	185	10.2473
UGGAAGAGUAAGCCUUCCAUA	SeqCat03|176$1	su1	34	55	17.0437
UGGAAGAGUAAGCCUUCCAUC	SeqCat02|109$1	su1	19	40	15.0361
UGGAAGAGUAAGCCUUCCAUA	SeqCat03|46$1	su1	32	53	15.0361
UGGAAGAGUAAGCCUUCCAUC	SeqCat03|191$1	su1	5	26	12.3538
UGGAAGAGUAAGCCUUCCAUG	SeqCat03|167$1	su1	15	36	15.0361
UGGAAGAGUAAGCCUUCCAUA	SeqCat02|164$1	su1	40	61	17.0437
UGGAAGAGUAAGCCUUCCAUA	SeqCat03|108$1	su1	22	43	17.0437
GGAAUUCAUAAUCAGUUCAGC	SeqCat01|44$1	su1	57	78	13.5610
UGGAAGAGUAAGCCUUCCAUU	SeqCat03|50$1	su1	43	64	17.0437
UGGAAGAGUAAGCCUUCCAUG	SeqCat02|91$1	su1	16	37	17.2643
UGGAAGAGUAAGCCUUCCAUC	SeqCat03|93$1	su1	5	26	17.0437
UGGAAGAGUAAGCCUUCCAUU	SeqCat02|142$1	su1	15	36	17.1496
UGGAAGAGUAAGCCUUCCAUU	SeqCat03|6$1	su1	25	46	17.2599
UGGAAGAGUAAGCCUUCCAUG	SeqCat03|137$1	su1	48	69	17.2599
CUUCUGAUUGAAACAGUACCG	SeqCat01|153$1	su1	160	181	13.3142
UGGAAGAGUAAGCCUUCCAUG	SeqCat02|97$1	su1	47	68	15.0361
CUAUGGACUAAACCCAAGAAU	SeqCat01|60$1	su1	109	130	12.7851
GACGCAUUACGAGAGCGUCAA	SeqCat01|75$1	su1	116	137	9.2030
GGACUCAAUGAAGGAAGCCUG	SeqCat01|98$1	su1	85	106	11.9480
AUGUCUAAAGUCGAGACGGUU	SeqCat03|86$1	su1	63	84	12.0496
UGGAAGAGUAAGCCUUCCAUG	SeqCat02|126$1	su1	48	69	17.1761
UGGAAGAGUAAGCCUUCCAUU	SeqCat03|120$1	su1	34	55	17.0437
UGGAAGAGUAAGCCUUCCAUC	SeqCat03|7$1	su1	13	34	15.6472
UGGAAGAGUAAGCCUUCCAUA	SeqCat02|185$1	su1	49	70	17.5804
CGCGUCAAAAUAGGACCUAAU	SeqCat02|168$1	su1	118	139	14.2058
UGGAAGAGUAAGCCUUCCAUC	SeqCat03|184$1	su1	42	63	17.0437
UGGAAGAGUAAGCCUUCCAUU	SeqCat03|136$1	su1	28	49	17.3408
UGGAAGAGUAAGCCUUCCAUA	SeqCat02|41$1	su1	23	44	17.5804
UGGAAGAGUAAGCCUUCCAUA	SeqCat03|145$1	su1	8	29	12.0861
UGGAAGAGUAAGCCUUCCAUG	SeqCat02|182$1	su1	31	52	15.0361
UGGAAGAGUAAGCCUUCCAUG	SeqCat03|53$1	su1	46	67	17.4166
UGGAAGAGUAAGCCUUCCAUC	SeqCat02|116$1	su1	28	49	15.0361
UGGAAGAGUAAGCCUUCCAUC	SeqCat03|8$1	su1	9	30	17.0437
UGGAAGAGUAAGCCUUCCAUC	SeqCat02|190$1	su1	1	22	17.0437
UGGAAGAGUAAGCCUUCCAUC	SeqCat03|47$1	su1	4	25	15.0361
CGCUCUCGGGCUCAGCGGGUU	SeqCat01|54$1	su1	133	154	9.0182
UGGAAGAGUAAGCCUUCCAUA	SeqCat02|82$1	su1	15	36	15.0361
UGGAAGAGUAAGCCUUCCAUG	SeqCat02|96$1	su1	31	52	17.1435
UAAGAUCAGUCUUGUCUUUGA	SeqCat01|5$1	su1	126	147	13.5151
UGGAAGAGUAAGCCUUCCAUC	SeqCat03|162$1	su1	7	28	17.0437
CCUUGGAUUGACCCCAUGGAC	SeqCat01|94$1	su1	149	170	15.8337
UGGAAGAGUAAGCCUUCCAUU	SeqCat03|178$1	su1	6	27	15.0361
CGAUUGGACCAGGCAACGCGA	SeqCat01|31$1	su1	152	173	13.2083
UGGAAGAGUAAGCCUUCCAUC	SeqCat03|139$1	su1	19	40	15.0361
UGGAAGAGUAAGCCUUCCAUU	SeqCat03|132$1	su1	24	45	14.1621
UGGAAGAGUAAGCCUUCCAUA	SeqCat02|171$1	su1	5	26	17.0437
UGGAAGAGUAAGCCUUCCAUG	SeqCat02|198$1	su1	40	61	17.0437
UGGAAGAGUAAGCCUUCCAUA	SeqCat03|122$1	su1	2	23	17.0437
CUCGCUGGUCCUAAGAUAGUU	SeqCat03|125$1	su1	78	99	12.6396
UGGAAGAGUAAGCCUUCCAUG	SeqCat02|177$1	su1	19	40	17.5804
UGGAAGAGUAAGCCUUCCAUA	SeqCat03|34$1	su1	43	64	17.0437
UGGAAGAGUAAGCCUUCCAUC	SeqCat02|57$1	su1	44	65	17.5290
UGGAAGAGUAAGCCUUCCAUC	SeqCat02|17$1	su1	23	44	15.0361
UGGAAGAGUAAGCCUUCCAUU	SeqCat03|1$1	su1	9	30	17.4242
UGGAAGAGUAAGCCUUCCAUC	SeqCat03|148$1	su1	15	36	17.5804
UGGAAGAGUAAGCCUUCCAUG	SeqCat02|107$1	su1	2	23	17.4166
UGGAAGAGUAAGCCUUCCAUC	SeqCat02|106$1	su1	12	33	17.0437
UUUACGCCCAUCUCACGUAUG	SeqCat01|92$1	su1	145	166	8.2609
UGGAAGAGUAAGCCUUCCAUC	SeqCat02|15$1	su1	12	33	17.5804
UGGAAGAGUAAGCCUUCCAUU	SeqCat02|199$1	su1	31	52	17.3408
UGGAAGAGUAAGCCUUCCAUU	SeqCat02|23$1	su1	38	59	17.5804
UGGAAGAGUAAGCCUUCCAUG	SeqCat03|149$1	su1	23	44	17.3925
UGGCGUCAUUCCUUUACGCUU	SeqCat01|12$1	su1	40	61	9.4670
UGGAAGAGUAAGCCUUCCAUA	SeqCat03|113$1	su1	43	64	17.1761
UGGAAGAGUAAGCCUUCCAUG	SeqCat03|78$1	su1	25	46	17.2599
UGGAAGAGUAAGCCUUCCAUU	SeqCat02|197$1	su1	40	61	17.0437
UGGAAGAGUAAGCCUUCCAUC	SeqCat03|103$1	su1	42	63	17.0437
GAGUAAGCCUUCCAUUACUUU	SeqCat03|129$1	su1	29	50	7.7701
UAUCCCUGACCACGAAGCGGC	SeqCat01|90$1	su1	163	184	8.4472
UGGAAGAGUAAGCCUUCCAUG	SeqCat02|170$1	su1	44	65	17.2643
UACCCGGAAAGCGCGCGUAUA	SeqCat01|49$1	su1	3	24	12.7964
UGGAAGAGUAAGCCUUCCAUC	SeqCat02|183$1	su1	49	70	17.3925
UGGAAGAGUAAGCCUUCCAUA	SeqCat02|117$1	su1	15	36	17.0437
UCGGGAGCUUUAGUCCAAACC	SeqCat01|88$1	su1	22	43	14.3048
UGGAAGAGUAAGCCUUCCAUA	SeqCat02|30$1	su1	46	67	17.1496
UGGAAGAGUAAGCCUUCCAUC	SeqCat03|73$1	su1	11	32	17.3925
UGGAAGAGUAAGCCUUCCAUA	SeqCat03|134$1	su1	39	60	17.5290
AAGUAUUAUCAAAUUGCAUCU	SeqCat01|72$1	su1	1	22	8.9006
ACUUUGCCGUUGAGCAAGGUA	SeqCat01|62$1	su1	111	132	7.5974
UGGAAGAGUAAGCCUUCCAUC	SeqCat03|0$1	su1	21	42	17.3925
UGGAAGAGUAAGCCUUCCAUU	SeqCat02|144$1	su1	14	35	17.1761
CUUAUUGACUGUAAAUAAGUA	SeqCat01|172$1	su1	141	162	17.0437
UGGAAGAGUAAGCCUUCCAUC	SeqCat03|187$1	su1	9	30	17.2643
UGGAAGAGUAAGCCUUCCAUG	SeqCat03|188$1	su1	44	65	17.4166
UGGAAGAGUAAGCCUUCCAUG	SeqCat03|87$1	su1	40	61	15.0361
UGGAAGAGUAAGCCUUCCAUU	SeqCat03|56$1	su1	10	31	14.0203
GGUCUGUACAACUCGGGCGCA	SeqCat01|166$1	su1	46	67	13.4349
UGGAAGAGUAAGCCUUCCAUU	SeqCat02|84$1	su1	34	55	17.5804
CUGCGUAUCUGGAGCAGAAAG	SeqCat01|39$1	su1	58	79	8.1128

#PSSM
g : 0.61	h : 0.12	f : 0.06	d : 0.05	! : 0.04	e : 0.03	" : 0.02	b : 0.02	c : 0.02	= : 0.01	E : 0.01	
g : 0.61	h : 0.12	e : 0.07	f : 0.06	d : 0.04	! : 0.02	[ : 0.02	" : 0.01	b : 0.01	= : 0.01	a : 0.01	c : 0.01	
g : 0.60	h : 0.12	e : 0.07	f : 0.06	[ : 0.04	! : 0.03	d : 0.03	" : 0.01	= : 0.01	b : 0.01	c : 0.01	
g : 0.60	h : 0.12	c : 0.07	f : 0.06	e : 0.06	d : 0.03	! : 0.02	= : 0.01	b : 0.01	[ : 0.01	
g : 0.60	h : 0.12	c : 0.07	f : 0.06	e : 0.05	b : 0.03	r : 0.03	d : 0.02	= : 0.01	
g : 0.60	h : 0.12	c : 0.06	f : 0.05	e : 0.05	r : 0.05	b : 0.03	d : 0.02	= : 0.01	
p : 0.89	r : 0.07	f : 0.01	q : 0.01	g : 0.01	
p : 0.90	r : 0.07	q : 0.01	o : 0.01	
p : 0.90	r : 0.07	q : 0.01	o : 0.01	
p : 0.90	r : 0.07	q : 0.01	o : 0.01	
p : 0.90	r : 0.07	q : 0.01	o : 0.01	
p : 0.90	r : 0.07	q : 0.01	o : 0.01	
p : 0.90	r : 0.07	q : 0.01	o : 0.01	
g : 0.59	h : 0.12	c : 0.06	e : 0.05	f : 0.04	r : 0.04	b : 0.04	d : 0.02	p : 0.01	= : 0.01	q : 0.01	
g : 0.60	h : 0.12	c : 0.07	f : 0.06	e : 0.05	b : 0.04	d : 0.02	r : 0.02	= : 0.01	
g : 0.60	h : 0.12	c : 0.07	f : 0.06	e : 0.06	d : 0.03	2 : 0.02	] : 0.02	= : 0.01	
g : 0.60	h : 0.12	f : 0.07	e : 0.07	2 : 0.04	d : 0.04	b : 0.01	= : 0.01	a : 0.01	] : 0.01	c : 0.01	
g : 0.61	h : 0.12	f : 0.08	e : 0.07	d : 0.03	2 : 0.02	] : 0.02	b : 0.01	= : 0.01	c : 0.01	3 : 0.01	
g : 0.61	h : 0.12	f : 0.08	d : 0.05	e : 0.04	3 : 0.02	c : 0.02	a : 0.01	2 : 0.01	= : 0.01	b : 0.01	] : 0.01	
g : 0.62	h : 0.12	d : 0.06	e : 0.05	f : 0.04	] : 0.02	3 : 0.02	c : 0.02	B : 0.01	2 : 0.01	= : 0.01	b : 0.01	
: : 0.29	h : 0.13	e : 0.08	d : 0.08	] : 0.07	c : 0.06	f : 0.05	2 : 0.05	b : 0.04	3 : 0.04	g : 0.03	6 : 0.02	7 : 0.01	B : 0.01	= : 0.01	4 : 0.01	

#score	1505.4714513874064
#seq	98
#width	21
#escape	false
#onStep	15000
#minSteps	10000
#maxSteps	15000.0