eeeee[bboooooobb]eeeee	chr1:149784775-149784934_bg$1	159	127	149	9.2086
###eeeee[bblllbb]eeeee	chr1:149821795-149821916_bg$1	121	77	99	4.7043
fffff!!cccmmmmccc]ffff	chr1:149857682-149857891_bg$1	209	40	62	6.4549
=========nnnnn========	chr1:149857897-149858240_bg$1	343	285	307	7.8344
eee!!cccooooooccceeeee	chr1:149858474-149858722_bg$1	248	3	25	10.6275
=============!!aafffff	chr1:149858798-149859350_bg$1	552	414	436	5.1070
ff"""ddddmmmmddddfffff	chr1:228612500-228612631_bg$1	131	39	61	4.9895
bb"""cccannnnna]ccc333	chr1:228612688-228612823_bg$1	135	102	124	7.6032
hhhhhhhhoooooohhhhhhhh	chr1:228645015-228645187_bg$1	172	115	137	7.9306
=========nnnnn========	chr1:228645445-228645578_bg$1	133	25	47	7.8344
$bb[ddddoooooodddd22bb	chr1:228645808-228645944_bg$1	136	33	55	7.6309
ccc"""eeeeellleeeee]cc	chr1:228646030-228646306_bg$1	276	188	210	5.8363
::dddd[aooooooa]dddd:e	chr1:228651813-228651945_bg$1	132	43	65	6.2195
dddd[cccnnnnnccc22dddd	chr12:14923605-14924052_bg$1	447	137	159	6.5334
[bb[ccccccmmmmccc]ccc]	chr6:25727491-25727622_bg$1	131	41	63	7.0437
cc[a[cccrrrrrrrrrccc]a	chr6:26017210-26017638_bg$1	428	297	319	6.9583
eee"""bboooooobb]eeeee	chr6:26020948-26021229_bg$1	281	88	110	9.5214
d[bb!!bboooooobb333bb2	chr6:26022092-26022328_bg$1	236	47	69	9.5666
!dddd!!ccclllccc22dddd	chr6:26027073-26027415_bg$1	342	81	103	5.9781
fff!!cccooooooccc333ff	chr6:26031769-26032338_bg$1	569	126	148	11.2680
[ccc[cccmmmmccccccbb]f	chr6:26033269-26033611_bg$1	342	242	264	6.3970
ffff"""ccclllccc333fff	chr6:26033681-26033817_bg$1	136	91	113	6.8090
hhhhh!!aooooooa22hhhhh	chr6:26046022-26046145_bg$1	123	61	83	8.2567
eeee!!bboooooobb]eeeee	chr6:26055917-26056705_bg$1	788	174	196	9.5743
ggg[bbbboooooobb]bbggg	chr6:26104115-26104568_bg$1	453	347	369	8.9881
dddd[cccooooooccc]dddd	chr6:26123643-26124198_bg$1	555	143	165	10.7680
eee[ddddooooooddddeeee	chr6:26124441-26124971_bg$1	530	17	39	8.6327
cccbb[cccmmmmccc22bb]c	chr6:26131722-26131858_bg$1	136	16	38	5.8077
ee[eeeeeooooooeeeee]ee	chr6:26139061-26139197_bg$1	136	38	60	8.9994
[a"""cccooooooccc22a]c	chr6:26156508-26157392_bg$1	884	830	852	11.1824
eccc[ddddmmmmdddd4444c	chr6:26158320-26158483_bg$1	163	65	87	5.5967
!dddd[bboooooobb]ddddd	chr6:26158627-26158885_bg$1	258	227	249	9.0016
!!eeeeerrrrrrrrreeeeee	chr6:26184323-26184441_bg$1	118	54	76	5.3891
#ccc[cccmmmmcccccca]gg	chr6:26197017-26197271_bg$1	254	81	103	6.9442
[bb!!eeeeemmmmeeeee22b	chr6:26197436-26197573_bg$1	137	63	85	4.6110
ccc!!cccqqqqqqqqcccccc	chr6:26198957-26199526_bg$1	569	360	382	5.2981
[ddddcccooooooccc]dddd	chr6:26199759-26200266_bg$1	507	295	317	10.4030
========oooooo========	chr6:26204807-26205302_bg$1	495	149	171	10.8606
hhhhhhhhoooooohhhhhhhh	chr6:26216390-26216872_bg$1	482	95	117	7.9306
cc"""ddddmmmmdddd]ccc4	chr6:26217131-26217716_bg$1	585	260	282	6.0688
!eeeee[aooooooa]eeeee]	chr6:26250319-26250865_bg$1	546	399	421	9.3786
ggggg[cccnnnnncccggggg	chr6:26251828-26252353_bg$1	525	19	41	8.1396
gggggggooooooggggggg::	chr6:26271095-26271662_bg$1	567	0	22	7.2397
ee[eeeeeooooooeeeee333	chr6:26273328-26273672_bg$1	344	248	270	9.3314
c!!eeeeeooooooeeeee22c	chr6:26285302-26285805_bg$1	503	27	49	9.4439
e####ddddnnnnnddddeeee	chr6:27093862-27093988_bg$1	126	97	119	5.7072
dd"""ccc[ammmmacccdddd	chr6:27100046-27100591_bg$1	545	295	317	6.8780
gggg[acccnnnnnccc]a]gg	chr6:27100800-27101364_bg$1	564	130	152	8.5893
c!!eeeeeooooooeeeeeccc	chr6:27107023-27107502_bg$1	479	187	209	9.6525
::ffffffooooooffffff::	chr6:27108031-27108148_bg$1	117	17	39	5.5362
iiiii[cccnnnnnccciiiii	chr6:27110722-27110853_bg$1	131	63	85	8.0416
Gbb[ddddoooooodddd22bb	chr6:27114052-27114267_bg$1	215	36	58	7.3388
fff"""bbrrrrrrrrrbb333	chr6:27114283-27114419_bg$1	136	50	72	5.6490
ggggggg]iiiiiiiii333ii	chr6:27114846-27114982_bg$1	136	96	118	4.9112
$$$$$cccooooooccc22ddd	chr6:27114988-27115367_bg$1	379	321	343	9.6954
[gggggggooooooggggggg]	chr6:27775206-27775467_bg$1	261	154	176	10.5174
ccc####ccclllccc4444cc	chr6:27776250-27776479_bg$1	229	171	193	7.1907
"""eeeeeooooooeeeee333	chr6:27777791-27778364_bg$1	573	398	420	9.4425
!!ffffffooooooffffff]f	chr6:27782061-27782256_bg$1	195	108	130	9.2983
bccc[ddddnnnnnddddccc:	chr6:27782943-27783074_bg$1	131	29	51	5.3749
a[ffffffooooooffffff]a	chr6:27783114-27783315_bg$1	201	133	155	9.2284
[bb"""cccnnnnncccbb]dd	chr6:27792146-27792305_bg$1	159	83	105	6.7656
c[ccc!!bbmmmmbb333cccc	chr6:27798901-27799061_bg$1	160	35	57	6.1647
====[cccooooooccc99999	chr6:27805607-27805995_bg$1	388	97	119	7.9601
f[ccc[bboooooobb22cccf	chr6:27806591-27806934_bg$1	343	64	86	9.9542
dd!!ddddoooooodddd22dd	chr6:27833133-27833343_bg$1	210	32	54	8.7528
::ccccccooooooccc]ccc:	chr6:27833349-27833624_bg$1	275	173	195	8.5435
d[gggggggmmmmgggggggdd	chr6:27834519-27835059_bg$1	540	515	537	5.9606
c[dddd[bbmmmmbbdddd]cc	chr6:27835061-27835214_bg$1	153	76	98	4.8112
gggggggaooooooa]gggggg	chr6:27839574-27839704_bg$1	130	85	107	10.4742
!eeeeeddddllldddd333ee	chr6:27840878-27840997_bg$1	119	77	99	5.4845
g"""ccccccmmmmccc]cccg	chr6:27860427-27860895_bg$1	468	33	55	7.4882
d"""eeeeennnnneeeeeddd	chr6:26216390-26216872$1	482	287	309	5.6537
ccca!!bbnnnnnbb22a]ccc	chr6:26197017-26197271$1	254	54	76	6.1484
C:::::bbnnnnnbbbb[ccc)	chr1:149821795-149821916$1	121	14	36	6.2750
iiiiiiiiooooooiiiiiiii	chr6:27775206-27775467$1	261	17	39	10.4472
cccffffffmmmmffffff333	chr6:26273328-26273672$1	344	204	226	5.3316
feeeee[cccmmmmccc]eeee	chr6:27860427-27860895$1	468	256	278	6.2705
c####ddddmmmmdddd4444c	chr6:27792146-27792305$1	159	122	144	5.5184
##ddddbboooooobb22dddd	chr6:26199759-26200266$1	507	156	178	8.7777
[a[ccccccnnnnnccc333cc	chr1:228612688-228612823$1	135	57	79	8.3035
[dddd[bboooooobbdddd]g	chr1:228645445-228645578$1	133	15	37	9.2125
"ccc[cccooooooccc22ccc	chr1:228612500-228612631$1	131	95	117	11.3249
h!!a!!bboooooobb22a22h	chr6:27782943-27783074$1	131	15	37	10.0758
[ccc[bb[ammmma]bb]ccc]	chr6:26271095-26271662$1	567	114	136	6.7879
dddd[cccooooooccc]dddd	chr6:26022092-26022328$1	236	210	232	10.7680
d!!eeeeeooooooeeeee22d	chr6:26198957-26199526$1	569	236	258	9.1645
b[ffffffooooooffffff22	chr6:26055917-26056705$1	788	9	31	8.8465
ccc[ddddoooooodddd]ccc	chr6:27782061-27782256$1	195	88	110	9.4291
ccc!!eeeeemmmmeeeee]cc	chr6:26198147-26198284$1	137	56	78	5.8230
iiiiiibboooooobbcccbbn	chr6:26158320-26158483$1	163	101	123	9.0782
e[eeeeerrrrrrrrreeeee]	chr6:26139061-26139197$1	136	79	101	5.3623
cccc[cccooooooccc]ccc]	chr1:149857897-149858240$1	343	266	288	11.8932
gggg[cccooooooccc]gggg	chr6:26104115-26104568$1	453	49	71	11.8920
ddd[ddddoooooodddddddd	chr1:149857682-149857891$1	209	89	111	8.5442
fffff[bboooooobb]fffff	chr6:26027073-26027415$1	342	213	235	9.2111
ddd!!cccooooooccc22ddd	chr6:27834519-27835059$1	540	190	212	10.6467
DDccc[bboooooobb]ccc:d	chr6:27100046-27100591$1	545	304	326	7.2094
dddd"""aooooooa333dddd	chr1:228646030-228646306$1	276	224	246	9.8317
GGbb[cccooooooccc]bb::	chr6:27806591-27806934$1	343	185	207	7.7944
iiiiiiiiimmmmiiiiiiiii	chr6:27798901-27799061$1	160	51	73	6.6056
[dddd[bboooooobb]dddd]	chr6:27100800-27101364$1	564	351	373	9.1511
!ccc!!bboooooobb22ccc2	chr6:26251828-26252353$1	525	38	60	10.2617
cc"""cccooooooccc333cc	chr12:14923605-14924052$1	447	332	354	11.8057
eeee[cccooooooccc]eeee	chr6:27114283-27114419$1	136	88	110	10.9271
dd[a!!cccnnnnnccc22a]d	chr6:27114052-27114267$1	215	6	28	7.8576
b[ffffffooooooffffff22	chr6:26033269-26033611$1	342	309	331	8.8465
!!ffffffooooooffffffcc	chr1:149858474-149858722$1	248	45	67	9.4529
==========mmmm========	chr6:27839574-27839704$1	130	49	71	7.3358
gggg[a[aooooooa]aggggg	chr6:26217131-26217716$1	585	470	492	10.6769
bbaddddcccmmmmccc]dddd	chr1:149400080-149400191$1	111	54	76	5.6826
ccc[ccccccmmmmccc]ccc]	chr1:120906264-120906400$1	136	76	98	7.6359
ggg####cccmmmmcccggggg	chr1:149784775-149784934$1	159	57	79	7.1659
ccc!!cccoooooocccccc:f	chr6:26156508-26157392$1	884	734	756	10.5075
$gggggggooooooggggggg3	chr6:26197436-26197573$1	137	75	97	10.1820
cc[a!!cccnnnnnccc]a]cc	chr6:26158627-26158885$1	258	81	103	8.8275
&&&eeeeeooooooeeeee444	chr6:26017210-26017638$1	428	289	311	7.1563
ggg"""bboooooobbgggggg	chr6:27777791-27778364$1	573	289	311	10.5835
gggg[cccooooooccc]gggg	chr6:26250319-26250865$1	546	418	440	11.8920
hh[eeeeeooooooeeeee555	chr6:26046022-26046145$1	123	16	38	6.5955
h!!a!!bboooooobb22a22h	chr6:26158489-26158625$1	136	45	67	10.0758
c!!ccc[aooooooa]cccccc	chr6:27833349-27833624$1	275	42	64	10.6896
[gggggggooooooggggggg]	chr6:27114988-27115367$1	379	220	242	10.5174
:gggggggooooooggggggg:	chr6:27107023-27107502$1	479	431	453	8.5804
####eeeeennnnneeeee444	chr6:26204807-26205302$1	495	341	363	5.7308
c!!eeeeeooooooeeeee22c	chr6:27805607-27805995$1	388	90	112	9.4439
f"""eeeeennnnneeeeefff	chr6:27775564-27775737$1	173	70	92	5.6796
c[bb[cccoooooocccbb]cc	chr1:149858798-149859350$1	552	181	203	10.5387
ffccc[bboooooobbccc]ff	chr6:26124441-26124971$1	530	177	199	9.9272
eeebb[bboooooobb]bb22e	chr6:26031769-26032338$1	569	329	351	8.3135
ccc"""ddddllldddd333cc	chr6:26123643-26124198$1	555	366	388	6.5653
!!ffffffrrrrrrrrrfffff	chr6:27776250-27776479$1	229	35	57	5.3569
eeee[cccooooooccceeeee	chr6:26285302-26285805$1	503	14	36	10.5045
ccceeeeemmmmeeeee333cc	chr6:27861256-27861716$1	460	314	336	5.3999

#otherMatches

#Seq PSSM
GAAUUCAUGAUGCCCAUGGCCU	chr6:26216390-26216872$1	su1	287	309	5.6537
GCCCUCUCCCCACGAAUGCGGC	chr6:26197017-26197271$1	su1	54	76	6.1484
CAAAAACAUCAACUGGGACUGA	chr1:149821795-149821916$1	su1	14	36	6.2750
GGAAGAGCGAACCAGCUCUUCU	chr6:27775206-27775467$1	su1	17	39	10.4472
CGCGGUGUCGGAGGGCACCAAG	chr6:26273328-26273672$1	su1	204	226	5.3316
GCGGGAUGAUGCGGGUCUUUUU	chr6:27860427-27860895$1	su1	256	278	6.2705
UGAAGAGUGGUAACACUGAGGA	chr6:27792146-27792305$1	su1	122	144	5.5184
AAGGUGCUAAAGCAGGUCCACC	chr6:26199759-26200266$1	su1	156	178	8.7777
UGCAGCGCCAUCACGGCCGAGC	chr1:228612688-228612823$1	su1	57	79	8.3035
ACGAGCGCGACUUAGCCUUGGC	chr1:228645445-228645578$1	su1	15	37	9.2125
CAGGUGGCGAGAUAGCCCUCCU	chr1:228612500-228612631$1	su1	95	117	11.3249
GAAGCAGGUCCACCCCGACACC	chr6:27782943-27783074$1	su1	15	37	10.0758
UCUCCCCACGAAUGCGGCGAGC	chr6:26271095-26271662$1	su1	114	136	6.7879
CAUUAAGUCAAGAAGCUCAAUG	chr6:26022092-26022328$1	su1	210	232	10.7680
UCCUCGUCGUUGCGGAUGGCCA	chr6:26198957-26199526$1	su1	236	258	9.1645
CAGAUAGUAAAGAAAUUAUCCA	chr6:26055917-26056705$1	su1	9	31	8.8465
GCUCUCAGUUUUCUUUGGCAGC	chr6:27782061-27782256$1	su1	88	110	9.4291
CCUAAGGGCCGUCUGGCUCCAG	chr6:26198147-26198284$1	su1	56	78	5.8230
CCUGCCCCAAAGAAGGGCUCCA	chr6:26158320-26158483$1	su1	101	123	9.0782
UGGUGCUCUAAAGAACAGCACa	chr6:26139061-26139197$1	su1	79	101	5.3623
CGGAGCGGAUUUUGCCGGUUCA	chr1:149857897-149858240$1	su1	266	288	11.8932
CGAUAGGAAUCAUGUCUGGUCG	chr6:26104115-26104568$1	su1	49	71	11.8920
GCGACUCGAGCGAGCGAGCGCC	chr1:149857682-149857891$1	su1	89	111	8.5442
UUCUCCAGAAACACCUUGAGAA	chr6:26027073-26027415$1	su1	213	235	9.2111
CCUUCGGCUUAACUGCCUUGGG	chr6:27834519-27835059$1	su1	190	212	10.6467
AUGGCCUUGGACGAAAUGCCGG	chr6:27100046-27100591$1	su1	304	326	7.2094
ACCCACACGAUCAAGAAAGGGU	chr1:228646030-228646306$1	su1	224	246	9.8317
CGGAGGGCACCAAGGCCGUCAC	chr6:27806591-27806934$1	su1	185	207	7.7944
GGGGGCCCUAAAAAGGGCCUUU	chr6:27798901-27799061$1	su1	51	73	6.6056
UCACCAUCGCACAGGGCGGUGU	chr6:27100800-27101364$1	su1	351	373	9.1511
UAUCUUGUUGCAAUGCCUGAUC	chr6:26251828-26252353$1	su1	38	60	10.2617
GAUAUUGUCCCGCAGCACCUUC	chr12:14923605-14924052$1	su1	332	354	11.8057
UCGUUGACGAAGGAGUUCAUGA	chr6:27114283-27114419$1	su1	88	110	10.9271
UCAUGAUAAUCCCUUUAAAAAG	chr6:27114052-27114267$1	su1	6	28	7.8576
UCGCGGGCCGCAUUGCCCGCCA	chr6:26033269-26033611$1	su1	309	331	8.8465
CAGUCAUGUCUGGUCGUGGCAA	chr1:149858474-149858722$1	su1	45	67	9.4529
GAGGGGCUCUGAAAAGAGCCUU	chr6:27839574-27839704$1	su1	49	71	7.3358
UACUAGUCAAAUCCGUCAGUGA	chr6:26217131-26217716$1	su1	470	492	10.6769
GGCCCGCUCCCCGCGGAUGCGG	chr1:149400080-149400191$1	su1	54	76	5.6826
GCCUGCUGCUGCCCGGCGAGCU	chr1:120906264-120906400$1	su1	76	98	7.6359
CGCUCCCCGCGGAUGCGGCGGG	chr1:149784775-149784934$1	su1	57	79	7.1659
GCCAAGCCAAAGAAGGCGGCAG	chr6:26156508-26157392$1	su1	734	756	10.5075
AACGAAAGUCUAGCCUUUCGUA	chr6:26197436-26197573$1	su1	75	97	10.1820
GGGGGAGCUGGCCAAGCACGCC	chr6:26158627-26158885$1	su1	81	103	8.8275
UUCGGAGUCUUGACGCUCUUUU	chr6:26017210-26017638$1	su1	289	311	7.1563
AGGACUUCAAGACCGACUUGCG	chr6:27777791-27778364$1	su1	289	311	10.5835
GGCUGGCGCGCUUUUGCGAGCC	chr6:26250319-26250865$1	su1	418	440	11.8920
AAAGGGCAUAAGUCUGCCCGUU	chr6:26046022-26046145$1	su1	16	38	6.5955
GAAGCAGGUCCAUCCCGACACC	chr6:26158489-26158625$1	su1	45	67	10.0758
CCAUCCGCAACGACGAGGAGCU	chr6:27833349-27833624$1	su1	42	64	10.6896
UCACCAUCGCGCAGGGUGGUGU	chr6:27114988-27115367$1	su1	220	242	10.5174
CUUUCAACAAAAGAGUUGAAAU	chr6:27107023-27107502$1	su1	431	453	8.5804
AGACAGGGACGCACUCUUUACG	chr6:26204807-26205302$1	su1	341	363	5.7308
UAUGAGUAAUGAACUGCUCCAG	chr6:27805607-27805995$1	su1	90	112	9.4439
UUCUUGGAGCCCUUCUUCGGGG	chr6:27775564-27775737$1	su1	70	92	5.6796
UAAUGCGCUAUUUCGUGAUCAG	chr1:149858798-149859350$1	su1	181	203	10.5387
GGCGGUGUUAGAGUACCUGACC	chr6:26124441-26124971$1	su1	177	199	9.9272
GAAUCAGCAACUCGGUCGACUU	chr6:26031769-26032338$1	su1	329	351	8.3135
GUACACAGAGUAACUCUCCUUG	chr6:26123643-26124198$1	su1	366	388	6.5653
AAGUCACCAUCGCACAGGGUGG	chr6:27776250-27776479$1	su1	35	57	5.3569
GCAGGAUAACAAGAUGUCUGCU	chr6:26285302-26285805$1	su1	14	36	10.5045
GCCGUGUCCGAGGGCACAAAGG	chr6:27861256-27861716$1	su1	314	336	5.3999

#PSSM
c : 0.18	e : 0.09	d : 0.09	[ : 0.08	g : 0.08	f : 0.07	! : 0.06	= : 0.04	h : 0.04	b : 0.03	# : 0.02	: : 0.02	i : 0.02	$ : 0.02	G : 0.01	" : 0.01	a : 0.00	C : 0.00	D : 0.00	& : 0.00	
c : 0.17	g : 0.11	d : 0.10	e : 0.09	! : 0.08	[ : 0.07	f : 0.05	b : 0.05	= : 0.04	# : 0.03	h : 0.02	: : 0.02	i : 0.02	" : 0.02	a : 0.01	$ : 0.00	D : 0.00	G : 0.00	& : 0.00	
c : 0.18	g : 0.11	d : 0.10	e : 0.09	f : 0.08	" : 0.07	b : 0.05	! : 0.05	[ : 0.05	= : 0.04	# : 0.02	i : 0.02	h : 0.02	$ : 0.00	: : 0.00	a : 0.00	& : 0.00	
e : 0.14	" : 0.11	c : 0.11	d : 0.09	g : 0.09	f : 0.08	! : 0.05	[ : 0.05	= : 0.04	a : 0.04	b : 0.03	# : 0.03	i : 0.02	h : 0.02	$ : 0.00	: : 0.00	
e : 0.14	[ : 0.14	! : 0.11	d : 0.11	" : 0.10	f : 0.07	c : 0.07	g : 0.06	= : 0.03	# : 0.02	i : 0.02	h : 0.02	b : 0.02	$ : 0.00	: : 0.00	
c : 0.23	e : 0.15	d : 0.11	[ : 0.08	! : 0.08	" : 0.05	g : 0.05	f : 0.05	= : 0.03	i : 0.02	h : 0.01	b : 0.01	a : 0.01	# : 0.01	: : 0.00	
c : 0.28	b : 0.17	e : 0.14	d : 0.11	g : 0.05	f : 0.05	[ : 0.04	= : 0.03	! : 0.02	h : 0.01	" : 0.01	# : 0.01	i : 0.01	
c : 0.33	b : 0.17	e : 0.12	d : 0.10	f : 0.05	a : 0.05	= : 0.03	g : 0.03	h : 0.01	r : 0.01	i : 0.01	o : 0.00	] : 0.00	[ : 0.00	
o : 0.56	c : 0.13	d : 0.05	e : 0.04	r : 0.03	= : 0.02	n : 0.02	m : 0.02	[ : 0.01	a : 0.01	i : 0.01	b : 0.01	q : 0.00	g : 0.00	f : 0.00	
o : 0.56	n : 0.13	m : 0.10	c : 0.07	r : 0.03	e : 0.02	= : 0.01	d : 0.01	b : 0.00	q : 0.00	a : 0.00	i : 0.00	
o : 0.56	m : 0.18	n : 0.13	r : 0.03	l : 0.03	b : 0.00	= : 0.00	e : 0.00	q : 0.00	i : 0.00	
o : 0.56	m : 0.18	n : 0.13	l : 0.05	r : 0.03	= : 0.00	q : 0.00	i : 0.00	
o : 0.56	m : 0.16	n : 0.13	l : 0.05	r : 0.03	c : 0.01	= : 0.00	q : 0.00	i : 0.00	e : 0.00	
o : 0.55	n : 0.11	m : 0.08	c : 0.05	d : 0.04	r : 0.03	b : 0.02	l : 0.01	g : 0.01	i : 0.01	! : 0.00	q : 0.00	f : 0.00	a : 0.00	e : 0.00	
c : 0.30	b : 0.17	e : 0.11	d : 0.10	a : 0.06	f : 0.05	g : 0.04	r : 0.03	= : 0.02	i : 0.02	h : 0.01	! : 0.00	q : 0.00	] : 0.00	
c : 0.31	b : 0.16	e : 0.11	d : 0.11	f : 0.05	] : 0.04	g : 0.04	r : 0.03	= : 0.02	i : 0.02	h : 0.01	2 : 0.01	3 : 0.01	a : 0.00	q : 0.00	
c : 0.31	e : 0.14	d : 0.12	] : 0.07	2 : 0.07	g : 0.05	f : 0.05	= : 0.02	3 : 0.02	r : 0.02	i : 0.02	a : 0.01	h : 0.01	b : 0.01	4 : 0.00	
e : 0.17	] : 0.14	d : 0.09	2 : 0.09	f : 0.08	c : 0.08	3 : 0.08	g : 0.08	b : 0.03	= : 0.02	h : 0.02	4 : 0.02	i : 0.02	9 : 0.00	a : 0.00	[ : 0.00	
e : 0.20	c : 0.14	d : 0.11	g : 0.09	f : 0.08	3 : 0.06	2 : 0.05	b : 0.05	a : 0.03	= : 0.02	h : 0.02	4 : 0.02	i : 0.02	] : 0.01	9 : 0.00	
c : 0.15	d : 0.12	g : 0.10	e : 0.09	f : 0.09	3 : 0.08	2 : 0.07	] : 0.07	b : 0.03	4 : 0.03	= : 0.02	h : 0.02	i : 0.02	a : 0.01	9 : 0.00	5 : 0.00	
c : 0.21	d : 0.13	e : 0.11	g : 0.10	f : 0.06	2 : 0.06	] : 0.05	: : 0.04	3 : 0.03	= : 0.02	b : 0.02	4 : 0.02	i : 0.02	h : 0.02	9 : 0.00	5 : 0.00	
c : 0.17	d : 0.14	e : 0.11	f : 0.09	g : 0.08	] : 0.06	3 : 0.04	: : 0.04	h : 0.03	= : 0.02	2 : 0.02	i : 0.02	b : 0.02	4 : 0.02	a : 0.01	9 : 0.00	) : 0.00	n : 0.00	5 : 0.00	

#score	0.0
#seq	134
#width	22
#escape	true
#onStep	-1
#minSteps	-1
#maxSteps	-1