"HIST1H2AH"	74	76	88	77	89	3.1248
"HIST1H2AI"	80	13	24	15	27	3.2275
"HIST1H3C"	90	17	26	21	33	5.0731
"HIST1H2BD"	74	26	38	27	39	4.6723
"HIST1H2BL"	75	1	13	2	14	6.2802
"HIST1H4J"	74	75	87	76	88	2.9615
"HIST3H3"	96	76	85	100	112	6.4998
"HIST1H2AK"	75	12	24	13	25	6.2802
"HIST1H2BJ"	87	29	39	35	47	6.4998
"HIST1H4L"	87	10	20	12	24	3.3217
"HIST1H1B"	74	12	24	13	25	3.1949
"HIST1H2AG"	100	20	29	28	40	4.2878
"HIST1H2BM"	90	48	58	60	72	6.4998
"HIST1H2AJ"	74	41	53	42	54	6.4998
"HIST1H2AM"	74	11	23	12	24	4.2878
"HIST1H4H"	74	3	15	4	16	2.7949
"HIST3H2A"	74	14	26	15	27	6.2802
"HIST1H3G"	74	83	95	84	96	4.5271
"HIST2H3PS2"	80	54	65	60	72	3.6069
"HIST1H2BC"	75	44	55	45	57	3.5802
"HIST1H3I"	76	52	64	55	67	3.1798
"HIST1H2AL"	74	51	63	52	64	3.2654
"HIST3H2BA"	74	78	90	79	91	2.7768
"HIST1H4A"	81	85	96	95	107	4.2878
"HIST1H2AC"	86	52	63	62	74	6.4998
"HIST1H2BE"	86	84	94	100	112	6.4998
"HIST2H2BA"	87	21	31	25	37	5.6108
"HIST1H2AB"	74	33	45	34	46	3.0306
"HIST1H3A"	74	88	100	89	101	6.4998
"HIST2H3D"	76	61	73	64	76	3.2579
"HIST2H2BE"	75	79	91	81	93	4.5271
"HIST1H3H"	81	26	36	29	41	3.3217
"HIST1H4C"	75	52	64	54	66	6.4998
"HIST1H2BK"	94	66	75	85	97	4.8819
"HIST1H2BF"	92	44	53	56	68	5.3747
"HIST1H4B"	74	37	49	38	50	4.2878
"HIST1H2BG"	74	2	14	3	15	2.0728
"HIST2H2BC"	88	15	25	19	31	2.8508
"HIST1H4K"	74	14	26	15	27	5.8086
"HIST1H3J"	74	11	23	12	24	4.2878
"HIST1H2BA"	95	68	77	89	101	2.2142
"HIST1H3B"	74	83	95	84	96	2.7949
"HIST2H2BF"	85	31	42	37	49	2.7949
"HIST2H2AC"	85	68	79	80	92	4.8819
"HIST1H3F"	74	4	16	5	17	6.2802
"HIST1H2BN"	100	27	36	37	49	5.3678
"HIST1H2AE"	83	81	92	92	104	6.4998
"HIST1H1C"	74	13	25	14	26	4.8819
"HIST1H4I"	92	65	75	83	95	4.8819
