eeeeennnnneeeee	chr7:87807856-87807975$1	119	35	50	7.4043
eee[annnnna]eee	chr12:98897224-98897398$1	174	4	19	6.5551
fffff4444eeeeeb	chr5:122724078-122724214$1	136	87	102	3.7933
eeee[bblllbb]ee	chr10:38408810-38408945$1	135	24	39	4.7924
[eeeeellleeeee]	chr7:56123991-56124127$1	136	16	31	7.1618
bbddddllldddd22	chrX:54496668-54496804$1	136	14	29	3.8068
[ddddlllddddfff	chr18:19751407-19751525$1	118	69	84	4.3007
e[bboooooobbeee	chr7:157130603-157130716$1	113	65	80	6.5759
ffffffmmmmfffff	chr12:54789038-54789162$1	124	18	33	3.8194
:ddddnnnnndddd:	chr5:135382522-135382651$1	129	108	123	3.5245
ffffoooooofffff	chr6:47567062-47567198$1	136	71	86	6.6504
eeeeemmmmeeeee]	chr1:68591011-68591149$1	138	17	32	6.2696
gg[aooooooa]ggg	chr2:23700477-23700597$1	120	8	23	6.7126
[eeeeellleeeee]	chr17:30700138-30700254$1	116	7	22	7.1618
:eeeeellleeeee:	chr11:64757624-64757742$1	118	86	101	5.3081
[cccooooooccc]f	chr8:87491068-87491182$1	114	89	104	6.6828
c[bboooooobb22c	chr14:72765087-72765223$1	136	111	126	4.9913
ddddccclllccc]d	chr13:113862422-113862558$1	136	89	104	4.2327
ceeeeemmmmeeeee	chr11:134610986-134611106$1	120	25	40	6.4344
ffffffmmmmfffff	chr19:7506744-7506880$1	136	66	81	3.8194
eeeeooooooeeeee	chr19:12299016-12299137$1	121	54	69	9.0514
eeeeooooooeeeee	chr17:55514851-55514966$1	115	80	95	9.0514
eeeeennnnneeeee	chr1:193071019-193071143$1	124	27	42	7.4043
eee!!allla22eee	chr22:46762374-46762490$1	116	62	77	6.2896
eeeeennnnneeeee	chr13:36761756-36761876$1	120	27	42	7.4043
ffffoooooofffff	chr17:79801542-79801679$1	137	16	31	6.6504
ceeeeellleeeee:	chr11:18503262-18503398$1	136	96	111	6.1361
fffffnnnnnfffff	chr11:117040628-117040753$1	125	25	40	4.7746
aeeeeemmmmeeeee	chr3:48783995-48784131$1	136	57	72	6.4453
eeeeooooooeeeee	chr10:28438449-28438566$1	117	42	57	9.0514
eeeeooooooeeeee	chr15:64657915-64658040$1	125	56	71	9.0514
eeeeooooooeeeee	chr2:232325346-232325573$1	227	146	161	9.0514
:eeeeemmmmeeeee	chr3:40503681-40503817$1	136	112	127	5.6064
:eeeeellleeeee:	chr15:49171821-49171957$1	136	57	72	5.3081
:cccooooooccc::	chrX:102842335-102842473$1	138	105	120	3.8760
ddd[annnnna]ddd	chr2:240183218-240183336$1	118	70	85	5.0700
[eeeeellleeeee]	chr6:26031769-26032338$1	569	210	225	7.1618
ggggooooooggggg	chr15:68584616-68584752$1	136	14	29	6.9022
ffffoooooofffff	chr3:180631100-180631236$1	136	105	120	6.6504
ddddoooooodddd:	chr1:74949425-74949541$1	116	40	55	6.1416
:eeeeemmmmeeeee	chr1:173833781-173833917$1	136	83	98	5.6064
eeeeooooooeeeee	chr5:145509572-145509701$1	129	65	80	9.0514
eeeeooooooeeeee	chr9:137998622-137998757$1	135	57	72	9.0514
eeeeennnnneeeee	chr12:3152979-3153110$1	131	100	115	7.4043
'cccoooooocccee	chr1:204525454-204525590$1	136	110	125	6.5310
eeeeennnnneeeee	chr10:28878664-28878800$1	136	13	28	7.4043
[eeeeemmmmeeeee	chr12:53345918-53346054$1	136	12	27	6.5749
[cccoooooocccdd	chr5:138270143-138270272$1	129	88	103	6.6750
ddddoooooodddd]	chr5:32603115-32603251$1	136	110	125	7.0268
ffffoooooofffff	chr14:51555301-51555432$1	131	95	110	6.6504
ddddoooooodddd:	chr6:70468235-70468348$1	113	57	72	6.1416
e[bboooooobb333	chr2:79587215-79587336$1	121	78	93	5.6093
!eeeeellleeeee]	chr11:64052882-64053009$1	127	61	76	7.1401
eeeeooooooeeeee	chr10:1405727-1405863$1	136	72	87	9.0514
eeeeeooooooeeee	chr6:166370570-166370702$1	132	116	131	8.2309
ffffoooooofffff	chr20:4913173-4913309$1	136	13	28	6.6504
eeeeooooooeeeee	chr1:107879702-107879824$1	122	97	112	9.0514
ddddoooooodddd2	chr9:118916768-118916892$1	124	92	107	6.7806
ddddooooooddddb	chr2:198367934-198368070$1	136	43	58	6.6989
cc[ccclllccc]cc	chr5:171509413-171509541$1	128	6	21	4.4316
eeeeennnnneeeee	chr21:38888373-38888509$1	136	96	111	7.4043
gg[aooooooa]ggg	chr17:2233761-2233883$1	122	88	103	6.7126
gggggglllgggggg	chrX:73507110-73507231$1	121	85	100	4.7835
dd[aooooooadddd	chr9:139400321-139400457$1	136	108	123	6.6954
eeeeennnnneeeee	chr7:23493328-23493457$1	129	102	117	7.4043
eeeeooooooeeeee	chr17:30809289-30809425$1	136	84	99	9.0514
eeeeennnnneeeee	chr5:176428446-176428576$1	130	110	125	7.4043
eeeeennnnneeeee	chr12:10312537-10312673$1	136	11	26	7.4043
"ddddmmmmdddd]d	chr17:41151995-41152131$1	136	92	107	4.0042
[ddddmmmmdddd]b	chr10:81113827-81113963$1	136	43	58	3.9399
ccddddmmmmdddd3	chr6:160182558-160182681$1	123	67	82	4.1960
""bboooooobb]ee	chr18:23597225-23597394$1	169	6	21	5.9272
ggggooooooggggg	chr14:65031651-65031771$1	120	94	109	6.9022
eeeeooooooeeeee	chr10:43693493-43693610$1	117	94	109	9.0514
[cccoooooocccdd	chr17:38613380-38613509$1	129	112	127	6.6750
eeeeennnnneeeee	chr2:105918480-105918611$1	131	60	75	7.4043
:eeeeellleeeee:	chr6:97592524-97592648$1	124	21	36	5.3081
:eeeeemmmmeeeee	chr8:48866861-48866997$1	136	104	119	5.6064
eee[ammmma]eeee	chr3:53258703-53258839$1	136	64	79	6.0908
ddddoooooodddd0	chr17:28304266-28304384$1	118	60	75	6.4951
feeeeemmmmeeeee	chr3:52721207-52721341$1	134	5	20	6.4270
"eeeeellleeeee2	chr15:91499821-91499996$1	175	29	44	6.7873
fffffflllffffff	chr14:96850999-96851135$1	136	117	132	4.3820
[eeeeellleeeeec	chr14:61729162-61729287$1	125	80	95	7.0406
eeeeooooooeeeee	chr16:84087320-84087456$1	136	91	106	9.0514

#otherMatches

#Seq PSSM
GGGACUAUCUGUCCU	chr7:87807856-87807975$1	su1	35	50	7.4043
GGAUCUUACUGCUCC	chr12:98897224-98897398$1	su1	4	19	6.5551
GUAUACUCCUUAAGU	chr5:122724078-122724214$1	su1	87	102	3.7933
CAAGUCAAUUUGCCU	chr10:38408810-38408945$1	su1	24	39	4.7924
UAGUGGACUCCAUUU	chr7:56123991-56124127$1	su1	16	31	7.1618
GCUGAUGCUAUCAAU	chrX:54496668-54496804$1	su1	14	29	3.8068
CAGCAAGCUGCUGUG	chr18:19751407-19751525$1	su1	69	84	4.3007
CACCACCGAAGGGGU	chr7:157130603-157130716$1	su1	65	80	6.5759
UCAGUGGGGGCACUG	chr12:54789038-54789162$1	su1	18	33	3.8194
AGCUGAAACACGGCA	chr5:135382522-135382651$1	su1	108	123	3.5245
UCAGUAGACUUUGAU	chr6:47567062-47567198$1	su1	71	86	6.6504
UGCACGCAUGUGUAU	chr1:68591011-68591149$1	su1	17	32	6.2696
AUGGCACCACUGGUG	chr2:23700477-23700597$1	su1	8	23	6.7126
UGAAUAAAAUAUUCC	chr17:30700138-30700254$1	su1	7	22	7.1618
CAGACCUCCGGUCUC	chr11:64757624-64757742$1	su1	86	101	5.3081
AUAGGUGGAACUAGG	chr8:87491068-87491182$1	su1	89	104	6.6828
aggcUggagUgcaaU	chr14:72765087-72765223$1	su1	111	126	4.9913
UCCCGCAUCCUGCUG	chr13:113862422-113862558$1	su1	89	104	4.2327
ggUgaUaaaagUcac	chr11:134610986-134611106$1	su1	25	40	6.4344
CUCGCUGAGGAGUGA	chr19:7506744-7506880$1	su1	66	81	3.8194
CCCUGGGUAAAGGGU	chr19:12299016-12299137$1	su1	54	69	9.0514
UUCACUGCAAUGAAC	chr17:55514851-55514966$1	su1	80	95	9.0514
AAACUCAACCAGUUU	chr1:193071019-193071143$1	su1	27	42	7.4043
GGAAUGACUCUGUCC	chr22:46762374-46762490$1	su1	62	77	6.2896
AGCAAAGAACUUGCU	chr13:36761756-36761876$1	su1	27	42	7.4043
UCCCGCGGGAGGGAG	chr17:79801542-79801679$1	su1	16	31	6.6504
CAGAACUGAGUUCUU	chr11:18503262-18503398$1	su1	96	111	6.1361
AGCUGGCCCUCAGCU	chr11:117040628-117040753$1	su1	25	40	4.7746
CGAGCCCUAGGGUUU	chr3:48783995-48784131$1	su1	57	72	6.4453
AUAUUAUUUCAUAUG	chr10:28438449-28438566$1	su1	42	57	9.0514
UUAGCAAGAACUAGA	chr15:64657915-64658040$1	su1	56	71	9.0514
GCCACGUUCUUGGCU	chr2:232325346-232325573$1	su1	146	161	9.0514
AAGCCUGUUGAGGCU	chr3:40503681-40503817$1	su1	112	127	5.6064
aaggUUUUaaaccUg	chr15:49171821-49171957$1	su1	57	72	5.3081
accaaaUaUaUggca	chrX:102842335-102842473$1	su1	105	120	3.8760
CUCAGGUCCACAGAG	chr2:240183218-240183336$1	su1	70	85	5.0700
CCCUACCAAGUAGGC	chr6:26031769-26032338$1	su1	210	225	7.1618
UUUUUAUGAUGAAAA	chr15:68584616-68584752$1	su1	14	29	6.9022
UAAAGUAAGAUUUAA	chr3:180631100-180631236$1	su1	105	120	6.6504
aagUcUUUUaacUUU	chr1:74949425-74949541$1	su1	40	55	6.1416
AGUAAGACAACUUGC	chr1:173833781-173833917$1	su1	83	98	5.6064
AAGUGUCUGAACUUC	chr5:145509572-145509701$1	su1	65	80	9.0514
CGCCCCUGAAGGCGA	chr9:137998622-137998757$1	su1	57	72	9.0514
acagUgggcUgcUgU	chr12:3152979-3153110$1	su1	100	115	7.4043
ccUgUUaUUccagca	chr1:204525454-204525590$1	su1	110	125	6.5310
CAGAUGACUGGUCUG	chr10:28878664-28878800$1	su1	13	28	7.4043
AGGUGGAGGCCCGCU	chr12:53345918-53346054$1	su1	12	27	6.5749
AGAAGGCAUGUUCCC	chr5:138270143-138270272$1	su1	88	103	6.6750
CUCCAUAUAAGGAGU	chr5:32603115-32603251$1	su1	110	125	7.0268
GUGAAAAACCUCACA	chr14:51555301-51555432$1	su1	95	110	6.6504
GAUAGUUGCAUAUCU	chr6:70468235-70468348$1	su1	57	72	6.1416
CUGACAACUUUCCUC	chr2:79587215-79587336$1	su1	78	93	5.6093
gggccAUCUUGGCUA	chr11:64052882-64053009$1	su1	61	76	7.1401
AACGUGAGCCCGUUC	chr10:1405727-1405863$1	su1	72	87	9.0514
gcccagcccagUggg	chr6:166370570-166370702$1	su1	116	131	8.2309
UAUUCUUACCAAUAC	chr20:4913173-4913309$1	su1	13	28	6.6504
ggUUUgcaacagcca	chr1:107879702-107879824$1	su1	97	112	9.0514
UCACAGGUAGGUGAG	chr9:118916768-118916892$1	su1	92	107	6.7806
GACUGAAAUAAGUCA	chr2:198367934-198368070$1	su1	43	58	6.6989
CACGGCAUGGUCUUG	chr5:171509413-171509541$1	su1	6	21	4.4316
CCAUUUUUAUAGUGG	chr21:38888373-38888509$1	su1	96	111	7.4043
UUCCUUGCCUGAAGC	chr17:2233761-2233883$1	su1	88	103	6.7126
UUUCUUCCCAGGGGG	chrX:73507110-73507231$1	su1	85	100	4.7835
CCUCUAACCUGGGAG	chr9:139400321-139400457$1	su1	108	123	6.6954
cUaaUaacUagUUag	chr7:23493328-23493457$1	su1	102	117	7.4043
aaaaUaaUUUUUUUU	chr17:30809289-30809425$1	su1	84	99	9.0514
acUaagacUUUUagU	chr5:176428446-176428576$1	su1	110	125	7.4043
ACAGCUCCUCGUUGU	chr12:10312537-10312673$1	su1	11	26	7.4043
GUGUAUAACUACAAU	chr17:41151995-41152131$1	su1	92	107	4.0042
CCAGAUUCAUCUGUG	chr10:81113827-81113963$1	su1	43	58	3.9399
GGCUCGCACUCGAGA	chr6:160182558-160182681$1	su1	67	82	4.1960
AAACAUAAAAGUGUC	chr18:23597225-23597394$1	su1	6	21	5.9272
UAACUUGGCUGUUAG	chr14:65031651-65031771$1	su1	94	109	6.9022
GCCCCCUGCAGGGCU	chr10:43693493-43693610$1	su1	94	109	9.0514
UCCUUCCUUUAGGUC	chr17:38613380-38613509$1	su1	112	127	6.6750
aacgUgaaaaaUgUU	chr2:105918480-105918611$1	su1	60	75	7.4043
GGGACUCCAAGUCUG	chr6:97592524-97592648$1	su1	21	36	5.3081
AAUUCAUCCAUGAGU	chr8:48866861-48866997$1	su1	104	119	5.6064
ACAGGUGGACGUGUC	chr3:53258703-53258839$1	su1	64	79	6.0908
UgccaaagaaggUaa	chr17:28304266-28304384$1	su1	60	75	6.4951
AAGUAUAAAGAUAUU	chr3:52721207-52721341$1	su1	5	20	6.4270
cUccagccccUggaa	chr15:91499821-91499996$1	su1	29	44	6.7873
ggUaUUgcaaaUacc	chr14:96850999-96851135$1	su1	117	132	4.3820
accUUUggcaaaggg	chr14:61729162-61729287$1	su1	80	95	7.0406
CACCGACAAUGGUGA	chr16:84087320-84087456$1	su1	91	106	9.0514

#PSSM
e : 0.35	f : 0.12	[ : 0.11	d : 0.10	: : 0.09	g : 0.05	c : 0.05	" : 0.03	b : 0.01	a : 0.01	' : 0.01	! : 0.01	
e : 0.52	d : 0.15	f : 0.11	c : 0.08	g : 0.05	[ : 0.03	b : 0.01	" : 0.01	
e : 0.52	d : 0.16	f : 0.11	c : 0.05	b : 0.04	[ : 0.04	g : 0.03	
e : 0.49	d : 0.15	f : 0.11	c : 0.07	b : 0.04	[ : 0.03	a : 0.03	g : 0.03	! : 0.01	
o : 0.43	e : 0.34	d : 0.07	f : 0.05	a : 0.03	c : 0.02	[ : 0.01	! : 0.01	g : 0.01	
o : 0.44	e : 0.20	n : 0.16	m : 0.04	f : 0.03	d : 0.02	c : 0.02	4 : 0.01	b : 0.01	l : 0.01	a : 0.01	g : 0.01	
o : 0.44	l : 0.18	n : 0.16	m : 0.16	4 : 0.01	b : 0.01	c : 0.01	
o : 0.44	l : 0.21	n : 0.16	m : 0.16	4 : 0.01	
o : 0.44	l : 0.20	n : 0.16	m : 0.16	4 : 0.01	d : 0.01	
o : 0.44	n : 0.16	e : 0.14	m : 0.11	d : 0.04	l : 0.02	a : 0.02	c : 0.01	g : 0.01	f : 0.01	
e : 0.48	d : 0.14	f : 0.10	c : 0.08	a : 0.05	b : 0.05	g : 0.03	2 : 0.01	o : 0.01	] : 0.01	
e : 0.50	d : 0.15	f : 0.10	c : 0.08	b : 0.05	] : 0.04	g : 0.03	2 : 0.01	
e : 0.54	d : 0.15	f : 0.11	c : 0.07	g : 0.05	] : 0.03	2 : 0.01	3 : 0.01	
e : 0.57	d : 0.14	f : 0.11	g : 0.05	] : 0.04	2 : 0.02	: : 0.01	3 : 0.01	c : 0.01	
e : 0.43	f : 0.12	: : 0.09	] : 0.07	d : 0.07	g : 0.05	b : 0.03	2 : 0.03	c : 0.03	3 : 0.02	0 : 0.01	

#score	550.9902539289425
#seq	85
#width	15
#escape	false
#onStep	15000
#minSteps	10000
#maxSteps	15000.0