gggggggpppppppggggggg	SeqCat03|53$1	170	45	66	17.9018
gggggggpppppppggggggg	SeqCat03|136$1	170	27	48	17.9018
ddd!!bbpppppppbb22ddd	SeqCat01|98$1	185	84	105	12.3853
gggggggpppppppggggggg	SeqCat02|126$1	170	47	68	17.9018
gggggggpppppppggggggg	SeqCat02|144$1	170	13	34	17.9018
gggggggpppppppggggggg	SeqCat03|184$1	170	41	62	17.9018
gggggggpppppppggggggg	SeqCat03|1$1	170	8	29	17.9018
gggggggpppppppggggggg	SeqCat03|20$1	170	2	23	17.9018
gggggggpppppppggggggg	SeqCat03|134$1	170	38	59	17.9018
gggggggpppppppggggggg	SeqCat03|148$1	170	14	35	17.9018
gggggggpppppppggggggg	SeqCat02|159$1	170	23	44	17.9018
dffffffpppppppffffff:	SeqCat03|112$1	170	34	55	13.2553
gggggggpppppppggggggg	SeqCat03|176$1	170	33	54	17.9018
gggggggpppppppggggggg	SeqCat03|73$1	170	10	31	17.9018
ebb[cccpppppppcccbb22	SeqCat01|60$1	185	108	129	13.3523
"ddddrrrrrrrrrdddd333	SeqCat01|39$1	185	57	78	8.2194
gggggggpppppppggggggg	SeqCat02|164$1	170	39	60	17.9018
a"""cccpppppppccc22ad	SeqCat01|153$1	185	159	180	13.8330
gggggggpppppppggggggg	SeqCat02|171$1	170	4	25	17.9018
###ddddpppppppddddddd	SeqCat01|43$1	185	87	108	12.2961
hhhhhhhppppppphhhhhhh	SeqCat03|89$1	170	20	41	16.0485
gggggggpppppppggggggg	SeqCat03|81$1	170	15	36	17.9018
gggggggpppppppggggggg	SeqCat02|197$1	170	39	60	17.9018
ddd[cccpppppppcccdddd	SeqCat01|31$1	185	151	172	13.8713
gggggggpppppppggggggg	SeqCat03|78$1	170	24	45	17.9018
!!eeeeepppppppeeeeeee	SeqCat01|5$1	185	125	146	14.1459
:ffffffpppppppfffffff	SeqCat03|160$1	170	12	33	13.3976
ff[bbrrrrrrrrrbb]ffff	SeqCat01|90$1	185	162	183	8.8083
gggggggpppppppggggggg	SeqCat03|149$1	170	22	43	17.9018
gggggggpppppppggggggg	SeqCat02|199$1	170	30	51	17.9018
ffffffrrrrrrrrrffffff	SeqCat01|75$1	185	115	136	9.6754
hhhhhhhppppppphhhhhhh	SeqCat03|19$1	170	33	54	16.0485
hhhhhhhppppppphhhhhhh	SeqCat02|116$1	170	27	48	16.0485
gggggggpppppppggggggg	SeqCat03|93$1	170	4	25	17.9018
!ffffffpppppppffffff4	SeqCat01|152$1	185	60	81	14.3654
gggggggpppppppggggggg	SeqCat03|162$1	170	6	27	17.9018
hhhhhhhppppppphhhhhhh	SeqCat02|109$1	170	18	39	16.0485
hhhhhhhppppppphhhhhhh	SeqCat03|47$1	170	3	24	16.0485
gggggggpppppppggggggg	SeqCat02|117$1	170	14	35	17.9018
gggggggpppppppggggggg	SeqCat03|113$1	170	42	63	17.9018
gggggggpppppppggggggg	SeqCat03|27$1	170	42	63	17.9018
gggggggpppppppggggggg	SeqCat02|196$1	170	5	26	17.9018
gggggggpppppppggggggg	SeqCat03|26$1	170	22	43	17.9018
cffffffpppppppffffff]	SeqCat03|56$1	170	9	30	14.6206
hhhhhhhppppppphhhhhhh	SeqCat03|178$1	170	5	26	16.0485
gggggggpppppppggggggg	SeqCat02|23$1	170	37	58	17.9018
gggggggpppppppggggggg	SeqCat02|91$1	170	15	36	17.9018
hhhhhhhppppppphhhhhhh	SeqCat03|79$1	170	25	46	16.0485
gggggggpppppppggggggg	SeqCat03|85$1	170	37	58	17.9018
+ffffffpppppppffffffg	SeqCat03|132$1	170	23	44	13.9166
gggggggpppppppggggggg	SeqCat03|103$1	170	41	62	17.9018
hhhhhhhppppppphhhhhhh	SeqCat03|139$1	170	18	39	16.0485
gggggggpppppppggggggg	SeqCat03|120$1	170	33	54	17.9018
gggggggpppppppggggggg	SeqCat02|185$1	170	48	69	17.9018
hhhhhhrrrrrrrrrhhhhhh	SeqCat03|29$1	170	130	151	11.1765
=======ppppppp=======	SeqCat03|7$1	170	12	33	16.1482
gggggggpppppppggggggg	SeqCat02|174$1	170	3	24	17.9018
gggggggpppppppggggggg	SeqCat02|131$1	170	47	68	17.9018
ddffffffpppppppffffff	SeqCat01|128$1	185	163	184	10.8155
!!a[cccpppppppcccafff	SeqCat02|168$1	170	117	138	15.0088
gggggggpppppppggggggg	SeqCat02|183$1	170	48	69	17.9018
:ffffffpppppppffffffB	SeqCat03|191$1	170	4	25	12.3604
gggggggpppppppggggggg	SeqCat01|172$1	185	140	161	17.9018
gggggggpppppppggggggg	SeqCat03|46$1	170	96	117	17.9018
gggggggpppppppggggggg	SeqCat03|34$1	170	42	63	17.9018
hhhhhhhppppppphhhhhhh	SeqCat02|97$1	170	46	67	16.0485
gggggggpppppppggggggg	SeqCat02|151$1	170	40	61	17.9018
ccc!!bbpppppppbb22ccc	SeqCat03|125$1	170	77	98	13.5481
hhhhhhhppppppphhhhhhh	SeqCat03|110$1	170	14	35	16.0485
hhhhhhhppppppphhhhhhh	SeqCat03|167$1	170	14	35	16.0485
hhhhhhhppppppphhhhhhh	SeqCat02|82$1	170	14	35	16.0485
EEeeeeepppppppeeeeedd	SeqCat03|145$1	170	7	28	11.5394
gggggggpppppppggggggg	SeqCat03|50$1	170	42	63	17.9018
gggggggpppppppggggggg	SeqCat02|106$1	170	11	32	17.9018
cc!!cccpppppppccc22cc	SeqCat01|88$1	185	21	42	14.7996
hhhhhhhppppppphhhhhhh	SeqCat02|182$1	170	30	51	16.0485
iiiiiiipppppppiiiiiii	SeqCat02|195$1	170	36	57	17.0061
gggggggpppppppggggggg	SeqCat02|170$1	170	43	64	17.9018
iiiiiiipppppppiiiiiii	SeqCat02|52$1	170	20	41	17.0061
dd[ddddpppppppdddd]dd	SeqCat01|169$1	185	79	100	12.7678
ggg[cccpppppppccc]ggg	SeqCat01|94$1	185	148	169	16.4983
gggggggpppppppggggggg	SeqCat03|58$1	170	44	65	17.9018
gggggggpppppppggggggg	SeqCat02|198$1	170	39	60	17.9018
eeeeeeepppppppeeeee]e	SeqCat01|166$1	185	45	66	13.8895
gggggggpppppppggggggg	SeqCat02|142$1	170	14	35	17.9018
cffffffpppppppffffff]	SeqCat02|119$1	170	83	104	14.6206
##eeeeepppppppeeeee44	SeqCat03|114$1	170	134	155	13.2513
gggggggpppppppggggggg	SeqCat02|40$1	170	15	36	17.9018
hhhhhhhppppppphhhhhhh	SeqCat03|87$1	170	39	60	16.0485
gggggggpppppppggggggg	SeqCat02|41$1	170	22	43	17.9018
A:eeeeepppppppeeeee::	SeqCat01|127$1	185	101	122	9.6520
eeee[bbpppppppbb]eeee	SeqCat01|49$1	185	2	23	13.2755
gggggggpppppppggggggg	SeqCat03|135$1	170	30	51	17.9018
hhhhhhhppppppphhhhhhh	SeqCat02|45$1	170	37	58	16.0485
gggggggpppppppggggggg	SeqCat03|187$1	170	8	29	17.9018
Effffffpppppppffffffc	SeqCat01|55$1	185	4	25	13.4695
gggggggpppppppggggggg	SeqCat03|122$1	170	1	22	17.9018

#otherMatches

#Seq PSSM
AUGGAAGAGUAAGCCUUCCAU	SeqCat03|53$1	su1	45	66	17.9018
AUGGAAGAGUAAGCCUUCCAU	SeqCat03|136$1	su1	27	48	17.9018
GGGACUCAAUGAAGGAAGCCU	SeqCat01|98$1	su1	84	105	12.3853
AUGGAAGAGUAAGCCUUCCAU	SeqCat02|126$1	su1	47	68	17.9018
AUGGAAGAGUAAGCCUUCCAU	SeqCat02|144$1	su1	13	34	17.9018
AUGGAAGAGUAAGCCUUCCAU	SeqCat03|184$1	su1	41	62	17.9018
AUGGAAGAGUAAGCCUUCCAU	SeqCat03|1$1	su1	8	29	17.9018
AUGGAAGAGUAAGCCUUCCAU	SeqCat03|20$1	su1	2	23	17.9018
AUGGAAGAGUAAGCCUUCCAU	SeqCat03|134$1	su1	38	59	17.9018
AUGGAAGAGUAAGCCUUCCAU	SeqCat03|148$1	su1	14	35	17.9018
AUGGAAGAGUAAGCCUUCCAU	SeqCat02|159$1	su1	23	44	17.9018
AUGGAAGAGUAAGCCUUCCAU	SeqCat03|112$1	su1	34	55	13.2553
AUGGAAGAGUAAGCCUUCCAU	SeqCat03|176$1	su1	33	54	17.9018
AUGGAAGAGUAAGCCUUCCAU	SeqCat03|73$1	su1	10	31	17.9018
ACUAUGGACUAAACCCAAGAA	SeqCat01|60$1	su1	108	129	13.3523
GCUGCGUAUCUGGAGCAGAAA	SeqCat01|39$1	su1	57	78	8.2194
AUGGAAGAGUAAGCCUUCCAU	SeqCat02|164$1	su1	39	60	17.9018
GCUUCUGAUUGAAACAGUACC	SeqCat01|153$1	su1	159	180	13.8330
AUGGAAGAGUAAGCCUUCCAU	SeqCat02|171$1	su1	4	25	17.9018
UAAGUGAAUUUCGAUCACAUG	SeqCat01|43$1	su1	87	108	12.2961
AUGGAAGAGUAAGCCUUCCAU	SeqCat03|89$1	su1	20	41	16.0485
AUGGAAGAGUAAGCCUUCCAU	SeqCat03|81$1	su1	15	36	17.9018
AUGGAAGAGUAAGCCUUCCAU	SeqCat02|197$1	su1	39	60	17.9018
GCGAUUGGACCAGGCAACGCG	SeqCat01|31$1	su1	151	172	13.8713
AUGGAAGAGUAAGCCUUCCAU	SeqCat03|78$1	su1	24	45	17.9018
UUAAGAUCAGUCUUGUCUUUG	SeqCat01|5$1	su1	125	146	14.1459
AUGGAAGAGUAAGCCUUCCAU	SeqCat03|160$1	su1	12	33	13.3976
GUAUCCCUGACCACGAAGCGG	SeqCat01|90$1	su1	162	183	8.8083
AUGGAAGAGUAAGCCUUCCAU	SeqCat03|149$1	su1	22	43	17.9018
AUGGAAGAGUAAGCCUUCCAU	SeqCat02|199$1	su1	30	51	17.9018
UGACGCAUUACGAGAGCGUCA	SeqCat01|75$1	su1	115	136	9.6754
AUGGAAGAGUAAGCCUUCCAU	SeqCat03|19$1	su1	33	54	16.0485
AUGGAAGAGUAAGCCUUCCAU	SeqCat02|116$1	su1	27	48	16.0485
AUGGAAGAGUAAGCCUUCCAU	SeqCat03|93$1	su1	4	25	17.9018
UGGUACUGAAAAGAGGUGCCU	SeqCat01|152$1	su1	60	81	14.3654
AUGGAAGAGUAAGCCUUCCAU	SeqCat03|162$1	su1	6	27	17.9018
AUGGAAGAGUAAGCCUUCCAU	SeqCat02|109$1	su1	18	39	16.0485
AUGGAAGAGUAAGCCUUCCAU	SeqCat03|47$1	su1	3	24	16.0485
AUGGAAGAGUAAGCCUUCCAU	SeqCat02|117$1	su1	14	35	17.9018
AUGGAAGAGUAAGCCUUCCAU	SeqCat03|113$1	su1	42	63	17.9018
AUGGAAGAGUAAGCCUUCCAU	SeqCat03|27$1	su1	42	63	17.9018
AUGGAAGAGUAAGCCUUCCAU	SeqCat02|196$1	su1	5	26	17.9018
AUGGAAGAGUAAGCCUUCCAU	SeqCat03|26$1	su1	22	43	17.9018
AUGGAAGAGUAAGCCUUCCAU	SeqCat03|56$1	su1	9	30	14.6206
AUGGAAGAGUAAGCCUUCCAU	SeqCat03|178$1	su1	5	26	16.0485
AUGGAAGAGUAAGCCUUCCAU	SeqCat02|23$1	su1	37	58	17.9018
AUGGAAGAGUAAGCCUUCCAU	SeqCat02|91$1	su1	15	36	17.9018
AUGGAAGAGUAAGCCUUCCAU	SeqCat03|79$1	su1	25	46	16.0485
AUGGAAGAGUAAGCCUUCCAU	SeqCat03|85$1	su1	37	58	17.9018
AUGGAAGAGUAAGCCUUCCAU	SeqCat03|132$1	su1	23	44	13.9166
AUGGAAGAGUAAGCCUUCCAU	SeqCat03|103$1	su1	41	62	17.9018
AUGGAAGAGUAAGCCUUCCAU	SeqCat03|139$1	su1	18	39	16.0485
AUGGAAGAGUAAGCCUUCCAU	SeqCat03|120$1	su1	33	54	17.9018
AUGGAAGAGUAAGCCUUCCAU	SeqCat02|185$1	su1	48	69	17.9018
GGGUCCCAACGCCAUGGACCU	SeqCat03|29$1	su1	130	151	11.1765
AUGGAAGAGUAAGCCUUCCAU	SeqCat03|7$1	su1	12	33	16.1482
AUGGAAGAGUAAGCCUUCCAU	SeqCat02|174$1	su1	3	24	17.9018
AUGGAAGAGUAAGCCUUCCAU	SeqCat02|131$1	su1	47	68	17.9018
AUACGUCAUUCGGAUUGACGU	SeqCat01|128$1	su1	163	184	10.8155
ACGCGUCAAAAUAGGACCUAA	SeqCat02|168$1	su1	117	138	15.0088
AUGGAAGAGUAAGCCUUCCAU	SeqCat02|183$1	su1	48	69	17.9018
AUGGAAGAGUAAGCCUUCCAU	SeqCat03|191$1	su1	4	25	12.3604
ACUUAUUGACUGUAAAUAAGU	SeqCat01|172$1	su1	140	161	17.9018
GAUCAUAAUUAACCUAUGAUU	SeqCat03|46$1	su1	96	117	17.9018
AUGGAAGAGUAAGCCUUCCAU	SeqCat03|34$1	su1	42	63	17.9018
AUGGAAGAGUAAGCCUUCCAU	SeqCat02|97$1	su1	46	67	16.0485
AUGGAAGAGUAAGCCUUCCAU	SeqCat02|151$1	su1	40	61	17.9018
GCUCGCUGGUCCUAAGAUAGU	SeqCat03|125$1	su1	77	98	13.5481
AUGGAAGAGUAAGCCUUCCAU	SeqCat03|110$1	su1	14	35	16.0485
AUGGAAGAGUAAGCCUUCCAU	SeqCat03|167$1	su1	14	35	16.0485
AUGGAAGAGUAAGCCUUCCAU	SeqCat02|82$1	su1	14	35	16.0485
AUGGAAGAGUAAGCCUUCCAU	SeqCat03|145$1	su1	7	28	11.5394
AUGGAAGAGUAAGCCUUCCAU	SeqCat03|50$1	su1	42	63	17.9018
AUGGAAGAGUAAGCCUUCCAU	SeqCat02|106$1	su1	11	32	17.9018
GUCGGGAGCUUUAGUCCAAAC	SeqCat01|88$1	su1	21	42	14.7996
AUGGAAGAGUAAGCCUUCCAU	SeqCat02|182$1	su1	30	51	16.0485
AUGGAAGAGUAAGCCUUCCAU	SeqCat02|195$1	su1	36	57	17.0061
AUGGAAGAGUAAGCCUUCCAU	SeqCat02|170$1	su1	43	64	17.9018
AUGGAAGAGUAAGCCUUCCAU	SeqCat02|52$1	su1	20	41	17.0061
GGCAUGCACAUUCAGCGUAUC	SeqCat01|169$1	su1	79	100	12.7678
UCCUUGGAUUGACCCCAUGGA	SeqCat01|94$1	su1	148	169	16.4983
AUGGAAGAGUAAGCCUUCCAU	SeqCat03|58$1	su1	44	65	17.9018
AUGGAAGAGUAAGCCUUCCAU	SeqCat02|198$1	su1	39	60	17.9018
UGGUCUGUACAACUCGGGCGC	SeqCat01|166$1	su1	45	66	13.8895
AUGGAAGAGUAAGCCUUCCAU	SeqCat02|142$1	su1	14	35	17.9018
AGACUGAGGCGCAGUCGGUCA	SeqCat02|119$1	su1	83	104	14.6206
CUUUAUGAAGACUGCAUAAUC	SeqCat03|114$1	su1	134	155	13.2513
AUGGAAGAGUAAGCCUUCCAU	SeqCat02|40$1	su1	15	36	17.9018
AUGGAAGAGUAAGCCUUCCAU	SeqCat03|87$1	su1	39	60	16.0485
AUGGAAGAGUAAGCCUUCCAU	SeqCat02|41$1	su1	22	43	17.9018
CAGUCCUACCCUCAAGGACAA	SeqCat01|127$1	su1	101	122	9.6520
AUACCCGGAAAGCGCGCGUAU	SeqCat01|49$1	su1	2	23	13.2755
AUGGAAGAGUAAGCCUUCCAU	SeqCat03|135$1	su1	30	51	17.9018
AUGGAAGAGUAAGCCUUCCAU	SeqCat02|45$1	su1	37	58	16.0485
AUGGAAGAGUAAGCCUUCCAU	SeqCat03|187$1	su1	8	29	17.9018
CGAAUGGAGCAGAGUCAUUCC	SeqCat01|55$1	su1	4	25	13.4695
AUGGAAGAGUAAGCCUUCCAU	SeqCat03|122$1	su1	1	22	17.9018

#PSSM
g : 0.52	h : 0.16	d : 0.05	c : 0.04	e : 0.03	! : 0.03	# : 0.02	: : 0.02	f : 0.02	E : 0.02	i : 0.02	" : 0.01	a : 0.01	+ : 0.01	= : 0.01	A : 0.01	
g : 0.52	h : 0.16	f : 0.10	d : 0.05	# : 0.02	! : 0.02	c : 0.02	i : 0.02	e : 0.02	b : 0.01	" : 0.01	= : 0.01	E : 0.01	: : 0.01	
g : 0.52	h : 0.16	f : 0.10	e : 0.06	d : 0.03	[ : 0.02	i : 0.02	b : 0.01	" : 0.01	# : 0.01	= : 0.01	a : 0.01	c : 0.01	! : 0.01	
g : 0.51	h : 0.16	f : 0.10	e : 0.06	[ : 0.04	! : 0.03	d : 0.03	i : 0.02	" : 0.01	b : 0.01	= : 0.01	
g : 0.51	h : 0.16	f : 0.10	c : 0.06	e : 0.05	d : 0.03	! : 0.02	i : 0.02	b : 0.01	= : 0.01	[ : 0.01	
g : 0.51	h : 0.16	f : 0.10	c : 0.06	e : 0.05	b : 0.03	r : 0.02	d : 0.02	i : 0.02	= : 0.01	
g : 0.51	h : 0.15	f : 0.09	c : 0.06	e : 0.05	r : 0.04	b : 0.03	d : 0.02	i : 0.02	= : 0.01	
p : 0.94	r : 0.04	f : 0.01	
p : 0.95	r : 0.04	
p : 0.95	r : 0.04	
p : 0.95	r : 0.04	
p : 0.95	r : 0.04	
p : 0.95	r : 0.04	
p : 0.95	r : 0.04	
g : 0.51	h : 0.15	f : 0.08	c : 0.06	e : 0.05	b : 0.04	d : 0.03	r : 0.02	i : 0.02	= : 0.01	p : 0.01	
g : 0.51	h : 0.16	f : 0.10	c : 0.06	e : 0.05	b : 0.04	d : 0.03	i : 0.02	= : 0.01	
g : 0.51	h : 0.16	f : 0.10	c : 0.06	e : 0.05	d : 0.03	2 : 0.02	] : 0.02	i : 0.02	= : 0.01	
g : 0.51	h : 0.16	f : 0.11	e : 0.06	2 : 0.04	d : 0.04	i : 0.02	b : 0.01	= : 0.01	a : 0.01	] : 0.01	
g : 0.52	h : 0.16	f : 0.12	e : 0.06	d : 0.03	2 : 0.02	i : 0.02	b : 0.01	3 : 0.01	= : 0.01	c : 0.01	] : 0.01	
g : 0.52	h : 0.16	f : 0.12	d : 0.05	e : 0.02	c : 0.02	i : 0.02	2 : 0.01	3 : 0.01	a : 0.01	= : 0.01	] : 0.01	4 : 0.01	: : 0.01	
g : 0.53	h : 0.16	d : 0.06	f : 0.05	e : 0.03	c : 0.03	: : 0.02	4 : 0.02	] : 0.02	i : 0.02	2 : 0.01	3 : 0.01	= : 0.01	B : 0.01	

#score	1558.7964551363154
#seq	97
#width	21
#escape	false
#onStep	15000
#minSteps	10000
#maxSteps	15000.0