::::bb"""ffffffmmmmffffff333bb::ddd	RF01051_AAEP01000046.1/103744-103828_bg$1	85	7	42	15.5615
::::bb"""ffffffmmmmffffff333bb::ddd	RF01051_CP000141.1/90445-90359_bg$1	87	7	42	15.5615
::::bb"""ffffffmmmmffffff333bb::ddd	RF01051_AP009179.1/1220413-1220339_bg$1	75	7	42	15.5615
::::bb"""ffffffmmmmffffff333bb::ddd	RF01051_AAAC01000001.1/914180-914264_bg$1	85	7	42	15.5615
::::bb"""ffffffmmmmffffff333bb::ddd	RF01051_ABAX03000005.1/232139-232052_bg$1	88	7	42	15.5615
::::bb"""ffffffmmmmffffff333bb::ddd	RF01051_AAEN01000023.1/138415-138499_bg$1	85	7	42	15.5615
eeee[bb[affffffmmmmffffff]a]bbeeeee	SeqCat01|60$1	185	140	175	31.2597
[a[dddd!!ffffffmmmmffffffdddda]a]ff	SeqCat01|32$1	185	118	153	17.2038
cbb[bb!!ffffffnnnnnffffffbb]bb]cccc	SeqCat03|29$1	170	47	82	15.8599
ffff[bb[affffffmmmmffffff]a]bbfffff	SeqCat01|5$1	185	55	90	28.8525
eeee[bb[affffffmmmmffffff]a]bbeeeee	SeqCat01|75$1	185	44	79	31.2597
eeee[bb[affffffmmmmffffff]a]bbeeeee	SeqCat01|141$1	185	103	138	31.2597
ffff[bb[affffffmmmmffffff]a]bbfffff	SeqCat01|80$1	185	71	106	28.8525
eeee[bb[affffffmmmmffffff]a]bbeeeee	SeqCat01|74$1	185	63	98	31.2597
eeee[bb[affffffmmmmffffff]a]bbeeeee	SeqCat01|153$1	185	37	72	31.2597
hhhh[bb[affffffmmmmffffff]a]bbhhhhh	SeqCat01|173$1	185	107	142	26.6418
dddd[bb[affffffmmmmffffff]a]bbdddd]	SeqCat01|193$1	185	69	104	27.5628
eeee[bb[affffffmmmmffffff]a]bbeeeee	SeqCat01|68$1	186	122	157	31.2597
e"""bbffffff[bbmmmmbbffffff]bb22eee	SeqCat01|22$1	185	43	78	18.1924
eeee[bb[affffffmmmmffffff]a]bbeeeee	SeqCat01|21$1	185	115	150	31.2597
eeee[bb[affffffmmmmffffff]a]bbeeeee	SeqCat01|72$1	185	140	175	31.2597
gggg[bb[affffffmmmmffffff]a]bbggggg	SeqCat01|16$1	185	85	120	28.7247
eeee[bb[affffffmmmmffffff]a]bbeeeee	SeqCat01|192$1	185	64	99	31.2597
eeee[bb[affffffmmmmffffff]a]bbeeeee	SeqCat01|127$1	185	133	168	31.2597
eeee[bb[affffffmmmmffffff]a]bbeeeee	SeqCat01|166$1	185	78	113	31.2597
eeee[bb[affffffmmmmffffff]a]bbeeeee	SeqCat01|28$1	185	38	73	31.2597
eeee[bb[affffffmmmmffffff]a]bbeeeee	SeqCat01|102$1	185	71	106	31.2597
gggg[bb[affffffmmmmffffff]a]bbggggg	SeqCat01|140$1	185	116	151	28.7247
eeee[bb[affffffmmmmffffff]a]bbeeeee	SeqCat01|39$1	185	114	149	31.2597
eeee[bb[affffffmmmmffffff]a]bbeeeee	SeqCat01|161$1	185	128	163	31.2597
eeee[bb[affffffmmmmffffff]a]bbeeeee	SeqCat01|152$1	185	102	137	31.2597
:bb!!bb[gggggggmmmmggggggg22bb22bb:	SeqCat02|190$1	170	29	64	14.2893
eeee[bb[affffffmmmmffffff]a]bbeeeee	SeqCat01|43$1	185	112	147	31.2597
eeee[bb[affffffmmmmffffff]a]bbeeeee	SeqCat01|128$1	185	117	152	31.2597
eeee[bb[affffffmmmmffffff]a]bbeeeee	SeqCat01|189$1	185	144	179	31.2597
ffff[bb[affffffmmmmffffff]a]bbfffff	SeqCat01|38$1	185	34	69	28.8525
ffff[bb[affffffmmmmffffff]a]bbfffff	SeqCat01|118$1	185	132	167	28.8525
eeee[bb[affffffmmmmffffff]a]bbeeeee	SeqCat01|98$1	185	107	142	31.2597
gggg[bb[affffffmmmmffffff]a]bbggggg	SeqCat01|49$1	185	85	120	28.7247
ffff[bb[affffffmmmmffffff]a]bbfffff	SeqCat01|62$1	185	47	82	28.8525
ffff[bb[affffffmmmmffffff]a]bbfffff	SeqCat01|71$1	185	103	138	28.8525
eeee[bb[affffffmmmmffffff]a]bbeeeee	SeqCat01|12$1	185	108	143	31.2597
gggg[bb[affffffmmmmffffff]a]bbggggg	SeqCat01|76$1	185	62	97	28.7247
gggg[bb[affffffmmmmffffff]a]bbggggg	SeqCat01|31$1	185	37	72	28.7247
eeee[bb[affffffmmmmffffff]a]bbeeeee	SeqCat01|36$1	185	75	110	31.2597
eeee[bb[affffffmmmmffffff]a]bbeeeee	SeqCat01|175$1	185	46	81	31.2597
eeee[bb[affffffmmmmffffff]a]bbeeeee	SeqCat01|143$1	185	90	125	31.2597
gggg[bb[affffffmmmmffffff]a]bbggggg	SeqCat01|55$1	185	147	182	28.7247
eeee[bb[affffffmmmmffffff]a]bbeeeee	SeqCat01|25$1	185	97	132	31.2597
ffff[bb[affffffmmmmffffff]a]bbfffff	SeqCat01|115$1	185	126	161	28.8525
ffff[bb[affffffmmmmffffff]a]bbfffff	SeqCat01|138$1	185	82	117	28.8525
eeee[bb[affffffmmmmffffff]a]bbeeeee	SeqCat01|90$1	185	90	125	31.2597
eeee[bb[affffffmmmmffffff]a]bbeeeee	SeqCat01|18$1	185	73	108	31.2597
eeee[bb[affffffmmmmffffff]a]bbeeeee	SeqCat01|44$1	185	111	146	31.2597
eeeeeaeeeee[cccmmmmccceeeee]a]eeeee	SeqCat02|91$1	170	66	101	14.7306
ffff[bb[affffffmmmmffffff]a]bbfffff	SeqCat01|95$1	185	78	113	28.8525
ffffff[cccfffffflllffffff]cccffffff	SeqCat03|34$1	170	78	113	15.9081
eeee[bb[affffffmmmmffffff]a]bbeeeee	SeqCat01|124$1	185	112	147	31.2597
ffff[bb[affffffmmmmffffff]a]bbfffff	SeqCat01|158$1	185	149	184	28.8525
eeee[bb[affffffmmmmffffff]a]bbeeeee	SeqCat01|88$1	185	97	132	31.2597
ccbb[bb[ffffffmmmmffffff22bb]bb]ccc	SeqCat01|186$1	185	94	129	16.8687
eeee[bb[affffffmmmmffffff]a]bbeeeee	SeqCat01|54$1	185	31	66	31.2597
eeee[bb[affffffmmmmffffff]a]bbeeeee	SeqCat01|172$1	185	71	106	31.2597
ffff[bb[affffffmmmmffffff]a]bbfffff	SeqCat01|99$1	185	103	138	28.8525
eeee[bb[affffffmmmmffffff]a]bbeeeee	SeqCat01|121$1	185	49	84	31.2597

#otherMatches

#Seq PSSM
ACGUACUUCAUAGGAUCAUUUCUAUAGUAGACGUC	SeqCat01|60$1	su1	140	175	31.2597
ACGUACUUCAUAGGAUCAUUUCUAUAGUAGACGUC	SeqCat01|32$1	su1	118	153	17.2038
AAGAGUAAGCCUUCCAUGCGAAGGCACCCUAUCCC	SeqCat03|29$1	su1	47	82	15.8599
ACGUACUUCAUAGGAUCAUUUCUAUAGUAGACGUC	SeqCat01|5$1	su1	55	90	28.8525
ACGUACUUCAUAGGAUCAUUUCUAUAGUAGACGUC	SeqCat01|75$1	su1	44	79	31.2597
ACGUACUUCAUAGGAUCAUUUCUAUAGUAGACGUC	SeqCat01|141$1	su1	103	138	31.2597
ACGUACUUCAUAGGAUCAUUUCUAUAGUAGACGUC	SeqCat01|80$1	su1	71	106	28.8525
ACGUACUUCAUAGGAUCAUUUCUAUAGUAGACGUC	SeqCat01|74$1	su1	63	98	31.2597
ACGUACUUCAUAGGAUCAUUUCUAUAGUAGACGUC	SeqCat01|153$1	su1	37	72	31.2597
ACGUACUUCAUAGGAUCAUUUCUAUAGUAGACGUC	SeqCat01|173$1	su1	107	142	26.6418
ACGUACUUCAUAGGAUCAUUUCUAUAGUAGACGUC	SeqCat01|193$1	su1	69	104	27.5628
ACGUACUUCAUAGGAUCAUUUCUAUAGUAGACGUC	SeqCat01|68$1	su1	122	157	31.2597
GCACUCUUCGGAACAGAAAUGUCCGGAUGAACCGA	SeqCat01|22$1	su1	43	78	18.1924
ACGUACUUCAUAGGAUCAUUUCUAUAGUAGACGUC	SeqCat01|21$1	su1	115	150	31.2597
ACGUACUUCAUAGGAUCAUUUCUAUAGUAGACGUC	SeqCat01|72$1	su1	140	175	31.2597
ACGUACUUCAUAGGAUCAUUUCUAUAGUAGACGUC	SeqCat01|16$1	su1	85	120	28.7247
ACGUACUUCAUAGGAUCAUUUCUAUAGUAGACGUC	SeqCat01|192$1	su1	64	99	31.2597
ACGUACUUCAUAGGAUCAUUUCUAUAGUAGACGUC	SeqCat01|127$1	su1	133	168	31.2597
ACGUACUUCAUAGGAUCAUUUCUAUAGUAGACGUC	SeqCat01|166$1	su1	78	113	31.2597
ACGUACUUCAUAGGAUCAUUUCUAUAGUAGACGUC	SeqCat01|28$1	su1	38	73	31.2597
ACGUACUUCAUAGGAUCAUUUCUAUAGUAGACGUC	SeqCat01|102$1	su1	71	106	31.2597
ACGUACUUCAUAGGAUCAUUUCUAUAGUAGACGUC	SeqCat01|140$1	su1	116	151	28.7247
ACGUACUUCAUAGGAUCAUUUCUAUAGUAGACGUC	SeqCat01|39$1	su1	114	149	31.2597
ACGUACUUCAUAGGAUCAUUUCUAUAGUAGACGUC	SeqCat01|161$1	su1	128	163	31.2597
ACGUACUUCAUAGGAUCAUUUCUAUAGUAGACGUC	SeqCat01|152$1	su1	102	137	31.2597
AUCAACCGCCCGGGGUAAUCUCCGGGAAGGGCGAG	SeqCat02|190$1	su1	29	64	14.2893
ACGUACUUCAUAGGAUCAUUUCUAUAGUAGACGUC	SeqCat01|43$1	su1	112	147	31.2597
ACGUACUUCAUAGGAUCAUUUCUAUAGUAGACGUC	SeqCat01|128$1	su1	117	152	31.2597
ACGUACUUCAUAGGAUCAUUUCUAUAGUAGACGUC	SeqCat01|189$1	su1	144	179	31.2597
ACGUACUUCAUAGGAUCAUUUCUAUAGUAGACGUC	SeqCat01|38$1	su1	34	69	28.8525
ACGUACUUCAUAGGAUCAUUUCUAUAGUAGACGUC	SeqCat01|118$1	su1	132	167	28.8525
ACGUACUUCAUAGGAUCAUUUCUAUAGUAGACGUC	SeqCat01|98$1	su1	107	142	31.2597
ACGUACUUCAUAGGAUCAUUUCUAUAGUAGACGUC	SeqCat01|49$1	su1	85	120	28.7247
ACGUACUUCAUAGGAUCAUUUCUAUAGUAGACGUC	SeqCat01|62$1	su1	47	82	28.8525
ACGUACUUCAUAGGAUCAUUUCUAUAGUAGACGUC	SeqCat01|71$1	su1	103	138	28.8525
ACGUACUUCAUAGGAUCAUUUCUAUAGUAGACGUC	SeqCat01|12$1	su1	108	143	31.2597
ACGUACUUCAUAGGAUCAUUUCUAUAGUAGACGUC	SeqCat01|76$1	su1	62	97	28.7247
ACGUACUUCAUAGGAUCAUUUCUAUAGUAGACGUC	SeqCat01|31$1	su1	37	72	28.7247
ACGUACUUCAUAGGAUCAUUUCUAUAGUAGACGUC	SeqCat01|36$1	su1	75	110	31.2597
ACGUACUUCAUAGGAUCAUUUCUAUAGUAGACGUC	SeqCat01|175$1	su1	46	81	31.2597
ACGUACUUCAUAGGAUCAUUUCUAUAGUAGACGUC	SeqCat01|143$1	su1	90	125	31.2597
ACGUACUUCAUAGGAUCAUUUCUAUAGUAGACGUC	SeqCat01|55$1	su1	147	182	28.7247
ACGUACUUCAUAGGAUCAUUUCUAUAGUAGACGUC	SeqCat01|25$1	su1	97	132	31.2597
ACGUACUUCAUAGGAUCAUUUCUAUAGUAGACGUC	SeqCat01|115$1	su1	126	161	28.8525
ACGUACUUCAUAGGAUCAUUUCUAUAGUAGACGUC	SeqCat01|138$1	su1	82	117	28.8525
ACGUACUUCAUAGGAUCAUUUCUAUAGUAGACGUC	SeqCat01|90$1	su1	90	125	31.2597
ACGUACUUCAUAGGAUCAUUUCUAUAGUAGACGUC	SeqCat01|18$1	su1	73	108	31.2597
ACGUACUUCAUAGGAUCAUUUCUAUAGUAGACGUC	SeqCat01|44$1	su1	111	146	31.2597
UAUUCGAGGACAGCAGUUAUGCGUCCUGCAGAAUG	SeqCat02|91$1	su1	66	101	14.7306
ACGUACUUCAUAGGAUCAUUUCUAUAGUAGACGUC	SeqCat01|95$1	su1	78	113	28.8525
AGUGCCUGUCUGGUGUACUACACUACGAUGGCAUU	SeqCat03|34$1	su1	78	113	15.9081
ACGUACUUCAUAGGAUCAUUUCUAUAGUAGACGUC	SeqCat01|124$1	su1	112	147	31.2597
ACGUACUUCAUAGGAUCAUUUCUAUAGUAGACGUC	SeqCat01|158$1	su1	149	184	28.8525
ACGUACUUCAUAGGAUCAUUUCUAUAGUAGACGUC	SeqCat01|88$1	su1	97	132	31.2597
GGCAUAGUUCAGCAGUGGUGCUGGUUCUUUGACCA	SeqCat01|186$1	su1	94	129	16.8687
ACGUACUUCAUAGGAUCAUUUCUAUAGUAGACGUC	SeqCat01|54$1	su1	31	66	31.2597
ACGUACUUCAUAGGAUCAUUUCUAUAGUAGACGUC	SeqCat01|172$1	su1	71	106	31.2597
ACGUACUUCAUAGGAUCAUUUCUAUAGUAGACGUC	SeqCat01|99$1	su1	103	138	28.8525
ACGUACUUCAUAGGAUCAUUUCUAUAGUAGACGUC	SeqCat01|121$1	su1	49	84	31.2597

#PSSM
e : 0.53	f : 0.18	: : 0.10	g : 0.09	c : 0.03	[ : 0.01	h : 0.01	d : 0.01	
e : 0.52	f : 0.18	: : 0.09	g : 0.09	b : 0.03	a : 0.01	h : 0.01	d : 0.01	" : 0.01	c : 0.01	
e : 0.52	f : 0.18	: : 0.09	g : 0.09	b : 0.04	[ : 0.01	h : 0.01	d : 0.01	" : 0.01	
e : 0.52	f : 0.18	: : 0.09	g : 0.09	d : 0.03	[ : 0.01	h : 0.01	" : 0.01	! : 0.01	b : 0.01	
[ : 0.81	b : 0.12	d : 0.01	! : 0.01	e : 0.01	f : 0.01	
b : 0.95	d : 0.01	a : 0.01	f : 0.01	
b : 0.83	" : 0.09	d : 0.01	! : 0.01	f : 0.01	e : 0.01	[ : 0.01	
[ : 0.83	" : 0.09	! : 0.03	f : 0.01	e : 0.01	c : 0.01	
a : 0.79	" : 0.09	f : 0.04	! : 0.01	g : 0.01	e : 0.01	c : 0.01	
f : 0.95	g : 0.01	e : 0.01	c : 0.01	
f : 0.96	g : 0.01	e : 0.01	
f : 0.96	g : 0.01	[ : 0.01	
f : 0.95	[ : 0.01	g : 0.01	c : 0.01	
f : 0.95	b : 0.01	g : 0.01	c : 0.01	
f : 0.92	n : 0.01	b : 0.01	g : 0.01	c : 0.01	m : 0.01	
m : 0.96	n : 0.01	f : 0.01	
m : 0.96	n : 0.01	l : 0.01	
m : 0.96	n : 0.01	l : 0.01	
m : 0.95	n : 0.01	l : 0.01	f : 0.01	
f : 0.95	b : 0.01	g : 0.01	c : 0.01	
f : 0.95	b : 0.01	g : 0.01	c : 0.01	
f : 0.96	g : 0.01	c : 0.01	
f : 0.96	g : 0.01	e : 0.01	
f : 0.96	g : 0.01	e : 0.01	
f : 0.95	g : 0.01	e : 0.01	2 : 0.01	
] : 0.81	3 : 0.09	d : 0.01	b : 0.01	f : 0.01	g : 0.01	e : 0.01	2 : 0.01	
a : 0.79	3 : 0.09	b : 0.03	d : 0.01	f : 0.01	2 : 0.01	e : 0.01	c : 0.01	
] : 0.84	3 : 0.09	d : 0.01	2 : 0.01	c : 0.01	b : 0.01	
b : 0.93	d : 0.01	a : 0.01	c : 0.01	] : 0.01	
b : 0.95	a : 0.01	] : 0.01	f : 0.01	
e : 0.52	f : 0.18	: : 0.09	g : 0.09	] : 0.03	2 : 0.03	h : 0.01	d : 0.01	b : 0.01	
e : 0.52	f : 0.18	: : 0.09	g : 0.09	2 : 0.03	a : 0.01	c : 0.01	h : 0.01	d : 0.01	] : 0.01	
e : 0.53	f : 0.18	d : 0.10	g : 0.09	c : 0.03	] : 0.01	h : 0.01	b : 0.01	
e : 0.53	f : 0.20	d : 0.10	g : 0.09	c : 0.03	h : 0.01	b : 0.01	
e : 0.53	f : 0.20	d : 0.09	g : 0.09	c : 0.03	h : 0.01	] : 0.01	: : 0.01	

#score	0.0
#seq	65
#width	35
#escape	true
#onStep	-1
#minSteps	-1
#maxSteps	-1