::::bb"""ffffffmmmmffffff333bb::ddd	RF01051_CP000001.1/414665-414749_bg$1	85	7	42	15.3955
::::bb"""ffffffmmmmffffff333bb::ddd	RF01051_BA000016.3/1510292-1510209_bg$1	84	7	42	15.3955
::::bb"""ffffffmmmmffffff333bb::ddd	RF01051_CP001215.1/397645-397729_bg$1	85	7	42	15.3955
::::bb"""ffffffmmmmffffff333bb::ddd	RF01051_AE016879.1/397292-397376_bg$1	85	7	42	15.3955
::::bb"""ffffffmmmmffffff333bb::ddd	RF01051_AAES01000043.1/103414-103498_bg$1	85	7	42	15.3955
::::bb"""ffffffmmmmffffff333bb::ddd	RF01051_AP009179.1/1220413-1220339_bg$1	75	7	42	15.3955
::::bb"""ffffffmmmmffffff333bb::ddd	RF01051_ABDX01000004.1/24814-24897_bg$1	84	7	42	15.3955
::::bb"""ffffffmmmmffffff333bb::ddd	RF01051_AE017355.1/421273-421357_bg$1	85	7	42	15.3955
cbb[bb!!ffffffnnnnnffffffbb]bb]cccc	SeqCat03|29$1	170	47	82	15.6682
eeee[bb[affffffmmmmffffff]a]bbeeeee	SeqCat01|128$1	185	117	152	30.7336
c22dddddddd!!ffffffmmmmffffffddddgg	SeqCat01|94$1	185	111	146	17.3299
ffff[bb[affffffmmmmffffff]a]bbfffff	SeqCat01|38$1	185	34	69	28.4336
hhhh[bb[affffffmmmmffffff]a]bbhhhhh	SeqCat01|173$1	185	107	142	26.0992
ffff[bb[affffffmmmmffffff]a]bbfffff	SeqCat01|5$1	185	55	90	28.4336
eeee[bb[affffffmmmmffffff]a]bbeeeee	SeqCat01|75$1	185	44	79	30.7336
ffff[bb[affffffmmmmffffff]a]bbfffff	SeqCat01|71$1	185	103	138	28.4336
dddd[bb[affffffmmmmffffff]a]bbdddd]	SeqCat01|193$1	185	69	104	27.1007
eee[ccc[ccc[cccmmmmccc333ccc]ccc]ee	SeqCat03|86$1	170	117	152	13.4055
eeee[bb[affffffmmmmffffff]a]bbeeeee	SeqCat01|152$1	185	102	137	30.7336
eeee[bb[affffffmmmmffffff]a]bbeeeee	SeqCat01|189$1	185	144	179	30.7336
eeee[bb[affffffmmmmffffff]a]bbeeeee	SeqCat01|21$1	185	115	150	30.7336
ffff[bb[affffffmmmmffffff]a]bbfffff	SeqCat01|95$1	185	78	113	28.4336
gggg[bb[affffffmmmmffffff]a]bbggggg	SeqCat01|140$1	185	116	151	28.2930
[a[dddd!!ffffffmmmmffffffdddda]a]ff	SeqCat01|32$1	185	118	153	17.4654
eeee[bb[affffffmmmmffffff]a]bbeeeee	SeqCat01|72$1	185	140	175	30.7336
eeee[bb[affffffmmmmffffff]a]bbeeeee	SeqCat01|161$1	185	128	163	30.7336
eeee[bb[affffffmmmmffffff]a]bbeeeee	SeqCat01|36$1	185	75	110	30.7336
gggg[bb[affffffmmmmffffff]a]bbggggg	SeqCat01|31$1	185	37	72	28.2930
eeee[bb[affffffmmmmffffff]a]bbeeeee	SeqCat01|90$1	185	90	125	30.7336
ffff[bb[affffffmmmmffffff]a]bbfffff	SeqCat01|80$1	185	71	106	28.4336
eeee[bb[affffffmmmmffffff]a]bbeeeee	SeqCat01|192$1	185	64	99	30.7336
eeee[bb[affffffmmmmffffff]a]bbeeeee	SeqCat01|68$1	186	122	157	30.7336
eeee[bb[affffffmmmmffffff]a]bbeeeee	SeqCat01|143$1	185	90	125	30.7336
eeee[bb[affffffmmmmffffff]a]bbeeeee	SeqCat01|127$1	185	133	168	30.7336
:bb!!bb[gggggggmmmmggggggg22bb22bb:	SeqCat02|190$1	170	29	64	14.1149
eeee[bb[affffffmmmmffffff]a]bbeeeee	SeqCat01|166$1	185	78	113	30.7336
eeee[bb[affffffmmmmffffff]a]bbeeeee	SeqCat01|153$1	185	37	72	30.7336
eeee[bb[affffffmmmmffffff]a]bbeeeee	SeqCat01|124$1	185	112	147	30.7336
ffff[bb[affffffmmmmffffff]a]bbfffff	SeqCat01|62$1	185	47	82	28.4336
ffff[bb[affffffmmmmffffff]a]bbfffff	SeqCat01|99$1	185	103	138	28.4336
eeee[bb[affffffmmmmffffff]a]bbeeeee	SeqCat01|18$1	185	73	108	30.7336
eeeeeaeeeee[cccmmmmccceeeee]a]eeeee	SeqCat02|91$1	170	66	101	14.7166
ffff[bb[affffffmmmmffffff]a]bbfffff	SeqCat01|158$1	185	149	184	28.4336
eeee[bb[affffffmmmmffffff]a]bbeeeee	SeqCat01|121$1	185	49	84	30.7336
eeee[bb[affffffmmmmffffff]a]bbeeeee	SeqCat01|88$1	185	97	132	30.7336
ffff[bb[affffffmmmmffffff]a]bbfffff	SeqCat01|138$1	185	82	117	28.4336
eeee[bb[affffffmmmmffffff]a]bbeeeee	SeqCat01|13$1	185	92	127	30.7336
eeee[bb[affffffmmmmffffff]a]bbeeeee	SeqCat01|102$1	185	71	106	30.7336
eeee[bb[affffffmmmmffffff]a]bbeeeee	SeqCat01|74$1	185	63	98	30.7336
gggg[bb[affffffmmmmffffff]a]bbggggg	SeqCat01|76$1	185	62	97	28.2930
gggg[bb[affffffmmmmffffff]a]bbggggg	SeqCat01|16$1	185	85	120	28.2930
ffff[bb[affffffmmmmffffff]a]bbfffff	SeqCat01|51$1	185	44	79	28.4336
e"""bbffffff[bbmmmmbbffffff]bb22eee	SeqCat01|22$1	185	43	78	18.0205
eeee[bb[affffffmmmmffffff]a]bbeeeee	SeqCat01|28$1	185	38	73	30.7336
ccbb[bb[ffffffmmmmffffff22bb]bb]ccc	SeqCat01|186$1	185	94	129	16.6620
gggg[bb[affffffmmmmffffff]a]bbggggg	SeqCat01|146$1	185	113	148	28.2930
eeee[bb[affffffmmmmffffff]a]bbeeeee	SeqCat01|39$1	185	114	149	30.7336
eeee[bb[affffffmmmmffffff]a]bbeeeee	SeqCat01|43$1	185	112	147	30.7336
eeee[bb[affffffmmmmffffff]a]bbeeeee	SeqCat01|175$1	185	46	81	30.7336
eeee[bb[affffffmmmmffffff]a]bbeeeee	SeqCat01|25$1	185	97	132	30.7336
ffffff[cccfffffflllffffff]cccffffff	SeqCat03|34$1	170	78	113	15.8489
eeee[bb[affffffmmmmffffff]a]bbeeeee	SeqCat01|172$1	185	71	106	30.7336
gggg[bb[affffffmmmmffffff]a]bbggggg	SeqCat01|55$1	185	147	182	28.2930
ffff[bb[affffffmmmmffffff]a]bbfffff	SeqCat01|115$1	185	126	161	28.4336
eeee[bb[affffffmmmmffffff]a]bbeeeee	SeqCat01|98$1	185	107	142	30.7336
eeee[bb[affffffmmmmffffff]a]bbeeeee	SeqCat01|54$1	185	31	66	30.7336
eeee[bb[affffffmmmmffffff]a]bbeeeee	SeqCat01|12$1	185	108	143	30.7336
gggg[bb[affffffmmmmffffff]a]bbggggg	SeqCat01|49$1	185	85	120	28.2930
eeee[bb[affffffmmmmffffff]a]bbeeeee	SeqCat01|44$1	185	111	146	30.7336
ffff[bb[affffffmmmmffffff]a]bbfffff	SeqCat01|118$1	185	132	167	28.4336
eeee[bb[affffffmmmmffffff]a]bbeeeee	SeqCat01|60$1	185	140	175	30.7336

#otherMatches

#Seq PSSM
AAGAGUAAGCCUUCCAUGCGAAGGCACCCUAUCCC	SeqCat03|29$1	su1	47	82	15.6682
ACGUACUUCAUAGGAUCAUUUCUAUAGUAGACGUC	SeqCat01|128$1	su1	117	152	30.7336
CGAGACGUACUUCAUAGGAUCAUUUCUAUAGUAGA	SeqCat01|94$1	su1	111	146	17.3299
ACGUACUUCAUAGGAUCAUUUCUAUAGUAGACGUC	SeqCat01|38$1	su1	34	69	28.4336
ACGUACUUCAUAGGAUCAUUUCUAUAGUAGACGUC	SeqCat01|173$1	su1	107	142	26.0992
ACGUACUUCAUAGGAUCAUUUCUAUAGUAGACGUC	SeqCat01|5$1	su1	55	90	28.4336
ACGUACUUCAUAGGAUCAUUUCUAUAGUAGACGUC	SeqCat01|75$1	su1	44	79	30.7336
ACGUACUUCAUAGGAUCAUUUCUAUAGUAGACGUC	SeqCat01|71$1	su1	103	138	28.4336
ACGUACUUCAUAGGAUCAUUUCUAUAGUAGACGUC	SeqCat01|193$1	su1	69	104	27.1007
UCUGACUUACCACAUAUGAAUGAUCGGUUGGUGAG	SeqCat03|86$1	su1	117	152	13.4055
ACGUACUUCAUAGGAUCAUUUCUAUAGUAGACGUC	SeqCat01|152$1	su1	102	137	30.7336
ACGUACUUCAUAGGAUCAUUUCUAUAGUAGACGUC	SeqCat01|189$1	su1	144	179	30.7336
ACGUACUUCAUAGGAUCAUUUCUAUAGUAGACGUC	SeqCat01|21$1	su1	115	150	30.7336
ACGUACUUCAUAGGAUCAUUUCUAUAGUAGACGUC	SeqCat01|95$1	su1	78	113	28.4336
ACGUACUUCAUAGGAUCAUUUCUAUAGUAGACGUC	SeqCat01|140$1	su1	116	151	28.2930
ACGUACUUCAUAGGAUCAUUUCUAUAGUAGACGUC	SeqCat01|32$1	su1	118	153	17.4654
ACGUACUUCAUAGGAUCAUUUCUAUAGUAGACGUC	SeqCat01|72$1	su1	140	175	30.7336
ACGUACUUCAUAGGAUCAUUUCUAUAGUAGACGUC	SeqCat01|161$1	su1	128	163	30.7336
ACGUACUUCAUAGGAUCAUUUCUAUAGUAGACGUC	SeqCat01|36$1	su1	75	110	30.7336
ACGUACUUCAUAGGAUCAUUUCUAUAGUAGACGUC	SeqCat01|31$1	su1	37	72	28.2930
ACGUACUUCAUAGGAUCAUUUCUAUAGUAGACGUC	SeqCat01|90$1	su1	90	125	30.7336
ACGUACUUCAUAGGAUCAUUUCUAUAGUAGACGUC	SeqCat01|80$1	su1	71	106	28.4336
ACGUACUUCAUAGGAUCAUUUCUAUAGUAGACGUC	SeqCat01|192$1	su1	64	99	30.7336
ACGUACUUCAUAGGAUCAUUUCUAUAGUAGACGUC	SeqCat01|68$1	su1	122	157	30.7336
ACGUACUUCAUAGGAUCAUUUCUAUAGUAGACGUC	SeqCat01|143$1	su1	90	125	30.7336
ACGUACUUCAUAGGAUCAUUUCUAUAGUAGACGUC	SeqCat01|127$1	su1	133	168	30.7336
AUCAACCGCCCGGGGUAAUCUCCGGGAAGGGCGAG	SeqCat02|190$1	su1	29	64	14.1149
ACGUACUUCAUAGGAUCAUUUCUAUAGUAGACGUC	SeqCat01|166$1	su1	78	113	30.7336
ACGUACUUCAUAGGAUCAUUUCUAUAGUAGACGUC	SeqCat01|153$1	su1	37	72	30.7336
ACGUACUUCAUAGGAUCAUUUCUAUAGUAGACGUC	SeqCat01|124$1	su1	112	147	30.7336
ACGUACUUCAUAGGAUCAUUUCUAUAGUAGACGUC	SeqCat01|62$1	su1	47	82	28.4336
ACGUACUUCAUAGGAUCAUUUCUAUAGUAGACGUC	SeqCat01|99$1	su1	103	138	28.4336
ACGUACUUCAUAGGAUCAUUUCUAUAGUAGACGUC	SeqCat01|18$1	su1	73	108	30.7336
UAUUCGAGGACAGCAGUUAUGCGUCCUGCAGAAUG	SeqCat02|91$1	su1	66	101	14.7166
ACGUACUUCAUAGGAUCAUUUCUAUAGUAGACGUC	SeqCat01|158$1	su1	149	184	28.4336
ACGUACUUCAUAGGAUCAUUUCUAUAGUAGACGUC	SeqCat01|121$1	su1	49	84	30.7336
ACGUACUUCAUAGGAUCAUUUCUAUAGUAGACGUC	SeqCat01|88$1	su1	97	132	30.7336
ACGUACUUCAUAGGAUCAUUUCUAUAGUAGACGUC	SeqCat01|138$1	su1	82	117	28.4336
ACGUACUUCAUAGGAUCAUUUCUAUAGUAGACGUC	SeqCat01|13$1	su1	92	127	30.7336
ACGUACUUCAUAGGAUCAUUUCUAUAGUAGACGUC	SeqCat01|102$1	su1	71	106	30.7336
ACGUACUUCAUAGGAUCAUUUCUAUAGUAGACGUC	SeqCat01|74$1	su1	63	98	30.7336
ACGUACUUCAUAGGAUCAUUUCUAUAGUAGACGUC	SeqCat01|76$1	su1	62	97	28.2930
ACGUACUUCAUAGGAUCAUUUCUAUAGUAGACGUC	SeqCat01|16$1	su1	85	120	28.2930
ACGUACUUCAUAGGAUCAUUUCUAUAGUAGACGUC	SeqCat01|51$1	su1	44	79	28.4336
GCACUCUUCGGAACAGAAAUGUCCGGAUGAACCGA	SeqCat01|22$1	su1	43	78	18.0205
ACGUACUUCAUAGGAUCAUUUCUAUAGUAGACGUC	SeqCat01|28$1	su1	38	73	30.7336
GGCAUAGUUCAGCAGUGGUGCUGGUUCUUUGACCA	SeqCat01|186$1	su1	94	129	16.6620
ACGUACUUCAUAGGAUCAUUUCUAUAGUAGACGUC	SeqCat01|146$1	su1	113	148	28.2930
ACGUACUUCAUAGGAUCAUUUCUAUAGUAGACGUC	SeqCat01|39$1	su1	114	149	30.7336
ACGUACUUCAUAGGAUCAUUUCUAUAGUAGACGUC	SeqCat01|43$1	su1	112	147	30.7336
ACGUACUUCAUAGGAUCAUUUCUAUAGUAGACGUC	SeqCat01|175$1	su1	46	81	30.7336
ACGUACUUCAUAGGAUCAUUUCUAUAGUAGACGUC	SeqCat01|25$1	su1	97	132	30.7336
AGUGCCUGUCUGGUGUACUACACUACGAUGGCAUU	SeqCat03|34$1	su1	78	113	15.8489
ACGUACUUCAUAGGAUCAUUUCUAUAGUAGACGUC	SeqCat01|172$1	su1	71	106	30.7336
ACGUACUUCAUAGGAUCAUUUCUAUAGUAGACGUC	SeqCat01|55$1	su1	147	182	28.2930
ACGUACUUCAUAGGAUCAUUUCUAUAGUAGACGUC	SeqCat01|115$1	su1	126	161	28.4336
ACGUACUUCAUAGGAUCAUUUCUAUAGUAGACGUC	SeqCat01|98$1	su1	107	142	30.7336
ACGUACUUCAUAGGAUCAUUUCUAUAGUAGACGUC	SeqCat01|54$1	su1	31	66	30.7336
ACGUACUUCAUAGGAUCAUUUCUAUAGUAGACGUC	SeqCat01|12$1	su1	108	143	30.7336
ACGUACUUCAUAGGAUCAUUUCUAUAGUAGACGUC	SeqCat01|49$1	su1	85	120	28.2930
ACGUACUUCAUAGGAUCAUUUCUAUAGUAGACGUC	SeqCat01|44$1	su1	111	146	30.7336
ACGUACUUCAUAGGAUCAUUUCUAUAGUAGACGUC	SeqCat01|118$1	su1	132	167	28.4336
ACGUACUUCAUAGGAUCAUUUCUAUAGUAGACGUC	SeqCat01|60$1	su1	140	175	30.7336

#PSSM
e : 0.50	f : 0.18	: : 0.12	g : 0.09	c : 0.04	h : 0.01	d : 0.01	[ : 0.01	
e : 0.49	f : 0.18	: : 0.11	g : 0.09	b : 0.02	2 : 0.01	h : 0.01	d : 0.01	a : 0.01	" : 0.01	c : 0.01	
e : 0.49	f : 0.18	: : 0.11	g : 0.09	b : 0.04	2 : 0.01	h : 0.01	d : 0.01	[ : 0.01	" : 0.01	
e : 0.47	f : 0.18	: : 0.11	g : 0.09	d : 0.04	[ : 0.02	h : 0.01	! : 0.01	" : 0.01	b : 0.01	
[ : 0.77	b : 0.14	d : 0.02	c : 0.01	! : 0.01	e : 0.01	f : 0.01	
b : 0.92	d : 0.02	c : 0.01	a : 0.01	f : 0.01	
b : 0.78	" : 0.11	d : 0.02	! : 0.01	c : 0.01	e : 0.01	f : 0.01	[ : 0.01	
[ : 0.80	" : 0.11	! : 0.02	d : 0.01	e : 0.01	f : 0.01	c : 0.01	
a : 0.76	" : 0.11	f : 0.04	c : 0.02	d : 0.01	! : 0.01	g : 0.01	e : 0.01	
f : 0.92	c : 0.02	d : 0.01	g : 0.01	e : 0.01	
f : 0.94	d : 0.01	c : 0.01	g : 0.01	e : 0.01	
f : 0.94	[ : 0.02	! : 0.01	g : 0.01	
f : 0.92	c : 0.02	! : 0.01	g : 0.01	[ : 0.01	
f : 0.94	c : 0.02	g : 0.01	b : 0.01	
f : 0.91	c : 0.02	n : 0.01	g : 0.01	b : 0.01	m : 0.01	
m : 0.95	f : 0.02	n : 0.01	
m : 0.95	n : 0.01	f : 0.01	l : 0.01	
m : 0.95	n : 0.01	f : 0.01	l : 0.01	
m : 0.94	f : 0.02	n : 0.01	l : 0.01	
f : 0.92	c : 0.02	m : 0.01	g : 0.01	b : 0.01	
f : 0.92	c : 0.02	m : 0.01	g : 0.01	b : 0.01	
f : 0.94	c : 0.02	m : 0.01	g : 0.01	
f : 0.94	m : 0.01	3 : 0.01	g : 0.01	e : 0.01	
f : 0.95	3 : 0.01	g : 0.01	e : 0.01	
f : 0.94	3 : 0.01	g : 0.01	e : 0.01	2 : 0.01	
] : 0.77	3 : 0.11	f : 0.02	b : 0.01	c : 0.01	d : 0.01	g : 0.01	e : 0.01	2 : 0.01	
a : 0.76	3 : 0.11	b : 0.02	f : 0.02	c : 0.02	d : 0.01	2 : 0.01	e : 0.01	
] : 0.80	3 : 0.11	c : 0.02	f : 0.01	d : 0.01	2 : 0.01	b : 0.01	
b : 0.91	] : 0.02	f : 0.01	d : 0.01	a : 0.01	c : 0.01	
b : 0.92	d : 0.01	c : 0.01	a : 0.01	] : 0.01	f : 0.01	
e : 0.47	f : 0.18	: : 0.11	g : 0.09	] : 0.02	d : 0.02	2 : 0.02	h : 0.01	c : 0.01	b : 0.01	
e : 0.47	f : 0.18	: : 0.11	g : 0.09	c : 0.02	d : 0.02	2 : 0.02	h : 0.01	a : 0.01	] : 0.01	
e : 0.49	f : 0.18	d : 0.14	g : 0.09	c : 0.02	] : 0.02	h : 0.01	b : 0.01	
e : 0.50	f : 0.19	d : 0.12	g : 0.11	c : 0.02	h : 0.01	b : 0.01	
e : 0.50	f : 0.19	d : 0.11	g : 0.11	c : 0.02	h : 0.01	] : 0.01	: : 0.01	

#score	0.0
#seq	71
#width	35
#escape	true
#onStep	-1
#minSteps	-1
#maxSteps	-1