SeqCat02|57	91	25	37	43	64	17.7124
SeqCat03|150	91	15	28	27	48	15.6462
SeqCat02|17	91	12	25	22	43	15.6462
SeqCat03|108	91	12	24	21	42	17.7124
SeqCat03|89	91	11	24	20	41	15.6462
SeqCat02|185	91	28	40	48	69	17.7124
SeqCat03|187	91	4	17	8	29	17.7124
SeqCat02|45	91	21	34	37	58	15.6462
SeqCat01|98	100	45	56	84	105	11.9454
SeqCat03|93	91	2	14	4	25	17.7124
SeqCat03|46	91	56	68	96	117	17.7124
SeqCat02|168	91	68	81	117	138	14.7723
SeqCat01|55	100	2	13	4	25	13.2230
SeqCat02|23	91	21	34	37	58	17.7124
SeqCat02|142	91	8	20	14	35	17.7124
SeqCat02|119	91	48	61	83	104	14.3643
SeqCat03|176	91	19	31	33	54	17.7124
SeqCat01|44	100	30	41	56	77	13.7478
SeqCat02|126	91	27	40	47	68	17.7124
SeqCat03|0	91	11	24	20	41	17.7124
SeqCat02|190	91	0	12	0	21	17.7124
SeqCat03|188	91	25	37	43	64	17.7124
SeqCat02|116	91	15	28	27	48	15.6462
SeqCat02|107	91	0	12	1	22	17.7124
SeqCat01|95	100	76	87	141	162	12.2975
SeqCat03|113	91	24	37	42	63	17.7124
SeqCat03|34	91	24	37	42	63	17.7124
SeqCat01|166	100	24	35	45	66	13.8182
SeqCat03|86	91	36	48	62	83	12.3327
SeqCat03|148	91	8	20	14	35	17.7124
SeqCat02|199	91	17	30	30	51	17.7124
SeqCat03|8	91	4	17	8	29	17.7124
SeqCat02|91	91	8	21	15	36	17.7124
SeqCat03|26	91	12	25	22	43	17.7124
SeqCat03|191	91	2	14	4	25	12.1639
SeqCat01|88	100	11	22	21	42	14.5023
SeqCat02|96	91	17	30	30	51	17.7124
SeqCat03|7	91	7	19	12	33	16.1639
SeqCat03|114	91	78	91	134	155	13.2802
SeqCat03|61	91	16	28	28	49	17.7124
SeqCat02|198	91	22	35	39	60	17.7124
SeqCat02|177	91	10	22	18	39	17.7124
SeqCat02|117	91	8	20	14	35	17.7124
SeqCat01|72	100	0	11	0	21	9.4438
SeqCat03|81	91	8	21	15	36	17.7124
SeqCat02|111	91	27	40	47	68	17.7124
SeqCat03|139	91	10	22	18	39	15.6462
SeqCat03|103	91	24	36	41	62	17.7124
SeqCat01|128	100	88	100	164	185	13.0294
SeqCat03|27	91	24	37	42	63	17.7124
SeqCat02|164	91	22	35	39	60	17.7124
SeqCat03|110	91	8	20	14	35	15.6462
SeqCat03|29	91	76	88	130	151	11.2161
SeqCat03|130	91	21	34	37	58	17.7124
SeqCat02|109	91	10	22	18	39	15.6462
SeqCat03|122	91	0	12	1	22	17.7124
SeqCat03|120	91	19	31	33	54	17.7124
SeqCat02|84	91	19	31	33	54	17.7124
SeqCat01|48	100	82	93	152	173	15.6462
SeqCat01|92	100	78	89	145	166	8.7268
SeqCat01|43	100	47	58	87	108	12.2975
SeqCat03|135	91	17	30	30	51	17.7124
SeqCat03|145	91	4	16	7	28	11.5023
SeqCat02|97	91	27	39	46	67	15.6462
SeqCat03|70	91	5	18	10	31	16.8777
SeqCat03|58	91	25	38	44	65	17.7124
SeqCat02|182	91	17	30	30	51	15.6462
SeqCat02|52	91	11	24	20	41	16.8777
SeqCat01|127	100	54	65	101	122	9.6443
SeqCat03|178	91	2	15	5	26	15.6462
SeqCat01|12	100	21	32	39	60	9.8719
SeqCat03|85	91	21	34	37	58	17.7124
SeqCat01|152	100	32	43	60	81	14.1516
SeqCat02|197	91	22	35	39	60	17.7124
SeqCat02|151	91	23	35	40	61	17.7124
SeqCat02|170	91	25	37	43	64	17.7124
SeqCat03|59	91	10	22	18	39	16.8777
SeqCat01|153	100	85	97	159	180	13.6452
SeqCat02|82	91	8	20	14	35	15.6462
SeqCat02|171	91	2	14	4	25	17.7124
SeqCat03|134	91	22	34	38	59	17.7124
SeqCat03|47	91	1	14	3	24	15.6462
SeqCat02|183	91	28	40	48	69	17.7124
SeqCat03|50	91	24	37	42	63	17.7124
SeqCat03|56	91	5	17	9	30	14.3643
SeqCat02|159	91	13	25	23	44	17.7124
SeqCat03|162	91	3	15	6	27	17.7124
SeqCat01|54	100	71	82	132	153	9.4452
SeqCat02|196	91	2	15	5	26	17.7124
SeqCat01|161	100	45	57	85	106	14.9758
SeqCat03|73	91	5	18	10	31	17.7124
SeqCat01|90	100	87	98	161	182	8.9064
SeqCat01|169	100	42	54	79	100	12.6464
SeqCat02|180	91	24	37	42	63	17.7124
SeqCat02|195	91	21	33	36	57	16.8777
SeqCat01|75	100	62	73	115	136	9.8307
SeqCat02|40	91	8	21	15	36	17.7124
SeqCat02|30	91	26	38	45	66	17.7124
SeqCat03|133	91	35	47	60	81	9.4335
SeqCat01|172	100	75	87	140	161	17.7124
SeqCat01|49	100	1	12	2	23	13.0275
SeqCat03|6	91	14	26	24	45	17.7124
SeqCat02|131	91	27	40	47	68	17.7124
SeqCat03|53	91	26	38	45	66	17.7124
SeqCat01|31	100	81	92	151	172	13.6466
SeqCat02|106	91	6	18	11	32	17.7124
SeqCat03|184	91	24	36	41	62	17.7124
SeqCat03|78	91	14	26	24	45	17.7124
SeqCat03|132	91	13	25	23	44	13.7104
SeqCat03|137	91	27	40	47	68	17.7124
SeqCat03|160	91	7	19	12	33	13.1789
SeqCat03|79	91	14	27	25	46	15.6462
SeqCat01|5	100	67	78	125	146	14.1715
SeqCat03|149	91	12	25	22	43	17.7124
SeqCat03|112	91	20	32	34	55	13.0294
SeqCat03|1	91	4	17	8	29	17.7124
SeqCat03|20	91	1	13	2	23	17.7124
SeqCat01|60	100	58	69	108	129	13.0753
SeqCat03|19	91	19	31	33	54	15.6462
SeqCat01|94	100	81	92	150	171	16.2592
SeqCat02|144	91	7	20	13	34	17.7124
SeqCat02|174	91	1	14	3	24	17.7124
SeqCat03|87	91	22	35	39	60	15.6462
SeqCat03|136	91	15	28	27	48	17.7124
