:::ddddpppppppddddccc	RF02153_DQ190453.1/17974-17912_bg$1	63	23	44	9.8108
::cccrrrrrrrrrcccgggg	RF01765_AABY01000111.1/26714-26159_bg$1	556	164	185	9.0333
cc!!cccpppppppccc22cc	RF02067_CP000880.1/4318546-4318606_bg$1	61	25	46	14.5023
hhhhhhhppppppphhhhhhh	RF01998_ACDK01000011.1/30878-30962_bg$1	85	56	77	15.6462
gggggggpppppppggggggg	RF02273_CP002183.1/1436090-1436173_bg$1	84	58	79	17.7124
ggggggrrrrrrrrrgggggg	RF00057_AAZX01022803.1/304-236_bg$1	69	40	61	12.9702
:ffffffpppppppffffff:	RF00057_BA000037.2/195620-195685_bg$1	66	39	60	12.1385
"""cccrrrrrrrrrccc333	RF01998_CP003056.1/1154880-1154801_bg$1	80	51	72	9.8431
bb[ddddpppppppdddd]bb	RF01998_BA000004.3/833755-833840_bg$1	86	57	78	12.2343
gggggggpppppppggggggg	RF01998_AAPR01000002.1/105368-105438_bg$1	71	43	64	17.7124
cc[cccrrrrrrrrrccc]cc	RF01057_CU914168.1/185982-185906_bg$1	77	21	42	10.6073
gggggggpppppppggggggg	SeqCat02|57$1	170	43	64	17.7124
hhhhhhhppppppphhhhhhh	SeqCat03|150$1	170	27	48	15.6462
hhhhhhhppppppphhhhhhh	SeqCat02|17$1	170	22	43	15.6462
gggggggpppppppggggggg	SeqCat03|108$1	170	21	42	17.7124
hhhhhhhppppppphhhhhhh	SeqCat03|89$1	170	20	41	15.6462
gggggggpppppppggggggg	SeqCat02|185$1	170	48	69	17.7124
gggggggpppppppggggggg	SeqCat03|187$1	170	8	29	17.7124
hhhhhhhppppppphhhhhhh	SeqCat02|45$1	170	37	58	15.6462
ddd!!bbpppppppbb22ddd	SeqCat01|98$1	185	84	105	11.9454
gggggggpppppppggggggg	SeqCat03|93$1	170	4	25	17.7124
gggggggpppppppggggggg	SeqCat03|46$1	170	96	117	17.7124
!!a[cccpppppppcccafff	SeqCat02|168$1	170	117	138	14.7723
Effffffpppppppffffffc	SeqCat01|55$1	185	4	25	13.2230
gggggggpppppppggggggg	SeqCat02|23$1	170	37	58	17.7124
gggggggpppppppggggggg	SeqCat02|142$1	170	14	35	17.7124
cffffffpppppppffffff]	SeqCat02|119$1	170	83	104	14.3643
gggggggpppppppggggggg	SeqCat03|176$1	170	33	54	17.7124
""eeeeepppppppeeeee33	SeqCat01|44$1	185	56	77	13.7478
gggggggpppppppggggggg	SeqCat02|126$1	170	47	68	17.7124
gggggggpppppppggggggg	SeqCat03|0$1	170	20	41	17.7124
gggggggpppppppggggggg	SeqCat02|190$1	170	0	21	17.7124
gggggggpppppppggggggg	SeqCat03|188$1	170	43	64	17.7124
hhhhhhhppppppphhhhhhh	SeqCat02|116$1	170	27	48	15.6462
gggggggpppppppggggggg	SeqCat02|107$1	170	1	22	17.7124
###ddddpppppppddddddd	SeqCat01|95$1	185	141	162	12.2975
gggggggpppppppggggggg	SeqCat03|113$1	170	42	63	17.7124
gggggggpppppppggggggg	SeqCat03|34$1	170	42	63	17.7124
eeeeeeepppppppeeeee]e	SeqCat01|166$1	185	45	66	13.8182
dddddddpppppppdddd]dd	SeqCat03|86$1	170	62	83	12.3327
gggggggpppppppggggggg	SeqCat03|148$1	170	14	35	17.7124
gggggggpppppppggggggg	SeqCat02|199$1	170	30	51	17.7124
gggggggpppppppggggggg	SeqCat03|8$1	170	8	29	17.7124
gggggggpppppppggggggg	SeqCat02|91$1	170	15	36	17.7124
gggggggpppppppggggggg	SeqCat03|26$1	170	22	43	17.7124
:ffffffpppppppffffffB	SeqCat03|191$1	170	4	25	12.1639
cc!!cccpppppppccc22cc	SeqCat01|88$1	185	21	42	14.5023
gggggggpppppppggggggg	SeqCat02|96$1	170	30	51	17.7124
=======ppppppp=======	SeqCat03|7$1	170	12	33	16.1639
##eeeeepppppppeeeee44	SeqCat03|114$1	170	134	155	13.2802
gggggggpppppppggggggg	SeqCat03|61$1	170	28	49	17.7124
gggggggpppppppggggggg	SeqCat02|198$1	170	39	60	17.7124
gggggggpppppppggggggg	SeqCat02|177$1	170	18	39	17.7124
gggggggpppppppggggggg	SeqCat02|117$1	170	14	35	17.7124
bb[cccrrrrrrrrrccc]bb	SeqCat01|72$1	185	0	21	9.4438
gggggggpppppppggggggg	SeqCat03|81$1	170	15	36	17.7124
gggggggpppppppggggggg	SeqCat02|111$1	170	47	68	17.7124
hhhhhhhppppppphhhhhhh	SeqCat03|139$1	170	18	39	15.6462
gggggggpppppppggggggg	SeqCat03|103$1	170	41	62	17.7124
dffffffpppppppffffff:	SeqCat01|128$1	185	164	185	13.0294
gggggggpppppppggggggg	SeqCat03|27$1	170	42	63	17.7124
gggggggpppppppggggggg	SeqCat02|164$1	170	39	60	17.7124
hhhhhhhppppppphhhhhhh	SeqCat03|110$1	170	14	35	15.6462
hhhhhhrrrrrrrrrhhhhhh	SeqCat03|29$1	170	130	151	11.2161
gggggggpppppppggggggg	SeqCat03|130$1	170	37	58	17.7124
hhhhhhhppppppphhhhhhh	SeqCat02|109$1	170	18	39	15.6462
gggggggpppppppggggggg	SeqCat03|122$1	170	1	22	17.7124
gggggggpppppppggggggg	SeqCat03|120$1	170	33	54	17.7124
gggggggpppppppggggggg	SeqCat02|84$1	170	33	54	17.7124
hhhhhhhppppppphhhhhhh	SeqCat01|48$1	185	152	173	15.6462
!!ddddrrrrrrrrrdddddd	SeqCat01|92$1	185	145	166	8.7268
###ddddpppppppddddddd	SeqCat01|43$1	185	87	108	12.2975
gggggggpppppppggggggg	SeqCat03|135$1	170	30	51	17.7124
EEeeeeepppppppeeeeedd	SeqCat03|145$1	170	7	28	11.5023
hhhhhhhppppppphhhhhhh	SeqCat02|97$1	170	46	67	15.6462
iiiiiiipppppppiiiiiii	SeqCat03|70$1	170	10	31	16.8777
gggggggpppppppggggggg	SeqCat03|58$1	170	44	65	17.7124
hhhhhhhppppppphhhhhhh	SeqCat02|182$1	170	30	51	15.6462
iiiiiiipppppppiiiiiii	SeqCat02|52$1	170	20	41	16.8777
A:eeeeepppppppeeeee::	SeqCat01|127$1	185	101	122	9.6443
hhhhhhhppppppphhhhhhh	SeqCat03|178$1	170	5	26	15.6462
!!eeeeerrrrrrrrreeeee	SeqCat01|12$1	185	39	60	9.8719
gggggggpppppppggggggg	SeqCat03|85$1	170	37	58	17.7124
!ffffffpppppppffffff4	SeqCat01|152$1	185	60	81	14.1516
gggggggpppppppggggggg	SeqCat02|197$1	170	39	60	17.7124
gggggggpppppppggggggg	SeqCat02|151$1	170	40	61	17.7124
gggggggpppppppggggggg	SeqCat02|170$1	170	43	64	17.7124
iiiiiiipppppppiiiiiii	SeqCat03|59$1	170	18	39	16.8777
a"""cccpppppppccc22ad	SeqCat01|153$1	185	159	180	13.6452
hhhhhhhppppppphhhhhhh	SeqCat02|82$1	170	14	35	15.6462
gggggggpppppppggggggg	SeqCat02|171$1	170	4	25	17.7124
gggggggpppppppggggggg	SeqCat03|134$1	170	38	59	17.7124
hhhhhhhppppppphhhhhhh	SeqCat03|47$1	170	3	24	15.6462
gggggggpppppppggggggg	SeqCat02|183$1	170	48	69	17.7124
gggggggpppppppggggggg	SeqCat03|50$1	170	42	63	17.7124
cffffffpppppppffffff]	SeqCat03|56$1	170	9	30	14.3643
gggggggpppppppggggggg	SeqCat02|159$1	170	23	44	17.7124
gggggggpppppppggggggg	SeqCat03|162$1	170	6	27	17.7124
eeeeerrrrrrrrreeeeeee	SeqCat01|54$1	185	132	153	9.4452
gggggggpppppppggggggg	SeqCat02|196$1	170	5	26	17.7124
ccc[cccpppppppccc]ccc	SeqCat01|161$1	185	85	106	14.9758
gggggggpppppppggggggg	SeqCat03|73$1	170	10	31	17.7124
fff[bbrrrrrrrrrbb]fff	SeqCat01|90$1	185	161	182	8.9064
dd[ddddpppppppdddd]dd	SeqCat01|169$1	185	79	100	12.6464
gggggggpppppppggggggg	SeqCat02|180$1	170	42	63	17.7124
iiiiiiipppppppiiiiiii	SeqCat02|195$1	170	36	57	16.8777
ffffffrrrrrrrrrffffff	SeqCat01|75$1	185	115	136	9.8307
gggggggpppppppggggggg	SeqCat02|40$1	170	15	36	17.7124
gggggggpppppppggggggg	SeqCat02|30$1	170	45	66	17.7124
##eeeeerrrrrrrrreeeee	SeqCat03|133$1	170	60	81	9.4335
gggggggpppppppggggggg	SeqCat01|172$1	185	140	161	17.7124
eeee[bbpppppppbb]eeee	SeqCat01|49$1	185	2	23	13.0275
gggggggpppppppggggggg	SeqCat03|6$1	170	24	45	17.7124
gggggggpppppppggggggg	SeqCat02|131$1	170	47	68	17.7124
gggggggpppppppggggggg	SeqCat03|53$1	170	45	66	17.7124
ddd[cccpppppppcccdddd	SeqCat01|31$1	185	151	172	13.6466
gggggggpppppppggggggg	SeqCat02|106$1	170	11	32	17.7124
gggggggpppppppggggggg	SeqCat03|184$1	170	41	62	17.7124
gggggggpppppppggggggg	SeqCat03|78$1	170	24	45	17.7124
+ffffffpppppppffffffg	SeqCat03|132$1	170	23	44	13.7104
gggggggpppppppggggggg	SeqCat03|137$1	170	47	68	17.7124
:ffffffpppppppfffffff	SeqCat03|160$1	170	12	33	13.1789
hhhhhhhppppppphhhhhhh	SeqCat03|79$1	170	25	46	15.6462
!!eeeeepppppppeeeeeee	SeqCat01|5$1	185	125	146	14.1715
gggggggpppppppggggggg	SeqCat03|149$1	170	22	43	17.7124
dffffffpppppppffffff:	SeqCat03|112$1	170	34	55	13.0294
gggggggpppppppggggggg	SeqCat03|1$1	170	8	29	17.7124
gggggggpppppppggggggg	SeqCat03|20$1	170	2	23	17.7124
ebb[cccpppppppcccbb22	SeqCat01|60$1	185	108	129	13.0753
hhhhhhhppppppphhhhhhh	SeqCat03|19$1	170	33	54	15.6462
g[cccpppppppccc]ggggg	SeqCat01|94$1	185	150	171	16.2592
gggggggpppppppggggggg	SeqCat02|144$1	170	13	34	17.7124
gggggggpppppppggggggg	SeqCat02|174$1	170	3	24	17.7124
hhhhhhhppppppphhhhhhh	SeqCat03|87$1	170	39	60	15.6462
gggggggpppppppggggggg	SeqCat03|136$1	170	27	48	17.7124

#otherMatches

#Seq PSSM
AUGGAAGAGUAAGCCUUCCAU	SeqCat02|57$1	su1	43	64	17.7124
AUGGAAGAGUAAGCCUUCCAU	SeqCat03|150$1	su1	27	48	15.6462
AUGGAAGAGUAAGCCUUCCAU	SeqCat02|17$1	su1	22	43	15.6462
AUGGAAGAGUAAGCCUUCCAU	SeqCat03|108$1	su1	21	42	17.7124
AUGGAAGAGUAAGCCUUCCAU	SeqCat03|89$1	su1	20	41	15.6462
AUGGAAGAGUAAGCCUUCCAU	SeqCat02|185$1	su1	48	69	17.7124
AUGGAAGAGUAAGCCUUCCAU	SeqCat03|187$1	su1	8	29	17.7124
AUGGAAGAGUAAGCCUUCCAU	SeqCat02|45$1	su1	37	58	15.6462
GGGACUCAAUGAAGGAAGCCU	SeqCat01|98$1	su1	84	105	11.9454
AUGGAAGAGUAAGCCUUCCAU	SeqCat03|93$1	su1	4	25	17.7124
GAUCAUAAUUAACCUAUGAUU	SeqCat03|46$1	su1	96	117	17.7124
ACGCGUCAAAAUAGGACCUAA	SeqCat02|168$1	su1	117	138	14.7723
CGAAUGGAGCAGAGUCAUUCC	SeqCat01|55$1	su1	4	25	13.2230
AUGGAAGAGUAAGCCUUCCAU	SeqCat02|23$1	su1	37	58	17.7124
AUGGAAGAGUAAGCCUUCCAU	SeqCat02|142$1	su1	14	35	17.7124
AGACUGAGGCGCAGUCGGUCA	SeqCat02|119$1	su1	83	104	14.3643
AUGGAAGAGUAAGCCUUCCAU	SeqCat03|176$1	su1	33	54	17.7124
GGGAAUUCAUAAUCAGUUCAG	SeqCat01|44$1	su1	56	77	13.7478
AUGGAAGAGUAAGCCUUCCAU	SeqCat02|126$1	su1	47	68	17.7124
AUGGAAGAGUAAGCCUUCCAU	SeqCat03|0$1	su1	20	41	17.7124
AUGGAAGAGUAAGCCUUCCAU	SeqCat02|190$1	su1	0	21	17.7124
AUGGAAGAGUAAGCCUUCCAU	SeqCat03|188$1	su1	43	64	17.7124
AUGGAAGAGUAAGCCUUCCAU	SeqCat02|116$1	su1	27	48	15.6462
AUGGAAGAGUAAGCCUUCCAU	SeqCat02|107$1	su1	1	22	17.7124
CUUAUAUGUAGCCAAUAUCUC	SeqCat01|95$1	su1	141	162	12.2975
AUGGAAGAGUAAGCCUUCCAU	SeqCat03|113$1	su1	42	63	17.7124
AUGGAAGAGUAAGCCUUCCAU	SeqCat03|34$1	su1	42	63	17.7124
UGGUCUGUACAACUCGGGCGC	SeqCat01|166$1	su1	45	66	13.8182
AAUGUCUAAAGUCGAGACGGU	SeqCat03|86$1	su1	62	83	12.3327
AUGGAAGAGUAAGCCUUCCAU	SeqCat03|148$1	su1	14	35	17.7124
AUGGAAGAGUAAGCCUUCCAU	SeqCat02|199$1	su1	30	51	17.7124
AUGGAAGAGUAAGCCUUCCAU	SeqCat03|8$1	su1	8	29	17.7124
AUGGAAGAGUAAGCCUUCCAU	SeqCat02|91$1	su1	15	36	17.7124
AUGGAAGAGUAAGCCUUCCAU	SeqCat03|26$1	su1	22	43	17.7124
AUGGAAGAGUAAGCCUUCCAU	SeqCat03|191$1	su1	4	25	12.1639
GUCGGGAGCUUUAGUCCAAAC	SeqCat01|88$1	su1	21	42	14.5023
AUGGAAGAGUAAGCCUUCCAU	SeqCat02|96$1	su1	30	51	17.7124
AUGGAAGAGUAAGCCUUCCAU	SeqCat03|7$1	su1	12	33	16.1639
CUUUAUGAAGACUGCAUAAUC	SeqCat03|114$1	su1	134	155	13.2802
AUGGAAGAGUAAGCCUUCCAU	SeqCat03|61$1	su1	28	49	17.7124
AUGGAAGAGUAAGCCUUCCAU	SeqCat02|198$1	su1	39	60	17.7124
AUGGAAGAGUAAGCCUUCCAU	SeqCat02|177$1	su1	18	39	17.7124
AUGGAAGAGUAAGCCUUCCAU	SeqCat02|117$1	su1	14	35	17.7124
GAAGUAUUAUCAAAUUGCAUC	SeqCat01|72$1	su1	0	21	9.4438
AUGGAAGAGUAAGCCUUCCAU	SeqCat03|81$1	su1	15	36	17.7124
AUGGAAGAGUAAGCCUUCCAU	SeqCat02|111$1	su1	47	68	17.7124
AUGGAAGAGUAAGCCUUCCAU	SeqCat03|139$1	su1	18	39	15.6462
AUGGAAGAGUAAGCCUUCCAU	SeqCat03|103$1	su1	41	62	17.7124
UACGUCAUUCGGAUUGACGUC	SeqCat01|128$1	su1	164	185	13.0294
AUGGAAGAGUAAGCCUUCCAU	SeqCat03|27$1	su1	42	63	17.7124
AUGGAAGAGUAAGCCUUCCAU	SeqCat02|164$1	su1	39	60	17.7124
AUGGAAGAGUAAGCCUUCCAU	SeqCat03|110$1	su1	14	35	15.6462
GGGUCCCAACGCCAUGGACCU	SeqCat03|29$1	su1	130	151	11.2161
AUGGAAGAGUAAGCCUUCCAU	SeqCat03|130$1	su1	37	58	17.7124
AUGGAAGAGUAAGCCUUCCAU	SeqCat02|109$1	su1	18	39	15.6462
AUGGAAGAGUAAGCCUUCCAU	SeqCat03|122$1	su1	1	22	17.7124
AUGGAAGAGUAAGCCUUCCAU	SeqCat03|120$1	su1	33	54	17.7124
AUGGAAGAGUAAGCCUUCCAU	SeqCat02|84$1	su1	33	54	17.7124
UUACAUUGAGAGUAAGUGUAA	SeqCat01|48$1	su1	152	173	15.6462
UUUACGCCCAUCUCACGUAUG	SeqCat01|92$1	su1	145	166	8.7268
UAAGUGAAUUUCGAUCACAUG	SeqCat01|43$1	su1	87	108	12.2975
AUGGAAGAGUAAGCCUUCCAU	SeqCat03|135$1	su1	30	51	17.7124
AUGGAAGAGUAAGCCUUCCAU	SeqCat03|145$1	su1	7	28	11.5023
AUGGAAGAGUAAGCCUUCCAU	SeqCat02|97$1	su1	46	67	15.6462
AUGGAAGAGUAAGCCUUCCAU	SeqCat03|70$1	su1	10	31	16.8777
AUGGAAGAGUAAGCCUUCCAU	SeqCat03|58$1	su1	44	65	17.7124
AUGGAAGAGUAAGCCUUCCAU	SeqCat02|182$1	su1	30	51	15.6462
AUGGAAGAGUAAGCCUUCCAU	SeqCat02|52$1	su1	20	41	16.8777
CAGUCCUACCCUCAAGGACAA	SeqCat01|127$1	su1	101	122	9.6443
AUGGAAGAGUAAGCCUUCCAU	SeqCat03|178$1	su1	5	26	15.6462
GUGGCGUCAUUCCUUUACGCU	SeqCat01|12$1	su1	39	60	9.8719
AUGGAAGAGUAAGCCUUCCAU	SeqCat03|85$1	su1	37	58	17.7124
UGGUACUGAAAAGAGGUGCCU	SeqCat01|152$1	su1	60	81	14.1516
AUGGAAGAGUAAGCCUUCCAU	SeqCat02|197$1	su1	39	60	17.7124
AUGGAAGAGUAAGCCUUCCAU	SeqCat02|151$1	su1	40	61	17.7124
AUGGAAGAGUAAGCCUUCCAU	SeqCat02|170$1	su1	43	64	17.7124
AUGGAAGAGUAAGCCUUCCAU	SeqCat03|59$1	su1	18	39	16.8777
GCUUCUGAUUGAAACAGUACC	SeqCat01|153$1	su1	159	180	13.6452
AUGGAAGAGUAAGCCUUCCAU	SeqCat02|82$1	su1	14	35	15.6462
AUGGAAGAGUAAGCCUUCCAU	SeqCat02|171$1	su1	4	25	17.7124
AUGGAAGAGUAAGCCUUCCAU	SeqCat03|134$1	su1	38	59	17.7124
AUGGAAGAGUAAGCCUUCCAU	SeqCat03|47$1	su1	3	24	15.6462
AUGGAAGAGUAAGCCUUCCAU	SeqCat02|183$1	su1	48	69	17.7124
AUGGAAGAGUAAGCCUUCCAU	SeqCat03|50$1	su1	42	63	17.7124
AUGGAAGAGUAAGCCUUCCAU	SeqCat03|56$1	su1	9	30	14.3643
AUGGAAGAGUAAGCCUUCCAU	SeqCat02|159$1	su1	23	44	17.7124
AUGGAAGAGUAAGCCUUCCAU	SeqCat03|162$1	su1	6	27	17.7124
CCGCUCUCGGGCUCAGCGGGU	SeqCat01|54$1	su1	132	153	9.4452
AUGGAAGAGUAAGCCUUCCAU	SeqCat02|196$1	su1	5	26	17.7124
GGCAGUUACGUCGGGGCAGCC	SeqCat01|161$1	su1	85	106	14.9758
AUGGAAGAGUAAGCCUUCCAU	SeqCat03|73$1	su1	10	31	17.7124
CGUAUCCCUGACCACGAAGCG	SeqCat01|90$1	su1	161	182	8.9064
GGCAUGCACAUUCAGCGUAUC	SeqCat01|169$1	su1	79	100	12.6464
AUGGAAGAGUAAGCCUUCCAU	SeqCat02|180$1	su1	42	63	17.7124
AUGGAAGAGUAAGCCUUCCAU	SeqCat02|195$1	su1	36	57	16.8777
UGACGCAUUACGAGAGCGUCA	SeqCat01|75$1	su1	115	136	9.8307
AUGGAAGAGUAAGCCUUCCAU	SeqCat02|40$1	su1	15	36	17.7124
AUGGAAGAGUAAGCCUUCCAU	SeqCat02|30$1	su1	45	66	17.7124
AACAGUGAUACGGUCCCGCUG	SeqCat03|133$1	su1	60	81	9.4335
ACUUAUUGACUGUAAAUAAGU	SeqCat01|172$1	su1	140	161	17.7124
AUACCCGGAAAGCGCGCGUAU	SeqCat01|49$1	su1	2	23	13.0275
AUGGAAGAGUAAGCCUUCCAU	SeqCat03|6$1	su1	24	45	17.7124
AUGGAAGAGUAAGCCUUCCAU	SeqCat02|131$1	su1	47	68	17.7124
AUGGAAGAGUAAGCCUUCCAU	SeqCat03|53$1	su1	45	66	17.7124
GCGAUUGGACCAGGCAACGCG	SeqCat01|31$1	su1	151	172	13.6466
AUGGAAGAGUAAGCCUUCCAU	SeqCat02|106$1	su1	11	32	17.7124
AUGGAAGAGUAAGCCUUCCAU	SeqCat03|184$1	su1	41	62	17.7124
AUGGAAGAGUAAGCCUUCCAU	SeqCat03|78$1	su1	24	45	17.7124
AUGGAAGAGUAAGCCUUCCAU	SeqCat03|132$1	su1	23	44	13.7104
AUGGAAGAGUAAGCCUUCCAU	SeqCat03|137$1	su1	47	68	17.7124
AUGGAAGAGUAAGCCUUCCAU	SeqCat03|160$1	su1	12	33	13.1789
AUGGAAGAGUAAGCCUUCCAU	SeqCat03|79$1	su1	25	46	15.6462
UUAAGAUCAGUCUUGUCUUUG	SeqCat01|5$1	su1	125	146	14.1715
AUGGAAGAGUAAGCCUUCCAU	SeqCat03|149$1	su1	22	43	17.7124
AUGGAAGAGUAAGCCUUCCAU	SeqCat03|112$1	su1	34	55	13.0294
AUGGAAGAGUAAGCCUUCCAU	SeqCat03|1$1	su1	8	29	17.7124
AUGGAAGAGUAAGCCUUCCAU	SeqCat03|20$1	su1	2	23	17.7124
ACUAUGGACUAAACCCAAGAA	SeqCat01|60$1	su1	108	129	13.0753
AUGGAAGAGUAAGCCUUCCAU	SeqCat03|19$1	su1	33	54	15.6462
CUUGGAUUGACCCCAUGGACG	SeqCat01|94$1	su1	150	171	16.2592
AUGGAAGAGUAAGCCUUCCAU	SeqCat02|144$1	su1	13	34	17.7124
AUGGAAGAGUAAGCCUUCCAU	SeqCat02|174$1	su1	3	24	17.7124
AUGGAAGAGUAAGCCUUCCAU	SeqCat03|87$1	su1	39	60	15.6462
AUGGAAGAGUAAGCCUUCCAU	SeqCat03|136$1	su1	27	48	17.7124

#PSSM
g : 0.51	h : 0.14	c : 0.04	d : 0.04	: : 0.03	! : 0.03	# : 0.02	e : 0.02	i : 0.02	" : 0.01	b : 0.01	E : 0.01	f : 0.01	= : 0.00	A : 0.00	a : 0.00	+ : 0.00	
g : 0.51	h : 0.14	f : 0.08	c : 0.02	d : 0.02	! : 0.02	# : 0.02	i : 0.02	: : 0.02	" : 0.02	b : 0.02	e : 0.02	= : 0.00	E : 0.00	[ : 0.00	
g : 0.51	h : 0.14	f : 0.08	e : 0.07	[ : 0.02	d : 0.02	i : 0.02	c : 0.02	! : 0.01	" : 0.01	# : 0.01	: : 0.00	a : 0.00	= : 0.00	b : 0.00	
g : 0.51	h : 0.14	f : 0.08	e : 0.07	d : 0.05	c : 0.03	[ : 0.03	i : 0.02	! : 0.02	= : 0.00	" : 0.00	
g : 0.51	h : 0.14	c : 0.08	f : 0.08	e : 0.06	d : 0.05	i : 0.02	! : 0.00	= : 0.00	b : 0.00	[ : 0.00	
g : 0.51	h : 0.14	f : 0.08	c : 0.07	e : 0.05	d : 0.05	i : 0.02	b : 0.02	r : 0.01	= : 0.00	p : 0.00	
g : 0.50	h : 0.13	r : 0.07	f : 0.07	e : 0.05	c : 0.05	d : 0.04	i : 0.02	b : 0.01	= : 0.00	p : 0.00	
p : 0.91	r : 0.08	
p : 0.91	r : 0.08	
p : 0.91	r : 0.08	
p : 0.91	r : 0.08	
p : 0.91	r : 0.08	
p : 0.90	r : 0.08	c : 0.00	
p : 0.90	r : 0.08	c : 0.00	
g : 0.50	h : 0.13	r : 0.07	f : 0.07	c : 0.06	e : 0.05	d : 0.04	i : 0.02	b : 0.01	= : 0.00	
g : 0.51	h : 0.14	c : 0.08	f : 0.08	d : 0.05	e : 0.05	i : 0.02	b : 0.02	r : 0.01	= : 0.00	] : 0.00	
g : 0.51	h : 0.14	c : 0.08	f : 0.08	e : 0.06	d : 0.05	i : 0.02	2 : 0.00	= : 0.00	b : 0.00	] : 0.00	
g : 0.52	h : 0.14	f : 0.08	e : 0.07	d : 0.05	2 : 0.02	i : 0.02	c : 0.02	] : 0.01	a : 0.00	= : 0.00	b : 0.00	
g : 0.52	h : 0.14	f : 0.09	e : 0.07	] : 0.03	d : 0.03	i : 0.02	2 : 0.02	c : 0.01	3 : 0.00	= : 0.00	b : 0.00	
g : 0.52	h : 0.14	f : 0.09	d : 0.05	c : 0.03	e : 0.03	i : 0.02	3 : 0.01	b : 0.01	] : 0.00	= : 0.00	4 : 0.00	: : 0.00	a : 0.00	2 : 0.00	
g : 0.53	h : 0.14	d : 0.06	c : 0.04	e : 0.04	: : 0.02	f : 0.02	i : 0.02	3 : 0.01	b : 0.01	] : 0.01	4 : 0.01	B : 0.00	= : 0.00	2 : 0.00	

#score	0.0
#seq	135
#width	21
#escape	true
#onStep	-1
#minSteps	-1
#maxSteps	-1