[ddddoooooodddd]bb=	chr12:22641276-22641396$1	120	44	63	6.1352
"""cccmmmmccc333ddd	chr5:59063909-59064030$1	121	59	78	5.8158
ffffffooooooffffff:	chr12:95648301-95648441$1	140	95	114	5.6960
dd[cccnnnnncccdddd2	chr17:58783591-58783722$1	131	32	51	7.7795
ddd[cccmmmmccc]dddd	chr18:56010249-56010373$1	124	3	22	5.0991
gggcccnnnnnccc]gggg	chr16:18856276-18856412$1	136	41	60	8.8797
ff[cccnnnnnccc]ffff	chr8:57081489-57081626$1	137	7	26	8.5369
::ddddnnnnnddddffff	chr14:58908742-58908861$1	119	6	25	4.9775
dddcccnnnnnccc00000	chr5:135385662-135385790$1	128	38	57	6.2456
!!cccooooooccceeeee	chr12:112507619-112507741$1	122	24	43	7.5210
ccc[bboooooobb]ccc]	chr8:135620736-135620859$1	123	90	109	6.6426
dda[bbnnnnnbb]a4444	chr16:84170112-84170248$1	136	16	35	6.7995
e[cccooooooccceeeee	chr21:33795756-33795898$1	142	72	91	7.3056
b[ddddnnnnnddddbb]b	chr12:49829310-49829446$1	136	73	92	6.5995
""ddddmmmmdddd]ccce	chr12:49847254-49847374$1	120	91	110	4.9044
=======mmmm========	chr8:106938081-106938218$1	137	93	112	5.9175
ffffffnnnnnffffff]e	chr17:76058697-76058906$1	209	104	123	7.1505
iiiiirrrrrrrrriiiii	chr12:572126-572252$1	126	100	119	4.5432
ffff!!ammmma22fffff	chr13:24762314-24762449$1	135	64	83	4.2864
fffffooooooffffffhh	chr6:130386714-130386835$1	121	69	88	6.0768
h[cccooooooccc22hhh	chr7:23414655-23414791$1	136	57	76	6.9579
ddddddoooooodddd]dd	chr7:66572839-66572964$1	125	60	79	5.7664
cc"""ccclllccc]ccc:	chr5:112339231-112339362$1	131	21	40	5.5220
ffffffnnnnnffffff]c	chr16:74673388-74673518$1	130	86	105	7.2249
gggggooooooggggggg:	chr5:66170543-66170673$1	130	85	104	6.6345
33accc4444dddd]ffff	chr11:9740841-9740962$1	121	93	112	3.2760
gggggggmmmmggggggg:	chr2:151337716-151337850$1	134	11	30	4.5878
ffffffooooooffffff5	chr15:51357884-51358019$1	135	13	32	5.8278
bb[cccnnnnnccc]bb::	chr5:874484-874620$1	136	46	65	6.4583
ee[cccmmmmccc22eeee	chr5:128036455-128036577$1	122	3	22	5.0284
""ddddnnnnndddd6666	chr2:9685359-9685495$1	136	64	83	5.8363
eeeee[ammmma]eeeeed	chr6:97727128-97727251$1	123	15	34	4.3434
hhhhhhoooooohhhhhhh	chr5:88041483-88041606$1	123	6	25	4.7945
e[cccooooooccceeeee	chr15:35148892-35149010$1	118	91	110	7.3056
eeddddnnnnndddd]eee	chr18:52981884-52982023$1	139	12	31	6.8442
cc[cccnnnnnccc]ccc]	chr15:65152989-65153111$1	122	48	67	9.0620
ffffffnnnnnffffff::	chr16:29896766-29896896$1	130	8	27	5.6891
[cccbbnnnnnbb]ccccc	chr16:4512757-4512885$1	128	17	36	7.3061
ii!!cccmmmmccciiiii	chr7:121723343-121723479$1	136	75	94	6.0357
cc!!bbnnnnnbb22ccc2	chr1:8390866-8390986$1	120	31	50	7.0996
ffff[annnnna]ffffff	chr18:43651789-43651910$1	121	89	108	7.1202
$$ddddoooooodddd444	chr12:12960304-12960441$1	137	87	106	6.0546
[a[cccnnnnncccaccc:	chr11:12862163-12862282$1	119	36	55	8.1088
dd!!bbnnnnnbb]dddd2	chr5:14289697-14289818$1	121	62	81	6.4056
ffffffooooooffffff2	chr1:109740309-109740439$1	130	68	87	6.2732
[ccc[ccclllccccccbb	chr16:87925345-87925475$1	130	13	32	5.7467
b[cccooooooccc]bb::	chr7:111461379-111461499$1	120	61	80	5.8837
a"""bbnnnnnbba]eeee	chr16:19762167-19762301$1	134	108	127	7.1305
ggggggnnnnnggggggg:	chr17:783516-783652$1	136	20	39	7.3732
"""cccnnnnncccfffff	chr11:68298337-68298468$1	131	51	70	8.4165
hhhhhhnnnnnhhhhhhhh	chr14:78021734-78021869$1	135	59	78	5.5146
ffffffmmmmffffff333	chr5:132292049-132292185$1	136	27	46	4.5576
+eeeeennnnneeeeeddd	chr22:29638523-29638657$1	134	36	55	5.7288
[a[cccnnnnnccc]a]hh	chr12:52886376-52886502$1	126	91	110	8.5301
"""bboooooobb4444cc	chr5:93191127-93191254$1	127	58	77	6.5591
ffffffnnnnnffffff22	chr11:76806785-76806905$1	120	44	63	6.9293
iiiiiiimmmmiiiiiiii	chr16:1555276-1555404$1	128	33	52	5.4651
hhhhhhnnnnnhhhhhhhh	chr3:31941116-31941252$1	136	35	54	5.5146
gggggoooooogggggggd	chr22:31934213-31934332$1	119	86	105	7.1673
gg[ccclllccc333gggg	chr19:46888684-46888806$1	122	7	26	6.2585
cc!!bboooooobb22ccc	chr12:13046243-13046374$1	131	89	108	6.3890
======nnnnn========	chr4:107062384-107062541$1	157	133	152	8.3731
##bbbboooooobb22bb4	chr17:35885317-35885453$1	136	12	31	5.3630
iiiiiii4444ccc]bb44	chr11:118656371-118656494$1	123	81	100	4.4838
iiiiiillliiiiiiiii:	chr1:196647610-196647749$1	139	119	138	5.2912
gggggggmmmmggggggg:	chr5:59238618-59238755$1	137	88	107	4.5878
"""cccnnnnnccc333dd	chr18:44479381-44479520$1	139	5	24	8.8852
cc[cccnnnnnccccccff	chr8:23295956-23296092$1	136	22	41	8.3793
iiiiiillliiiiiiiii]	chr15:54626315-54626435$1	120	93	112	6.0243
!!ddddnnnnndddd22ee	chr11:46966831-46966963$1	132	12	31	7.0471
zzzzzzzzzzzccc]====	chr22:25517407-25517536$1	129	27	46	3.7777
d[ddddooooooddddddd	chr18:72777536-72777669$1	133	99	118	5.9602
cc[cccnnnnnccc]ccc:	chr7:151570476-151570609$1	133	111	130	8.3289
bb!!cccmmmmccc22bb6	chr16:77461578-77461714$1	136	55	74	4.6984
gggggrrrrrrrrrggggg	chr10:57095564-57095701$1	137	6	25	4.5208
ceeeeennnnneeeee555	chr18:13486946-13487065$1	119	71	90	4.6786
iiiiiinnnnniiiiiiii	chr3:65611487-65611608$1	121	7	26	8.0863
fffffooooooffffff]c	chr3:2572472-2572605$1	133	28	47	6.5359
b[cccoooooocccbb333	chr15:66706563-66706685$1	122	11	30	7.1909
ffffffnnnnnffffff::	chr12:48136269-48136397$1	128	93	112	5.6891
ggggggnnnnnggggggg:	chr12:130988427-130988550$1	123	94	113	7.3732
[addddmmmmdddd]a]bb	chr12:56668656-56668778$1	122	32	51	4.4331
d[ddddnnnnndddddddd	chr7:129510066-129510200$1	134	115	134	6.7690
eeecccnnnnnccc]eeee	chr2:110658168-110658303$1	135	24	43	8.1321
d!!cccnnnnnccc22ddd	chr10:99202831-99202950$1	119	48	67	8.2725
&ddddoooooodddd9999	chr22:39056794-39056917$1	123	82	101	3.3908
ffffffmmmmffffffccc	chr5:157000477-157000611$1	134	22	41	4.3758
ddddddnnnnndddd333d	chr11:47271239-47271364$1	125	94	113	7.0602
!!ccc[ammmmacccccc3	chr16:31213496-31213628$1	132	43	62	6.4214
cc[ddddllldddd]cccH	chr16:21968642-21968764$1	122	78	97	4.9552
c!!cccnnnnnccc22ccc	chr15:83856155-83856280$1	125	71	90	8.8148
eeee[ccclllccc]eeee	chr16:3782526-3782657$1	131	43	62	5.4844
eeeeeooooooeeeee:::	chr4:148932921-148933057$1	136	21	40	3.5147
!!cccooooooccc22fff	chr3:11321554-11321694$1	140	19	38	7.6247
""ddddnnnnndddd333g	chr6:1901400-1901523$1	123	60	79	7.6056
ffffffnnnnnffffffee	chr8:145244814-145244949$1	135	1	20	7.0523
b"""bbnnnnnbb333bb2	chr5:58952012-58952249$1	237	150	169	6.9224
!!cccooooooccc22ddd	chr17:31002609-31002727$1	118	58	77	7.5324

#otherMatches

#Seq PSSM
AGUAAUAAUUUUUAUAGCA	chr12:22641276-22641396$1	su1	44	63	6.1352
AAUGAUGAUGGUCCUCCCU	chr5:59063909-59064030$1	su1	59	78	5.8158
ggcaUgagccaccaUgccc	chr12:95648301-95648441$1	su1	95	114	5.6960
caUgcUggccaggcUggUc	chr17:58783591-58783722$1	su1	32	51	7.7795
UCUUGCCACCCGGCUGGGA	chr18:56010249-56010373$1	su1	3	22	5.0991
UAAAACUUUAUGUUGUUAU	chr16:18856276-18856412$1	su1	41	60	8.8797
CACCACCCGAAGUGAUGCA	chr8:57081489-57081626$1	su1	7	26	8.5369
UUGGGUUGUCUGCCUUUAG	chr14:58908742-58908861$1	su1	6	25	4.9775
UUAUGGAUAAACCAAAAUU	chr5:135385662-135385790$1	su1	38	57	6.2456
AAGCUAggccgggUgcagU	chr12:112507619-112507741$1	su1	24	43	7.5210
ACUGCUGAAUCAAGGAGUC	chr8:135620736-135620859$1	su1	90	109	6.6426
GAGCGGACCACCCACAAAU	chr16:84170112-84170248$1	su1	16	35	6.7995
GCAGGUCACAUUCUCCAAA	chr21:33795756-33795898$1	su1	72	91	7.3056
caggUgUgagccaccgUgc	chr12:49829310-49829446$1	su1	73	92	6.5995
acacUUUgUgaagUcaggg	chr12:49847254-49847374$1	su1	91	110	4.9044
AGUGUUUGGGAAAAUAUUU	chr8:106938081-106938218$1	su1	93	112	5.9175
UGGGGAAAUCCUUCUUAUU	chr17:76058697-76058906$1	su1	104	123	7.1505
GUUGGCUCUGCUUUCCAGC	chr12:572126-572252$1	su1	100	119	4.5432
cUgaggcaggagaaUcagU	chr13:24762314-24762449$1	su1	64	83	4.2864
ACACAUCUUCUUGUGUUAG	chr6:130386714-130386835$1	su1	69	88	6.0768
UcaaaUacUgUUUUaaaca	chr7:23414655-23414791$1	su1	57	76	6.9579
gUcUccUaUgcUggagUgc	chr7:66572839-66572964$1	su1	60	79	5.7664
acagagggaaacccagUcU	chr5:112339231-112339362$1	su1	21	40	5.5220
acUaUcacaaagaUggUac	chr16:74673388-74673518$1	su1	86	105	7.2249
UAUCUCAGAGCAGAUGGUC	chr5:66170543-66170673$1	su1	85	104	6.6345
AACCAUGGCAGUUagccag	chr11:9740841-9740962$1	su1	93	112	3.2760
GGGCUGCCCUUGUGGCCUU	chr2:151337716-151337850$1	su1	11	30	4.5878
CUUGGAAACUUCUCUAAGG	chr15:51357884-51358019$1	su1	13	32	5.8278
gaUcUagUUUgUagcUcac	chr5:874484-874620$1	su1	46	65	6.4583
ccaaUccaUagaUggggca	chr5:128036455-128036577$1	su1	3	22	5.0284
aUggUggcUcacacUUgUa	chr2:9685359-9685495$1	su1	64	83	5.8363
ggUcaggagaUcgUgacca	chr6:97727128-97727251$1	su1	15	34	4.3434
ggcaUggUggUgcaUgccU	chr5:88041483-88041606$1	su1	6	25	4.7945
ACAGUUUGGCUACUUGGUC	chr15:35148892-35149010$1	su1	91	110	7.3056
UGUCUUUCAGUAGGAGCAU	chr18:52981884-52982023$1	su1	12	31	6.8442
CCACUgagggacagaggga	chr15:65152989-65153111$1	su1	48	67	9.0620
GAAGCGAGUCACGUUUCAA	chr16:29896766-29896896$1	su1	8	27	5.6891
cagccUcccaaagUgcUag	chr16:4512757-4512885$1	su1	17	36	7.3061
AGCUAUUUAUUAAUCUCAG	chr7:121723343-121723479$1	su1	75	94	6.0357
GGGAUUCUGAAGAGACCUC	chr1:8390866-8390986$1	su1	31	50	7.0996
UCGCGGGCACGCGGUGGGU	chr18:43651789-43651910$1	su1	89	108	7.1202
UggaUcacUUgagaUcagg	chr12:12960304-12960441$1	su1	87	106	6.0546
UGCAGAUCUUCUCUCGAGG	chr11:12862163-12862282$1	su1	36	55	8.1088
cagcgUgaccaacaUggUg	chr5:14289697-14289818$1	su1	62	81	6.4056
GGCCCCACAUGAGGGGCCC	chr1:109740309-109740439$1	su1	68	87	6.2732
ACGCCUUCCAUGAAGCGCC	chr16:87925345-87925475$1	su1	13	32	5.7467
UGCUAAUGAAAUAGGGUAA	chr7:111461379-111461499$1	su1	61	80	5.8837
AAAUGUGgagggcUgUggc	chr16:19762167-19762301$1	su1	108	127	7.1305
UUGUAUAUAAAAUACAAGA	chr17:783516-783652$1	su1	20	39	7.3732
GUUGACUGCUUGUUUGUGG	chr11:68298337-68298468$1	su1	51	70	8.4165
UACAAGUAUGCCUUGUAUU	chr14:78021734-78021869$1	su1	59	78	5.5146
ccUUggaaggcUaaggcag	chr5:132292049-132292185$1	su1	27	46	4.5576
agUaaUUUUUUgUUgcaca	chr22:29638523-29638657$1	su1	36	55	5.7288
UCUUGAUCUGUUCACGCUC	chr12:52886376-52886502$1	su1	91	110	8.5301
UgUgaaUUUgaUccUgUca	chr5:93191127-93191254$1	su1	58	77	6.5591
GCAGGCAGGAGGCCUGUCA	chr11:76806785-76806905$1	su1	44	63	6.9293
GCGGGCCCCCGGGCCCGUU	chr16:1555276-1555404$1	su1	33	52	5.4651
UcUUUaaaaaaUaaagaga	chr3:31941116-31941252$1	su1	35	54	5.5146
GAGAAUAAUUUUUCUUCAG	chr22:31934213-31934332$1	su1	86	105	7.1673
ggagUUUgagaccagccUg	chr19:46888684-46888806$1	su1	7	26	6.2585
CCCAAGAUUAAGCUGAGGA	chr12:13046243-13046374$1	su1	89	108	6.3890
aUaUaccagcagUaUaUaU	chr4:107062384-107062541$1	su1	133	152	8.3731
AUCUCCUUAUUUGGCAAGU	chr17:35885317-35885453$1	su1	12	31	5.3630
UUUAUUCAUUUACAACAAA	chr11:118656371-118656494$1	su1	81	100	4.4838
gUacUUUagaagUacaUgg	chr1:196647610-196647749$1	su1	119	138	5.2912
agaUaUUUggcaaUgUcUa	chr5:59238618-59238755$1	su1	88	107	4.5878
aaaggcaaaaagcUcacca	chr18:44479381-44479520$1	su1	5	24	8.8852
UGCUCAAUUCAUGACAUAU	chr8:23295956-23296092$1	su1	22	41	8.3793
UUUUUGCUACAAGAAAGUA	chr15:54626315-54626435$1	su1	93	112	6.0243
GUUUAUAAUACAUAAAACU	chr11:46966831-46966963$1	su1	12	31	7.0471
aaaaaaaaaaagagaaUGG	chr22:25517407-25517536$1	su1	27	46	3.7777
CAUGUUAUUUUCAGCAGCC	chr18:72777536-72777669$1	su1	99	118	5.9602
GGGACCUCCCUGGUACCCA	chr7:151570476-151570609$1	su1	111	130	8.3289
AGUAAGUAACAACUACCUC	chr16:77461578-77461714$1	su1	55	74	4.6984
UAGUUCCUCAUAAUAGCUA	chr10:57095564-57095701$1	su1	6	25	4.5208
UgcaUUUccUUgaUgUUUa	chr18:13486946-13487065$1	su1	71	90	4.6786
UUCUAGUGUUUCUAGAAGU	chr3:65611487-65611608$1	su1	7	26	8.0863
AAGUUACUCUAAGCUUUAU	chr3:2572472-2572605$1	su1	28	47	6.5359
gUaagacUgcccUUcaUaa	chr15:66706563-66706685$1	su1	11	30	7.1909
UUCCAGGUUCUCUGGAGGC	chr12:48136269-48136397$1	su1	93	112	5.6891
UUUUUUAAGUAAGAAAAUC	chr12:130988427-130988550$1	su1	94	113	7.3732
GAAUGUUAAUACAUAUGCC	chr12:56668656-56668778$1	su1	32	51	4.4331
aUggUggcUcacaccUgcU	chr7:129510066-129510200$1	su1	115	134	6.7690
cacUaagcUUaUUacgUgU	chr2:110658168-110658303$1	su1	24	43	8.1321
ccagaaaUaaaUUUaUgUa	chr10:99202831-99202950$1	su1	48	67	8.2725
CAUGGAUAUUCCUAUUUUA	chr22:39056794-39056917$1	su1	82	101	3.3908
UccUagcacUUUaggaggc	chr5:157000477-157000611$1	su1	22	41	4.3758
UCUUUGGGAAACAAAACUG	chr11:47271239-47271364$1	su1	94	113	7.0602
CCAAGUGAUCCCCUUCCCU	chr16:31213496-31213628$1	su1	43	62	6.4214
CUUUAUUUUAAAUACAGUU	chr16:21968642-21968764$1	su1	78	97	4.9552
AUUUAAUUAAUUUGUUUUU	chr15:83856155-83856280$1	su1	71	90	8.8148
UUUUUUUUgagagacggag	chr16:3782526-3782657$1	su1	43	62	5.4844
UcaggagacacccUgagaa	chr4:148932921-148933057$1	su1	21	40	3.5147
UUgUcUgUUUUggcUUcaa	chr3:11321554-11321694$1	su1	19	38	7.6247
CCUGUGCUAAUUACGAUAC	chr6:1901400-1901523$1	su1	60	79	7.6056
UUggUgacaagcaccaagU	chr8:145244814-145244949$1	su1	1	20	7.0523
CAACGUAUUGGACCAAGUU	chr5:58952012-58952249$1	su1	150	169	6.9224
cUgUgUaUUUcUaUcUUUU	chr17:31002609-31002727$1	su1	58	77	7.5324

#PSSM
f : 0.16	d : 0.10	c : 0.10	g : 0.09	e : 0.08	" : 0.07	i : 0.07	[ : 0.06	b : 0.06	! : 0.05	h : 0.04	= : 0.02	: : 0.01	3 : 0.01	$ : 0.01	a : 0.01	+ : 0.01	# : 0.01	z : 0.01	& : 0.01	
f : 0.16	c : 0.10	d : 0.09	" : 0.09	g : 0.09	[ : 0.08	e : 0.08	! : 0.07	i : 0.07	h : 0.03	a : 0.03	= : 0.02	b : 0.02	: : 0.01	3 : 0.01	$ : 0.01	# : 0.01	z : 0.01	
d : 0.17	f : 0.15	c : 0.12	[ : 0.11	g : 0.08	" : 0.07	! : 0.07	i : 0.06	e : 0.06	h : 0.03	a : 0.02	= : 0.02	b : 0.01	z : 0.01	
c : 0.30	d : 0.16	f : 0.15	g : 0.07	i : 0.06	e : 0.05	! : 0.05	[ : 0.03	" : 0.03	h : 0.03	= : 0.02	b : 0.02	z : 0.01	
c : 0.31	d : 0.16	f : 0.13	b : 0.10	g : 0.07	i : 0.06	e : 0.04	h : 0.03	[ : 0.03	= : 0.02	! : 0.01	" : 0.01	z : 0.01	
c : 0.25	o : 0.16	d : 0.14	f : 0.11	b : 0.09	i : 0.05	g : 0.04	h : 0.03	= : 0.02	r : 0.02	[ : 0.02	e : 0.02	! : 0.01	a : 0.01	z : 0.01	
n : 0.44	o : 0.26	m : 0.06	c : 0.06	a : 0.03	l : 0.03	r : 0.02	g : 0.02	i : 0.02	= : 0.01	4 : 0.01	z : 0.01	d : 0.01	
n : 0.44	o : 0.26	m : 0.16	l : 0.04	c : 0.03	r : 0.02	4 : 0.02	z : 0.01	
n : 0.44	o : 0.26	m : 0.16	l : 0.07	r : 0.02	4 : 0.02	z : 0.01	
n : 0.44	o : 0.26	m : 0.16	l : 0.04	r : 0.02	4 : 0.02	i : 0.02	c : 0.01	z : 0.01	
n : 0.44	o : 0.26	m : 0.10	d : 0.04	c : 0.03	l : 0.03	r : 0.02	f : 0.02	i : 0.02	4 : 0.01	z : 0.01	
c : 0.34	d : 0.14	o : 0.10	f : 0.10	b : 0.07	g : 0.06	a : 0.04	i : 0.04	e : 0.03	= : 0.02	r : 0.02	h : 0.02	
c : 0.34	d : 0.17	f : 0.13	b : 0.10	g : 0.06	i : 0.04	h : 0.03	e : 0.03	= : 0.02	r : 0.02	] : 0.02	2 : 0.01	3 : 0.01	
c : 0.32	d : 0.17	f : 0.14	g : 0.06	e : 0.04	i : 0.04	3 : 0.03	b : 0.03	] : 0.03	2 : 0.03	h : 0.03	= : 0.02	r : 0.02	a : 0.01	4 : 0.01	
] : 0.19	f : 0.16	d : 0.15	2 : 0.10	e : 0.07	g : 0.07	i : 0.06	3 : 0.04	c : 0.04	h : 0.03	a : 0.02	= : 0.02	0 : 0.01	4 : 0.01	b : 0.01	
f : 0.19	c : 0.12	e : 0.11	g : 0.09	2 : 0.09	d : 0.07	i : 0.06	3 : 0.05	b : 0.05	= : 0.03	h : 0.03	] : 0.02	4 : 0.02	a : 0.02	0 : 0.01	6 : 0.01	9 : 0.01	
f : 0.18	c : 0.15	d : 0.09	g : 0.09	e : 0.09	b : 0.08	i : 0.06	3 : 0.05	h : 0.04	4 : 0.03	= : 0.03	] : 0.03	0 : 0.01	6 : 0.01	2 : 0.01	5 : 0.01	9 : 0.01	: : 0.01	
c : 0.14	d : 0.11	f : 0.11	e : 0.11	g : 0.09	b : 0.06	i : 0.06	h : 0.06	: : 0.05	] : 0.04	3 : 0.04	4 : 0.03	= : 0.03	0 : 0.01	6 : 0.01	2 : 0.01	5 : 0.01	9 : 0.01	
: : 0.15	d : 0.12	e : 0.12	f : 0.08	c : 0.07	2 : 0.06	h : 0.06	= : 0.04	g : 0.04	4 : 0.04	i : 0.04	] : 0.03	b : 0.03	3 : 0.03	5 : 0.02	6 : 0.02	0 : 0.01	9 : 0.01	H : 0.01	

#score	619.2809377383606
#seq	98
#width	19
#escape	false
#onStep	15000
#minSteps	10000
#maxSteps	15000.0