SeqCat01|143	99	48	67	89	124	30.5139
SeqCat01|186	99	50	69	93	128	16.7852
SeqCat01|80	99	37	56	70	105	28.5946
SeqCat01|189	99	77	96	143	178	30.5139
SeqCat03|86	91	68	88	116	151	12.7381
SeqCat01|175	99	24	43	45	80	30.5139
SeqCat03|29	91	27	47	46	81	15.8381
SeqCat01|60	99	75	94	139	174	30.5139
SeqCat01|152	99	54	73	101	136	30.5139
SeqCat01|127	99	71	90	132	167	30.5139
SeqCat01|75	99	23	42	43	78	30.5139
SeqCat01|5	99	29	48	54	89	28.5946
SeqCat02|23	91	78	99	134	169	12.5982
SeqCat01|115	99	67	86	125	160	28.5946
SeqCat01|88	99	51	70	96	131	30.5139
SeqCat01|71	99	55	74	102	137	28.5946
SeqCat01|55	99	78	97	146	181	28.5264
SeqCat01|192	99	34	52	63	98	30.5139
SeqCat01|22	99	22	41	42	77	17.7768
SeqCat01|141	99	55	74	102	137	30.5139
SeqCat01|193	99	36	55	68	103	27.1753
SeqCat03|34	91	45	65	77	112	14.7355
SeqCat01|54	99	16	35	30	65	30.5139
SeqCat01|118	99	70	89	131	166	28.5946
SeqCat01|39	99	61	80	113	148	30.5139
SeqCat01|44	99	59	78	110	145	30.5139
SeqCat01|99	99	55	74	102	137	28.5946
SeqCat01|121	99	25	44	48	83	30.5139
SeqCat01|161	99	68	87	127	162	30.5139
SeqCat01|51	99	23	42	43	78	28.5946
SeqCat01|16	99	45	64	84	119	28.5264
SeqCat01|102	99	37	56	70	105	30.5139
SeqCat01|74	99	33	52	62	97	30.5139
SeqCat01|38	99	17	36	33	68	28.5946
SeqCat01|13	99	49	68	91	126	30.5139
SeqCat01|173	99	57	76	106	141	26.4067
SeqCat01|32	99	63	82	117	152	17.4263
SeqCat01|18	99	38	57	72	107	30.5139
SeqCat01|172	99	37	56	70	105	30.5139
SeqCat01|138	99	43	62	81	116	28.5946
SeqCat01|21	99	61	80	114	149	30.5139
SeqCat01|12	99	57	76	107	142	30.5139
SeqCat01|90	99	48	67	89	124	30.5139
SeqCat01|98	99	57	76	106	141	30.5139
SeqCat01|43	99	60	78	111	146	30.5139
SeqCat01|72	99	75	94	139	174	30.5139
SeqCat01|31	99	19	38	36	71	28.5264
SeqCat01|124	99	60	78	111	146	30.5139
SeqCat02|190	91	16	37	28	63	13.9764
SeqCat01|128	99	62	81	116	151	30.5139
SeqCat01|146	99	60	79	112	147	28.5264
SeqCat01|76	99	32	51	61	96	28.5264
SeqCat01|62	99	24	43	46	81	28.5946
SeqCat01|49	99	45	64	84	119	28.5264
SeqCat01|68	100	65	83	121	156	30.5139
SeqCat02|91	91	38	58	65	100	12.9483
SeqCat01|166	99	41	60	77	112	30.5139
SeqCat01|36	99	40	58	74	109	30.5139
SeqCat01|140	99	62	81	115	150	28.5264
SeqCat01|28	99	20	38	37	72	30.5139
SeqCat01|25	99	51	70	96	131	30.5139
SeqCat01|158	99	80	98	148	183	28.5946
SeqCat01|95	99	41	60	77	112	28.5946
SeqCat01|153	99	19	38	36	71	30.5139
