eeee[bbpppppppbb]eeee	SeqCat01|49$1	185	2	23	13.2146
ccc!!bbpppppppbb22ccc	SeqCat03|125$1	170	77	98	13.3064
gggggggpppppppggggggg	SeqCat03|137$1	170	47	68	18.0410
gggggggpppppppggggggg	SeqCat03|188$1	170	43	64	18.0410
gggggggpppppppggggggg	SeqCat02|197$1	170	39	60	18.0410
hhhhhhhppppppphhhhhhh	SeqCat02|97$1	170	46	67	15.9091
cffffffpppppppffffff]	SeqCat03|56$1	170	9	30	14.5501
gggggggpppppppggggggg	SeqCat03|20$1	170	2	23	18.0410
gggggggpppppppggggggg	SeqCat03|176$1	170	33	54	18.0410
A:eeeeepppppppeeeee::	SeqCat01|127$1	185	101	122	9.7460
eeeeerrrrrrrrreeeeeee	SeqCat01|54$1	185	132	153	9.4526
gggggggpppppppggggggg	SeqCat03|6$1	170	24	45	18.0410
"ddddrrrrrrrrrdddd333	SeqCat01|39$1	185	57	78	8.5407
gggggggpppppppggggggg	SeqCat02|57$1	170	43	64	18.0410
gggggggpppppppggggggg	SeqCat03|130$1	170	37	58	18.0410
gggggggpppppppggggggg	SeqCat02|15$1	170	11	32	18.0410
gggggggpppppppggggggg	SeqCat02|198$1	170	39	60	18.0410
gggggggpppppppggggggg	SeqCat03|108$1	170	21	42	18.0410
!!eeeeepppppppeeeeeee	SeqCat01|5$1	185	125	146	14.2953
ccc[cccpppppppccc]ccc	SeqCat01|161$1	185	85	106	15.1312
cffffffpppppppffffff]	SeqCat02|119$1	170	83	104	14.5501
gggggggpppppppggggggg	SeqCat03|50$1	170	42	63	18.0410
!!ddddrrrrrrrrrdddddd	SeqCat01|92$1	185	145	166	8.7821
gggggggpppppppggggggg	SeqCat03|136$1	170	27	48	18.0410
!ffffffpppppppffffff4	SeqCat01|152$1	185	60	81	14.3265
iiiiiiipppppppiiiiiii	SeqCat02|195$1	170	36	57	17.0517
hhhhhhhppppppphhhhhhh	SeqCat02|116$1	170	27	48	15.9091
hhhhhhhppppppphhhhhhh	SeqCat03|110$1	170	14	35	15.9091
iiiiiiipppppppiiiiiii	SeqCat03|70$1	170	10	31	17.0517
gggggggpppppppggggggg	SeqCat03|26$1	170	22	43	18.0410
gggggggpppppppggggggg	SeqCat02|84$1	170	33	54	18.0410
hhhhhhhppppppphhhhhhh	SeqCat03|19$1	170	33	54	15.9091
hhhhhhrrrrrrrrrhhhhhh	SeqCat03|29$1	170	130	151	11.2930
gggggggpppppppggggggg	SeqCat02|96$1	170	30	51	18.0410
dddddddpppppppdddd]dd	SeqCat03|86$1	170	62	83	12.6201
hhhhhhhppppppphhhhhhh	SeqCat03|150$1	170	27	48	15.9091
gggggggpppppppggggggg	SeqCat03|78$1	170	24	45	18.0410
gggggggpppppppggggggg	SeqCat02|131$1	170	47	68	18.0410
hhhhhhhppppppphhhhhhh	SeqCat02|45$1	170	37	58	15.9091
gggggggpppppppggggggg	SeqCat02|111$1	170	47	68	18.0410
:ffffffpppppppfffffff	SeqCat03|160$1	170	12	33	13.3345
##eeeeepppppppeeeee44	SeqCat03|114$1	170	134	155	13.4058
gggggggpppppppggggggg	SeqCat03|61$1	170	28	49	18.0410
gggggggpppppppggggggg	SeqCat03|1$1	170	8	29	18.0410
bb[cccrrrrrrrrrccc]bb	SeqCat01|72$1	185	0	21	9.3579
gggggggpppppppggggggg	SeqCat02|126$1	170	47	68	18.0410
gggggggpppppppggggggg	SeqCat03|34$1	170	42	63	18.0410
gggggggpppppppggggggg	SeqCat03|113$1	170	42	63	18.0410
gggggggpppppppggggggg	SeqCat02|199$1	170	30	51	18.0410
gggggggpppppppggggggg	SeqCat02|151$1	170	40	61	18.0410
gggggggpppppppggggggg	SeqCat03|27$1	170	42	63	18.0410
gggggggpppppppggggggg	SeqCat03|58$1	170	44	65	18.0410
gggggggpppppppggggggg	SeqCat03|122$1	170	1	22	18.0410
gggggggpppppppggggggg	SeqCat03|120$1	170	33	54	18.0410
###ddddpppppppddddddd	SeqCat01|43$1	185	87	108	12.4845
hhhhhhhppppppphhhhhhh	SeqCat01|48$1	185	152	173	15.9091
gggggggpppppppggggggg	SeqCat02|164$1	170	39	60	18.0410
gggggggpppppppggggggg	SeqCat03|162$1	170	6	27	18.0410
hhhhhhhppppppphhhhhhh	SeqCat03|178$1	170	5	26	15.9091
gggggggpppppppggggggg	SeqCat01|172$1	185	140	161	18.0410
gggggggpppppppggggggg	SeqCat02|171$1	170	4	25	18.0410
gggggggpppppppggggggg	SeqCat03|135$1	170	30	51	18.0410
dd[ddddpppppppdddd]dd	SeqCat01|169$1	185	79	100	12.8976
!!eeeeerrrrrrrrreeeee	SeqCat01|12$1	185	39	60	9.8253
hhhhhhhppppppphhhhhhh	SeqCat02|17$1	170	22	43	15.9091
gggggggpppppppggggggg	SeqCat02|159$1	170	23	44	18.0410
gggggggpppppppggggggg	SeqCat03|134$1	170	38	59	18.0410
gggggggpppppppggggggg	SeqCat03|184$1	170	41	62	18.0410
ebb[cccpppppppcccbb22	SeqCat01|60$1	185	108	129	13.2509
Effffffpppppppffffffc	SeqCat01|55$1	185	4	25	13.3895
gggggggpppppppggggggg	SeqCat02|91$1	170	15	36	18.0410
gggggggpppppppggggggg	SeqCat02|180$1	170	42	63	18.0410
iiiiiiipppppppiiiiiii	SeqCat02|52$1	170	20	41	17.0517
gggggggpppppppggggggg	SeqCat02|142$1	170	14	35	18.0410
gggggggpppppppggggggg	SeqCat03|0$1	170	20	41	18.0410
eeeeeeepppppppeeeee]e	SeqCat01|166$1	185	45	66	14.0086
gggggggpppppppggggggg	SeqCat02|41$1	170	22	43	18.0410
gggggggpppppppggggggg	SeqCat02|190$1	170	0	21	18.0410
gggggggpppppppggggggg	SeqCat03|103$1	170	41	62	18.0410
gggggggpppppppggggggg	SeqCat02|107$1	170	1	22	18.0410
gggggggpppppppggggggg	SeqCat03|149$1	170	22	43	18.0410
ddffffffpppppppffffff	SeqCat01|128$1	185	163	184	10.8785
gggggggpppppppggggggg	SeqCat02|117$1	170	14	35	18.0410
gggggggpppppppggggggg	SeqCat03|81$1	170	15	36	18.0410
gggggggpppppppggggggg	SeqCat02|177$1	170	18	39	18.0410
ddd[cccpppppppcccdddd	SeqCat01|31$1	185	151	172	13.8323
gggggggpppppppggggggg	SeqCat03|93$1	170	4	25	18.0410
hhhhhhhppppppphhhhhhh	SeqCat03|87$1	170	39	60	15.9091
hhhhhhhppppppphhhhhhh	SeqCat02|182$1	170	30	51	15.9091
+ffffffpppppppffffffg	SeqCat03|132$1	170	23	44	13.8701
gggggggpppppppggggggg	SeqCat02|23$1	170	37	58	18.0410
a"""cccpppppppccc22ad	SeqCat01|153$1	185	159	180	13.7359
gggggggpppppppggggggg	SeqCat02|170$1	170	43	64	18.0410
gggggggpppppppggggggg	SeqCat02|106$1	170	11	32	18.0410
gggggggpppppppggggggg	SeqCat02|183$1	170	48	69	18.0410
ffffffrrrrrrrrrffffff	SeqCat01|75$1	185	115	136	9.8386
gggggggpppppppggggggg	SeqCat03|73$1	170	10	31	18.0410
gggggggpppppppggggggg	SeqCat02|185$1	170	48	69	18.0410
hhhhhhhppppppphhhhhhh	SeqCat03|79$1	170	25	46	15.9091

#otherMatches

#Seq PSSM
AUACCCGGAAAGCGCGCGUAU	SeqCat01|49$1	su1	2	23	13.2146
GCUCGCUGGUCCUAAGAUAGU	SeqCat03|125$1	su1	77	98	13.3064
AUGGAAGAGUAAGCCUUCCAU	SeqCat03|137$1	su1	47	68	18.0410
AUGGAAGAGUAAGCCUUCCAU	SeqCat03|188$1	su1	43	64	18.0410
AUGGAAGAGUAAGCCUUCCAU	SeqCat02|197$1	su1	39	60	18.0410
AUGGAAGAGUAAGCCUUCCAU	SeqCat02|97$1	su1	46	67	15.9091
AUGGAAGAGUAAGCCUUCCAU	SeqCat03|56$1	su1	9	30	14.5501
AUGGAAGAGUAAGCCUUCCAU	SeqCat03|20$1	su1	2	23	18.0410
AUGGAAGAGUAAGCCUUCCAU	SeqCat03|176$1	su1	33	54	18.0410
CAGUCCUACCCUCAAGGACAA	SeqCat01|127$1	su1	101	122	9.7460
CCGCUCUCGGGCUCAGCGGGU	SeqCat01|54$1	su1	132	153	9.4526
AUGGAAGAGUAAGCCUUCCAU	SeqCat03|6$1	su1	24	45	18.0410
GCUGCGUAUCUGGAGCAGAAA	SeqCat01|39$1	su1	57	78	8.5407
AUGGAAGAGUAAGCCUUCCAU	SeqCat02|57$1	su1	43	64	18.0410
AUGGAAGAGUAAGCCUUCCAU	SeqCat03|130$1	su1	37	58	18.0410
AUGGAAGAGUAAGCCUUCCAU	SeqCat02|15$1	su1	11	32	18.0410
AUGGAAGAGUAAGCCUUCCAU	SeqCat02|198$1	su1	39	60	18.0410
AUGGAAGAGUAAGCCUUCCAU	SeqCat03|108$1	su1	21	42	18.0410
UUAAGAUCAGUCUUGUCUUUG	SeqCat01|5$1	su1	125	146	14.2953
GGCAGUUACGUCGGGGCAGCC	SeqCat01|161$1	su1	85	106	15.1312
AGACUGAGGCGCAGUCGGUCA	SeqCat02|119$1	su1	83	104	14.5501
AUGGAAGAGUAAGCCUUCCAU	SeqCat03|50$1	su1	42	63	18.0410
UUUACGCCCAUCUCACGUAUG	SeqCat01|92$1	su1	145	166	8.7821
AUGGAAGAGUAAGCCUUCCAU	SeqCat03|136$1	su1	27	48	18.0410
UGGUACUGAAAAGAGGUGCCU	SeqCat01|152$1	su1	60	81	14.3265
AUGGAAGAGUAAGCCUUCCAU	SeqCat02|195$1	su1	36	57	17.0517
AUGGAAGAGUAAGCCUUCCAU	SeqCat02|116$1	su1	27	48	15.9091
AUGGAAGAGUAAGCCUUCCAU	SeqCat03|110$1	su1	14	35	15.9091
AUGGAAGAGUAAGCCUUCCAU	SeqCat03|70$1	su1	10	31	17.0517
AUGGAAGAGUAAGCCUUCCAU	SeqCat03|26$1	su1	22	43	18.0410
AUGGAAGAGUAAGCCUUCCAU	SeqCat02|84$1	su1	33	54	18.0410
AUGGAAGAGUAAGCCUUCCAU	SeqCat03|19$1	su1	33	54	15.9091
GGGUCCCAACGCCAUGGACCU	SeqCat03|29$1	su1	130	151	11.2930
AUGGAAGAGUAAGCCUUCCAU	SeqCat02|96$1	su1	30	51	18.0410
AAUGUCUAAAGUCGAGACGGU	SeqCat03|86$1	su1	62	83	12.6201
AUGGAAGAGUAAGCCUUCCAU	SeqCat03|150$1	su1	27	48	15.9091
AUGGAAGAGUAAGCCUUCCAU	SeqCat03|78$1	su1	24	45	18.0410
AUGGAAGAGUAAGCCUUCCAU	SeqCat02|131$1	su1	47	68	18.0410
AUGGAAGAGUAAGCCUUCCAU	SeqCat02|45$1	su1	37	58	15.9091
AUGGAAGAGUAAGCCUUCCAU	SeqCat02|111$1	su1	47	68	18.0410
AUGGAAGAGUAAGCCUUCCAU	SeqCat03|160$1	su1	12	33	13.3345
CUUUAUGAAGACUGCAUAAUC	SeqCat03|114$1	su1	134	155	13.4058
AUGGAAGAGUAAGCCUUCCAU	SeqCat03|61$1	su1	28	49	18.0410
AUGGAAGAGUAAGCCUUCCAU	SeqCat03|1$1	su1	8	29	18.0410
GAAGUAUUAUCAAAUUGCAUC	SeqCat01|72$1	su1	0	21	9.3579
AUGGAAGAGUAAGCCUUCCAU	SeqCat02|126$1	su1	47	68	18.0410
AUGGAAGAGUAAGCCUUCCAU	SeqCat03|34$1	su1	42	63	18.0410
AUGGAAGAGUAAGCCUUCCAU	SeqCat03|113$1	su1	42	63	18.0410
AUGGAAGAGUAAGCCUUCCAU	SeqCat02|199$1	su1	30	51	18.0410
AUGGAAGAGUAAGCCUUCCAU	SeqCat02|151$1	su1	40	61	18.0410
AUGGAAGAGUAAGCCUUCCAU	SeqCat03|27$1	su1	42	63	18.0410
AUGGAAGAGUAAGCCUUCCAU	SeqCat03|58$1	su1	44	65	18.0410
AUGGAAGAGUAAGCCUUCCAU	SeqCat03|122$1	su1	1	22	18.0410
AUGGAAGAGUAAGCCUUCCAU	SeqCat03|120$1	su1	33	54	18.0410
UAAGUGAAUUUCGAUCACAUG	SeqCat01|43$1	su1	87	108	12.4845
UUACAUUGAGAGUAAGUGUAA	SeqCat01|48$1	su1	152	173	15.9091
AUGGAAGAGUAAGCCUUCCAU	SeqCat02|164$1	su1	39	60	18.0410
AUGGAAGAGUAAGCCUUCCAU	SeqCat03|162$1	su1	6	27	18.0410
AUGGAAGAGUAAGCCUUCCAU	SeqCat03|178$1	su1	5	26	15.9091
ACUUAUUGACUGUAAAUAAGU	SeqCat01|172$1	su1	140	161	18.0410
AUGGAAGAGUAAGCCUUCCAU	SeqCat02|171$1	su1	4	25	18.0410
AUGGAAGAGUAAGCCUUCCAU	SeqCat03|135$1	su1	30	51	18.0410
GGCAUGCACAUUCAGCGUAUC	SeqCat01|169$1	su1	79	100	12.8976
GUGGCGUCAUUCCUUUACGCU	SeqCat01|12$1	su1	39	60	9.8253
AUGGAAGAGUAAGCCUUCCAU	SeqCat02|17$1	su1	22	43	15.9091
AUGGAAGAGUAAGCCUUCCAU	SeqCat02|159$1	su1	23	44	18.0410
AUGGAAGAGUAAGCCUUCCAU	SeqCat03|134$1	su1	38	59	18.0410
AUGGAAGAGUAAGCCUUCCAU	SeqCat03|184$1	su1	41	62	18.0410
ACUAUGGACUAAACCCAAGAA	SeqCat01|60$1	su1	108	129	13.2509
CGAAUGGAGCAGAGUCAUUCC	SeqCat01|55$1	su1	4	25	13.3895
AUGGAAGAGUAAGCCUUCCAU	SeqCat02|91$1	su1	15	36	18.0410
AUGGAAGAGUAAGCCUUCCAU	SeqCat02|180$1	su1	42	63	18.0410
AUGGAAGAGUAAGCCUUCCAU	SeqCat02|52$1	su1	20	41	17.0517
AUGGAAGAGUAAGCCUUCCAU	SeqCat02|142$1	su1	14	35	18.0410
AUGGAAGAGUAAGCCUUCCAU	SeqCat03|0$1	su1	20	41	18.0410
UGGUCUGUACAACUCGGGCGC	SeqCat01|166$1	su1	45	66	14.0086
AUGGAAGAGUAAGCCUUCCAU	SeqCat02|41$1	su1	22	43	18.0410
AUGGAAGAGUAAGCCUUCCAU	SeqCat02|190$1	su1	0	21	18.0410
AUGGAAGAGUAAGCCUUCCAU	SeqCat03|103$1	su1	41	62	18.0410
AUGGAAGAGUAAGCCUUCCAU	SeqCat02|107$1	su1	1	22	18.0410
AUGGAAGAGUAAGCCUUCCAU	SeqCat03|149$1	su1	22	43	18.0410
AUACGUCAUUCGGAUUGACGU	SeqCat01|128$1	su1	163	184	10.8785
AUGGAAGAGUAAGCCUUCCAU	SeqCat02|117$1	su1	14	35	18.0410
AUGGAAGAGUAAGCCUUCCAU	SeqCat03|81$1	su1	15	36	18.0410
AUGGAAGAGUAAGCCUUCCAU	SeqCat02|177$1	su1	18	39	18.0410
GCGAUUGGACCAGGCAACGCG	SeqCat01|31$1	su1	151	172	13.8323
AUGGAAGAGUAAGCCUUCCAU	SeqCat03|93$1	su1	4	25	18.0410
AUGGAAGAGUAAGCCUUCCAU	SeqCat03|87$1	su1	39	60	15.9091
AUGGAAGAGUAAGCCUUCCAU	SeqCat02|182$1	su1	30	51	15.9091
AUGGAAGAGUAAGCCUUCCAU	SeqCat03|132$1	su1	23	44	13.8701
AUGGAAGAGUAAGCCUUCCAU	SeqCat02|23$1	su1	37	58	18.0410
GCUUCUGAUUGAAACAGUACC	SeqCat01|153$1	su1	159	180	13.7359
AUGGAAGAGUAAGCCUUCCAU	SeqCat02|170$1	su1	43	64	18.0410
AUGGAAGAGUAAGCCUUCCAU	SeqCat02|106$1	su1	11	32	18.0410
AUGGAAGAGUAAGCCUUCCAU	SeqCat02|183$1	su1	48	69	18.0410
UGACGCAUUACGAGAGCGUCA	SeqCat01|75$1	su1	115	136	9.8386
AUGGAAGAGUAAGCCUUCCAU	SeqCat03|73$1	su1	10	31	18.0410
AUGGAAGAGUAAGCCUUCCAU	SeqCat02|185$1	su1	48	69	18.0410
AUGGAAGAGUAAGCCUUCCAU	SeqCat03|79$1	su1	25	46	15.9091

#PSSM
g : 0.57	h : 0.13	e : 0.04	c : 0.04	! : 0.04	d : 0.04	i : 0.03	# : 0.02	A : 0.01	" : 0.01	: : 0.01	b : 0.01	E : 0.01	+ : 0.01	a : 0.01	f : 0.01	
g : 0.57	h : 0.13	f : 0.07	d : 0.05	e : 0.03	! : 0.03	i : 0.03	c : 0.02	# : 0.02	b : 0.02	: : 0.01	" : 0.01	
g : 0.57	h : 0.13	f : 0.08	e : 0.07	d : 0.04	i : 0.03	c : 0.02	[ : 0.02	# : 0.01	b : 0.01	" : 0.01	
g : 0.57	h : 0.13	f : 0.08	e : 0.07	d : 0.05	[ : 0.03	i : 0.03	! : 0.01	c : 0.01	" : 0.01	
g : 0.57	h : 0.13	f : 0.08	e : 0.06	d : 0.05	c : 0.05	i : 0.03	[ : 0.01	! : 0.01	
g : 0.57	h : 0.13	f : 0.08	e : 0.05	c : 0.05	d : 0.04	i : 0.03	b : 0.02	r : 0.02	
g : 0.57	h : 0.12	f : 0.07	r : 0.06	e : 0.05	c : 0.04	i : 0.03	d : 0.03	b : 0.02	
p : 0.91	r : 0.07	f : 0.01	
p : 0.92	r : 0.07	
p : 0.92	r : 0.07	
p : 0.92	r : 0.07	
p : 0.92	r : 0.07	
p : 0.92	r : 0.07	
p : 0.92	r : 0.07	
g : 0.57	h : 0.12	f : 0.06	e : 0.05	r : 0.05	d : 0.04	c : 0.04	i : 0.03	b : 0.02	p : 0.01	
g : 0.57	h : 0.13	f : 0.08	e : 0.05	d : 0.05	c : 0.05	i : 0.03	b : 0.02	r : 0.01	
g : 0.57	h : 0.13	f : 0.08	e : 0.06	d : 0.05	c : 0.05	i : 0.03	] : 0.01	2 : 0.01	
g : 0.57	h : 0.13	f : 0.08	e : 0.07	d : 0.06	i : 0.03	2 : 0.02	] : 0.01	c : 0.01	b : 0.01	
g : 0.57	h : 0.13	f : 0.08	e : 0.07	d : 0.03	i : 0.03	] : 0.03	c : 0.02	3 : 0.01	b : 0.01	2 : 0.01	
g : 0.57	h : 0.13	f : 0.08	d : 0.05	e : 0.04	i : 0.03	c : 0.02	: : 0.01	3 : 0.01	4 : 0.01	b : 0.01	2 : 0.01	] : 0.01	a : 0.01	
g : 0.58	h : 0.13	d : 0.06	e : 0.05	c : 0.03	i : 0.03	f : 0.03	] : 0.02	4 : 0.02	: : 0.01	3 : 0.01	b : 0.01	2 : 0.01	

#score	1604.3220943115148
#seq	99
#width	21
#escape	false
#onStep	15000
#minSteps	10000
#maxSteps	15000.0