hhhhhhhhoooooohhhhhh	RF00066_BX001019.7/126828-126773_bg$1	56	31	51	7.5885
a[ffffffooooooffffff	RF00517_AACY021164314.1/775-826_bg$1	52	8	28	9.2480
cc####ddddllldddd333	RF01051_AM180355.1/3266964-3266879_bg$1	86	49	69	5.9645
ggg!!ddddmmmmdddd22g	RF01793_AACY021910620.1/877-825_bg$1	53	19	39	5.3333
::ffffffooooooffffff	RF00517_AAGA01005882.1/680-629_bg$1	52	8	28	7.3417
::ffffffooooooffffff	RF01394_CP000468.1/5012357-5012433_bg$1	77	52	72	7.3417
:::eeeeeooooooeeeee:	RF01933_M27995.1/122-66_bg$1	57	11	31	4.9436
cc"""ddddmmmmdddd22c	RF01051_AAES01000043.1/103414-103498_bg$1	85	49	69	5.2089
b[ffffffnnnnnffffff]	RF01668_CP000094.2/3667993-3667922_bg$1	72	17	37	5.2859
dd####cccmmmmccc4444	RF00169_CP000908.1/2084457-2084425_bg$1	33	6	26	6.6679
bbgggggggmmmmggggggg	RF01410_CP000557.1/1567478-1567409_bg$1	70	39	59	5.3047
iiiiiiiiimmmmiiiiiii	RF00519_AAQG01000001.1/67741-67816_bg$1	76	39	59	6.1847
:gggggggoooooogggggg	RF00519_CP000943.1/2086262-2086190_bg$1	73	37	57	9.2662
c[cccrrrrrrrrrccc]cc	RF01057_CU914168.1/185982-185906_bg$1	77	22	42	6.3960
ccc!!============^^^	RF00693_AY866123.1/404-475_bg$1	72	8	28	5.0621
c####ddddnnnnndddd44	RF00490_CP000762.1/37633-37699_bg$1	67	10	30	5.6835
gggggg[aooooooa]gggg	RF00519_AF389112.1/19268-19192_bg$1	77	39	59	9.9217
::ffffffooooooffffff	RF00517_AACY020272957.1/165-114_bg$1	52	8	28	7.3417
ee:eeeeeooooooeeeee:	RF00490_AM236084.1/2341-2406_bg$1	66	43	63	6.4904
"""eeeeeooooooeeeee2	RF01051_ABAX03000005.1/232139-232052_bg$1	88	50	70	8.6115
ccffffffnnnnnffffff]	RF01668_AE004091.2/1807682-1807753_bg$1	72	17	37	5.3497
gggggggrrrrrrrrrgggg	RF00493_AAQR03000416.1/11747-11678_bg$1	70	12	32	5.9541
::ffffffooooooffffff	RF02071_ABEL01000005.1/206755-206838_bg$1	84	52	72	7.3417
eee!!cccnnnnnccc22ee	RF01962_AAGU03008644.1/26564-26625_bg$1	62	25	45	6.5210
=========mmmm=======	RF02057_CU928158.2/132925-132998_bg$1	74	48	68	6.8853
cc"""ddddmmmmdddd22c	RF01051_AE017225.1/397305-397389_bg$1	85	49	69	5.2089
bb"""cccooooooccc444	RF01130_CP002952.1/765075-765127_bg$1	53	1	21	10.8648
:gggggggnnnnnggggggg	RF00057_BX571859.1/98959-98893_bg$1	67	40	60	5.4498
ccc"""ddddllldddd22c	RF01051_ABDX01000004.1/24814-24897_bg$1	84	48	68	5.5139
""ccc[bboooooobb]ccc	RF01782_ACEV01000078.1/34422-34496_bg$1	75	40	60	9.6646
gggg!!ddddllldddd22g	RF01793_CP000084.1/260256-260205_bg$1	52	18	38	5.5669
:gggggggnnnnnggggggg	RF00057_AM286415.1/4382210-4382145_bg$1	66	39	59	5.4498
a[ffffffooooooffffff	RF00517_AACY021195471.1/681-732_bg$1	52	8	28	9.2480
iiiiiiiiimmmmiiiiiii	RF00368_AALC02000044.1/32691-32612_bg$1	80	51	71	6.1847
ee]addddoooooodddd::	RF02221_FM866756.1/158-74_bg$1	85	43	63	6.5028
========oooooo======	RF02064_CP000857.1/3777076-3777146_bg$1	71	40	60	10.5778
ccc!!ddddllldddd22cc	RF02218_AP009553.1/203684-203748_bg$1	65	39	59	5.4602
:gggggggnnnnnggggggg	RF00368_ABWL02000008.1/254866-254785_bg$1	82	2	22	5.4498
:::eeeeeooooooeeeee:	RF01933_AAST01029201.1/717-661_bg$1	57	11	31	4.9436
!bbeeeeeannnnna]eeee	RF01410_AE017225.1/3410190-3410276_bg$1	87	37	57	4.8024
iiiiiiiiimmmmiiiiiii	RF00368_AALE02000006.1/213519-213600_bg$1	82	53	73	6.1847
=========lll========	RF00519_AAMY01000008.1/38850-38774_bg$1	77	40	60	7.4453
fff[bbcccnnnnnccc]bb	RF00382_U66040.1/1434-1498_bg$1	65	34	54	5.9808
d[ffffffrrrrrrrrrfff	  ENERGY = 12.6  chr6:27792146-27792305$1	159	35	55	5.1565
bb:bb[bboooooobbbb:b	  ENERGY = 36.2  chr6:26199759-26200266$1	507	51	71	6.1244
[gggggggoooooogggggg	  ENERGY = 27.3  chr6:27114988-27115367$1	379	220	240	10.1690
bb####bboooooobb4444	  ENERGY = 29.9  chr6:26204807-26205302$1	495	445	465	9.6008
iiiiiiiiimmmmiiiiiii	  ENERGY = 11.5  chr6:27798901-27799061$1	160	51	71	6.1847
""bbbb[aooooooa]bb22	  ENERGY = 20.4  chr6:26197017-26197271$1	254	57	77	7.8780
d!!eeeeeooooooeeeee2	  ENERGY = 36.0  chr6:26198957-26199526$1	569	236	256	8.6778
c!!eeeeeooooooeeeee2	  ENERGY = 31.3  chr6:27805607-27805995$1	388	90	110	8.7714
ggg"""bboooooobbgggg	  ENERGY = 43.7  chr6:27777791-27778364$1	573	289	309	10.3330
gggg!!bboooooobbgggg	  ENERGY = 35.8  chr12:14923605-14924052$1	447	176	196	10.3147
:gggggggoooooogggggg	  ENERGY = 37.8  chr6:27107023-27107502$1	479	431	451	9.2662
b[ffffffooooooffffff	  ENERGY = 25.8  chr6:26033269-26033611$1	342	309	329	9.0996
!ccc!!bboooooobb22cc	  ENERGY = 38.8  chr6:26251828-26252353$1	525	38	58	9.7849
cc[cccqqqqqqqqccc]cc	  ENERGY = 11.6  chr1:228645015-228645187$1	172	135	155	4.9624
g!!eeeeeooooooeeeee6	  ENERGY = 9.7  chr6:26046022-26046145$1	123	16	36	8.5314
[dddd[bboooooobbdddd	  ENERGY = 11.9  chr1:228645445-228645578$1	133	15	35	8.6527
hh:eeeeeooooooeeeee:	  ENERGY = 11.2  chr6:27782943-27783074$1	131	42	62	6.3996
gg####cccmmmmcccgggg	  ENERGY = 14.8  chr1:149784775-149784934$1	159	58	78	7.0048
eeee[cccooooooccc]ee	  ENERGY = 23.1  chr1:149857897-149858240$1	343	87	107	10.6667
d[bb!!cccmmmmccc22bb	  ENERGY = 30.8  chr6:26017210-26017638$1	428	28	48	5.7795
!!ffffffrrrrrrrrrfff	  ENERGY = 21.5  chr6:27776250-27776479$1	229	35	55	5.3360
bbb[ddddoooooodddd]b	  ENERGY = 30.2  chr6:26124441-26124971$1	530	419	439	8.1361
b[ffffffooooooffffff	  ENERGY = 52.2  chr6:26055917-26056705$1	788	9	29	9.0996
[gggggggnnnnnggggggg	  ENERGY = 42.4  chr6:26217131-26217716$1	585	344	364	6.3526
dddd[cccooooooccc]dd	  ENERGY = 21.0  chr6:26022092-26022328$1	236	210	230	10.5921
::bb[cccooooooccc]bb	  ENERGY = 20.0  chr6:26158627-26158885$1	258	107	127	8.7411
]ccc:cccooooooccc:FF	  ENERGY = 10.2  chr1:228612500-228612631$1	131	104	124	7.9914
ddd!!cccqqqqqqqqcccd	  ENERGY = 16.6  chr6:27833133-27833343$1	210	65	85	4.7995
iiiiiiiiimmmmiiiiiii	  ENERGY = 11.0  chr6:27839574-27839704$1	130	50	70	6.1847
====!!ccclllccc=====	  ENERGY = 40.8  chr6:26031769-26032338$1	569	443	463	7.5323
$$ffffffooooooffffff	  ENERGY = 21.5  chr6:27833349-27833624$1	275	84	104	8.8233
d####cccnnnnnccc4444	  ENERGY = 14.3  chr6:27114052-27114267$1	215	7	27	7.2999
#dddd[bboooooobb]ddd	  ENERGY = 41.4  chr6:27100800-27101364$1	564	351	371	8.5980
ccc[ddddoooooodddd]c	  ENERGY = 13.8  chr6:27782061-27782256$1	195	88	108	9.0611
iiiiiibboooooobbcccb	  ENERGY = 14.4  chr6:26158320-26158483$1	163	101	121	9.7483
ddd!!cccooooooccc22d	  ENERGY = 43.5  chr6:27834519-27835059$1	540	190	210	10.6113
cc[bb[bboooooobb]bb]	  ENERGY = 8.4  chr1:120906264-120906400$1	136	20	40	8.8714
ffff:cccmmmmcccccc[c	  ENERGY = 10.3  chr6:26198147-26198284$1	137	37	57	5.0554
dddd[cccoooooocccddd	  ENERGY = 42.6  chr6:26271095-26271662$1	567	425	445	10.2202
ccc!!ddddmmmmdddd22c	  ENERGY = 24.4  chr6:27806591-27806934$1	343	318	338	5.2620
ggggg[bboooooobb]ggg	  ENERGY = 27.3  chr6:26027073-26027415$1	342	213	233	9.8759
iiiiiiiiooooooiiiiii	  ENERGY = 22.9  chr6:27775206-27775467$1	261	17	37	10.1559
gggg[cccooooooccc]gg	  ENERGY = 38.4  chr6:26104115-26104568$1	453	49	69	11.5163
!!ffffffooooooffffff	  ENERGY = 33.2  chr6:27860427-27860895$1	468	282	302	9.3831
b####cccooooooccc444	  ENERGY = 10.1  chr6:27782771-27782894$1	123	55	75	11.1098
dd!!ccc[ccclllccc]cc	  ENERGY = 39.5  chr6:26250319-26250865$1	546	239	259	6.6780
::ccc!!aooooooa22ccc	  ENERGY = 34.1  chr6:26216390-26216872$1	482	302	322	7.3696
ddd!!cccooooooccc444	  ENERGY = 22.6  chr1:228646030-228646306$1	276	156	176	11.0386
c[bb[cccoooooocccbb]	  ENERGY = 50.0  chr1:149858798-149859350$1	552	181	201	10.4538
ccc!!cccoooooocccccc	  ENERGY = 68.7  chr6:26156508-26157392$1	884	734	754	11.3658
ee####bboooooobbeeee	  ENERGY = 40.9  chr6:26123643-26124198$1	555	285	305	9.4424
ddd[ddddoooooodddddd	  ENERGY = 14.7  chr1:149857682-149857891$1	209	89	109	8.4858
b[ddddcccmmmmccc]ddd	  ENERGY = 8.7  chr1:149400080-149400191$1	111	55	75	5.2796
[ccc!!bbmmmmbb22ccc]	  ENERGY = 22.5  chr1:149858474-149858722$1	248	154	174	9.3831
eeee[cccooooooccceee	  ENERGY = 30.7  chr6:26285302-26285805$1	503	14	34	10.3663
$gggggggoooooogggggg	  ENERGY = 10.7  chr6:26197436-26197573$1	137	75	95	9.9312

#otherMatches

#Seq PSSM
CAGGGCCGCACCCUCUACGG	  ENERGY = 12.6  chr6:27792146-27792305$1	su1	35	55	5.1565
CCUGCUCCAAAAAAGGGCUC	  ENERGY = 36.2  chr6:26199759-26200266$1	su1	51	71	6.1244
UCACCAUCGCGCAGGGUGGU	  ENERGY = 27.3  chr6:27114988-27115367$1	su1	220	240	10.1690
UUUUCCGCAAAAGAGCUCAU	  ENERGY = 29.9  chr6:26204807-26205302$1	su1	445	465	9.6008
GGGGGCCCUAAAAAGGGCCU	  ENERGY = 11.5  chr6:27798901-27799061$1	su1	51	71	6.1847
CUCUCCCCACGAAUGCGGCG	  ENERGY = 20.4  chr6:26197017-26197271$1	su1	57	77	7.8780
UCCUCGUCGUUGCGGAUGGC	  ENERGY = 36.0  chr6:26198957-26199526$1	su1	236	256	8.6778
UAUGAGUAAUGAACUGCUCC	  ENERGY = 31.3  chr6:27805607-27805995$1	su1	90	110	8.7714
AGGACUUCAAGACCGACUUG	  ENERGY = 43.7  chr6:27777791-27778364$1	su1	289	309	10.3330
GCGCUUGGCGUGCUCCGUGU	  ENERGY = 35.8  chr12:14923605-14924052$1	su1	176	196	10.3147
CUUUCAACAAAAGAGUUGAA	  ENERGY = 37.8  chr6:27107023-27107502$1	su1	431	451	9.2662
UCGCGGGCCGCAUUGCCCGC	  ENERGY = 25.8  chr6:26033269-26033611$1	su1	309	329	9.0996
UAUCUUGUUGCAAUGCCUGA	  ENERGY = 38.8  chr6:26251828-26252353$1	su1	38	58	9.7849
CUCUCCGUCUUCUUGGGCAG	  ENERGY = 11.6  chr1:228645015-228645187$1	su1	135	155	4.9624
AAAGGGCAUAAGUCUGCCCG	  ENERGY = 9.7  chr6:26046022-26046145$1	su1	16	36	8.5314
ACGAGCGCGACUUAGCCUUG	  ENERGY = 11.9  chr1:228645445-228645578$1	su1	15	35	8.6527
CUCUUCCAAGGCUAUGGGAA	  ENERGY = 11.2  chr6:27782943-27783074$1	su1	42	62	6.3996
GCUCCCCGCGGAUGCGGCGG	  ENERGY = 14.8  chr1:149784775-149784934$1	su1	58	78	7.0048
UCGUUGACGAAGGAGUUCAU	  ENERGY = 23.1  chr1:149857897-149858240$1	su1	87	107	10.6667
CAGCUCUUUUCCUGAAAUGC	  ENERGY = 30.8  chr6:26017210-26017638$1	su1	28	48	5.7795
AAGUCACCAUCGCACAGGGU	  ENERGY = 21.5  chr6:27776250-27776479$1	su1	35	55	5.3360
GGUAUCUGAGCUCCCGGAAA	  ENERGY = 30.2  chr6:26124441-26124971$1	su1	419	439	8.1361
CAGAUAGUAAAGAAAUUAUC	  ENERGY = 52.2  chr6:26055917-26056705$1	su1	9	29	9.0996
GAGGAGCUAAAUAAGCUUCU	  ENERGY = 42.4  chr6:26217131-26217716$1	su1	344	364	6.3526
CAUUAAGUCAAGAAGCUCAA	  ENERGY = 21.0  chr6:26022092-26022328$1	su1	210	230	10.5921
CGGAGGGCACCAAGGCCGUC	  ENERGY = 20.0  chr6:26158627-26158885$1	su1	107	127	8.7411
AGAUAGCCCUCCUAGGCCCG	  ENERGY = 10.2  chr1:228612500-228612631$1	su1	104	124	7.9914
GGUCUCCAGUUCCCCGUGGG	  ENERGY = 16.6  chr6:27833133-27833343$1	su1	65	85	4.7995
AGGGGCUCUGAAAAGAGCCU	  ENERGY = 11.0  chr6:27839574-27839704$1	su1	50	70	6.1847
CAGCCUUGGUAGCCAGCUGC	  ENERGY = 40.8  chr6:26031769-26032338$1	su1	443	463	7.5323
UAACCAUCGCUCAGGGUGGU	  ENERGY = 21.5  chr6:27833349-27833624$1	su1	84	104	8.8233
CAUGAUAAUCCCUUUAAAAA	  ENERGY = 14.3  chr6:27114052-27114267$1	su1	7	27	7.2999
UCACCAUCGCACAGGGCGGU	  ENERGY = 41.4  chr6:27100800-27101364$1	su1	351	371	8.5980
GCUCUCAGUUUUCUUUGGCA	  ENERGY = 13.8  chr6:27782061-27782256$1	su1	88	108	9.0611
CCUGCCCCAAAGAAGGGCUC	  ENERGY = 14.4  chr6:26158320-26158483$1	su1	101	121	9.7483
CCUUCGGCUUAACUGCCUUG	  ENERGY = 43.5  chr6:27834519-27835059$1	su1	190	210	10.6113
GGCGCACUACAACAAGCGCU	  ENERGY = 8.4  chr1:120906264-120906400$1	su1	20	40	8.8714
ACUGUGCUAAGAAGCUCCAC	  ENERGY = 10.3  chr6:26198147-26198284$1	su1	37	57	5.0554
GGCGCGCUUUUCCGAGCCGC	  ENERGY = 42.6  chr6:26271095-26271662$1	su1	425	445	10.2202
ACUCACUGUUCUUACAGCAG	  ENERGY = 24.4  chr6:27806591-27806934$1	su1	318	338	5.2620
UUCUCCAGAAACACCUUGAG	  ENERGY = 27.3  chr6:26027073-26027415$1	su1	213	233	9.8759
GGAAGAGCGAACCAGCUCUU	  ENERGY = 22.9  chr6:27775206-27775467$1	su1	17	37	10.1559
CGAUAGGAAUCAUGUCUGGU	  ENERGY = 38.4  chr6:26104115-26104568$1	su1	49	69	11.5163
UCGCGGGCUGCGUUGCCCGC	  ENERGY = 33.2  chr6:27860427-27860895$1	su1	282	302	9.3831
UGAACCAGUCAAAUCUGCUC	  ENERGY = 10.1  chr6:27782771-27782894$1	su1	55	75	11.1098
GCCAUCACAGCCGAGCUCUG	  ENERGY = 39.5  chr6:26250319-26250865$1	su1	239	259	6.6780
AUGGCCUUGGAUGAGAUGCC	  ENERGY = 34.1  chr6:26216390-26216872$1	su1	302	322	7.3696
CACCAAGUACACCAGCUCCA	  ENERGY = 22.6  chr1:228646030-228646306$1	su1	156	176	11.0386
UAAUGCGCUAUUUCGUGAUC	  ENERGY = 50.0  chr1:149858798-149859350$1	su1	181	201	10.4538
GCCAAGCCAAAGAAGGCGGC	  ENERGY = 68.7  chr6:26156508-26157392$1	su1	734	754	11.3658
GUUAACGAAAGAAUUCAUGA	  ENERGY = 40.9  chr6:26123643-26124198$1	su1	285	305	9.4424
GCGACUCGAGCGAGCGAGCG	  ENERGY = 14.7  chr1:149857682-149857891$1	su1	89	109	8.4858
GCCCGCUCCCCGCGGAUGCG	  ENERGY = 8.7  chr1:149400080-149400191$1	su1	55	75	5.2796
GCGCAAAGGCAACUACGCGG	  ENERGY = 22.5  chr1:149858474-149858722$1	su1	154	174	9.3831
GCAGGAUAACAAGAUGUCUG	  ENERGY = 30.7  chr6:26285302-26285805$1	su1	14	34	10.3663
AACGAAAGUCUAGCCUUUCG	  ENERGY = 10.7  chr6:26197436-26197573$1	su1	75	95	9.9312

#PSSM
c : 0.16	: : 0.13	d : 0.12	b : 0.10	g : 0.10	i : 0.07	e : 0.06	[ : 0.04	! : 0.04	= : 0.04	" : 0.03	$ : 0.02	h : 0.02	f : 0.02	a : 0.02	] : 0.01	# : 0.01	
g : 0.17	c : 0.15	[ : 0.10	d : 0.10	: : 0.08	i : 0.07	b : 0.06	e : 0.06	! : 0.05	= : 0.04	# : 0.03	" : 0.03	h : 0.02	f : 0.02	$ : 0.01	
g : 0.17	f : 0.16	c : 0.12	d : 0.09	# : 0.08	i : 0.07	b : 0.06	: : 0.05	" : 0.04	= : 0.04	! : 0.04	e : 0.03	[ : 0.02	h : 0.01	] : 0.01	
f : 0.15	g : 0.15	e : 0.11	! : 0.10	# : 0.08	i : 0.07	c : 0.07	b : 0.06	" : 0.05	d : 0.05	= : 0.04	[ : 0.04	h : 0.01	a : 0.01	
! : 0.15	f : 0.14	g : 0.12	e : 0.09	# : 0.08	i : 0.07	d : 0.07	[ : 0.07	" : 0.05	c : 0.05	b : 0.04	= : 0.03	: : 0.02	h : 0.01	
c : 0.19	f : 0.14	d : 0.11	g : 0.11	e : 0.09	i : 0.07	! : 0.07	[ : 0.06	# : 0.05	= : 0.04	" : 0.02	b : 0.02	h : 0.01	r : 0.01	
c : 0.24	f : 0.14	d : 0.13	b : 0.13	g : 0.10	e : 0.09	i : 0.06	= : 0.04	[ : 0.02	h : 0.01	r : 0.01	q : 0.01	! : 0.01	
c : 0.23	f : 0.14	d : 0.13	b : 0.13	e : 0.09	g : 0.09	i : 0.06	= : 0.04	a : 0.03	r : 0.02	h : 0.01	q : 0.01	[ : 0.01	
o : 0.57	d : 0.09	n : 0.08	c : 0.07	i : 0.05	r : 0.04	= : 0.03	q : 0.02	m : 0.02	g : 0.01	a : 0.01	
o : 0.57	m : 0.17	n : 0.11	r : 0.04	d : 0.03	l : 0.03	q : 0.02	= : 0.01	c : 0.01	
o : 0.57	m : 0.17	n : 0.11	l : 0.06	r : 0.04	q : 0.02	= : 0.01	c : 0.01	
o : 0.57	m : 0.17	n : 0.11	l : 0.07	r : 0.04	q : 0.02	= : 0.01	
o : 0.57	m : 0.15	n : 0.11	l : 0.04	r : 0.04	= : 0.02	q : 0.02	c : 0.02	d : 0.01	b : 0.01	
o : 0.57	d : 0.08	c : 0.08	g : 0.05	i : 0.05	r : 0.04	= : 0.03	n : 0.03	f : 0.02	q : 0.02	l : 0.01	b : 0.01	
c : 0.25	d : 0.13	f : 0.12	b : 0.12	g : 0.09	e : 0.08	i : 0.06	= : 0.04	a : 0.04	r : 0.03	h : 0.01	q : 0.01	2 : 0.01	
c : 0.24	d : 0.13	f : 0.12	b : 0.12	g : 0.09	e : 0.08	i : 0.06	= : 0.05	] : 0.03	r : 0.03	2 : 0.02	h : 0.01	q : 0.01	
c : 0.21	g : 0.14	d : 0.13	f : 0.12	e : 0.10	i : 0.06	= : 0.05	2 : 0.05	] : 0.05	4 : 0.03	r : 0.02	b : 0.02	h : 0.01	
g : 0.15	f : 0.14	2 : 0.11	e : 0.11	d : 0.09	] : 0.08	c : 0.07	4 : 0.06	i : 0.06	= : 0.04	b : 0.04	h : 0.01	3 : 0.01	^ : 0.01	: : 0.01	
g : 0.16	f : 0.14	e : 0.13	c : 0.11	2 : 0.08	4 : 0.07	i : 0.06	d : 0.06	b : 0.05	= : 0.04	: : 0.02	] : 0.02	h : 0.01	3 : 0.01	^ : 0.01	F : 0.01	[ : 0.01	
g : 0.18	c : 0.14	f : 0.12	d : 0.08	4 : 0.07	i : 0.06	b : 0.06	: : 0.05	] : 0.05	e : 0.05	2 : 0.04	= : 0.04	h : 0.01	3 : 0.01	^ : 0.01	6 : 0.01	F : 0.01	

#score	0.0
#seq	99
#width	20
#escape	true
#onStep	-1
#minSteps	-1
#maxSteps	-1