ffffffmmmmffffff	"HIST1H2AB"$1	101	56	72	11.2704
bb]ccca333ffffff	"HIST2H2BC"$1	121	71	87	4.7750
ffffffmmmmffffff	"HIST1H3B"$1	101	55	71	11.2704
ffffffmmmmffffff	"HIST1H2AE"$1	113	69	85	11.2704
ffffffmmmmffffff	"HIST2H3D"$1	104	7	23	11.2704
bb[cccmmmmccc]bb	"HIST1H2AK"$1	102	55	71	6.0224
ffffffmmmmffffff	"HIST2H2AB"$1	101	53	69	11.2704
iiiiiimmmmiiiiii	"HIST1H4K"$1	101	54	70	6.2433
ffffffooooooffff	"HIST1H4I"$1	126	17	33	8.8787
ffffffmmmmffffff	"HIST1H2BM"$1	123	14	30	11.2704
ffffff[bb=======	"HIST1H2BC"$1	102	24	40	4.3311
bb[cccooooooccc]	"HIST1H2BE"$1	118	39	55	4.7802
ffffffmmmmffffff	"HIST3H2BA"$1	101	57	73	11.2704
ffffffnnnnnfffff	"HIST1H3I"$1	104	73	89	8.2157
frrrrrrrrrffffff	"HIST1H2AI"$1	109	42	58	6.3211
ffffffmmmmffffff	"HIST1H1B"$1	101	55	71	11.2704
:fffffflllffffff	"HIST1H4C"$1	103	20	36	7.7622
!a[cccmmmmccc22a	"HIST1H2AH"$1	101	47	63	5.6897
c"""bbmmmmbb4444	"HIST1H2AL"$1	101	25	41	4.5758
iiiiiimmmmiiiiii	"HIST4H4"$1	101	52	68	6.2433
ffffffmmmmffffff	"HIST1H3G"$1	101	55	71	11.2704
ffffooooooffffff	"HIST2H2AC"$1	116	49	65	8.6878
ffffffmmmmffffff	"HIST1H1A"$1	102	54	70	11.2704
ggggggmmmmgggggg	"HIST1H2AG"$1	136	48	64	7.1956
cc[cccnnnnnccc]c	"HIST2H2BE"$1	102	41	57	4.0917
ffffffmmmmffffff	"HIST2H3PS2"$1	110	8	24	11.2704
ffffffooooooffff	"HIST2H2BA"$1	119	0	16	8.8787
frrrrrrrrrffffff	"HIST1H4J"$1	101	42	58	6.3211
ffffffmmmmffffff	"HIST1H3F"$1	101	53	69	11.2704
frrrrrrrrrffffff	"HIST1H2BD"$1	101	58	74	6.3211
ffffffmmmmffffff	"HIST1H2AJ"$1	101	24	40	11.2704
ffffffooooooffff	"HIST1H2BK"$1	128	19	35	8.8787
ffffffmmmmffffff	"HIST1H4B"$1	101	55	71	11.2704
ffffffmmmmffffff	"HIST1H4H"$1	101	56	72	11.2704
ffffffmmmmffffff	"HIST1H2BG"$1	101	55	71	11.2704
ffffffmmmmffffff	"HIST3H2A"$1	101	54	70	11.2704
ffffffmmmmffffff	"HIST1H2AM"$1	101	54	70	11.2704
ffffffmmmmffffff	"HIST1H4L"$1	119	52	68	11.2704
ffffffmmmmffffff	"HIST3H3"$1	131	53	69	11.2704
ffffffmmmmffffff	"HIST1H1C"$1	101	54	70	11.2704
ffffffmmmmffffff	"HIST1H2BL"$1	102	55	71	11.2704
ffffffmmmmffffff	"HIST1H2BA"$1	130	61	77	11.2704
ccc!!ammmma22ccc	"HIST1H3H"$1	111	84	100	5.3923
ffffffmmmmffffff	"HIST1H3C"$1	123	54	70	11.2704
ffffffmmmmffffff	"HIST1H3J"$1	101	54	70	11.2704

#otherMatches

#Seq PSSM
GGCUCUGAAAAGAGCC	"HIST1H2AB"$1	su186	56	72	11.2704
AUGGCCCUGAAAAGAG	"HIST2H2BC"$1	su3	71	87	4.7750
GGCUCUGAAAAGAGCC	"HIST1H3B"$1	su797	55	71	11.2704
CUAUGUCUGGACGUGG	"HIST1H2AE"$1	su541	69	85	11.2704
GGCUCUGAAAAGAGCC	"HIST2H3D"$1	su54	7	23	11.2704
GGCUCUGAAAAGAACC	"HIST1H2AK"$1	su190	55	71	6.0224
GGCUCUUAAAAGAGCC	"HIST2H2AB"$1	su178	53	69	11.2704
GGCCCUAAAAAGGGCC	"HIST1H4K"$1	su206	54	70	6.2433
GCUGCCAUCACAGGCA	"HIST1H4I"$1	su6	17	33	8.8787
ACAGCCCUAAGGUUGU	"HIST1H2BM"$1	su131	14	30	11.2704
CUGGCCACAGCUCUUU	"HIST1H2BC"$1	su858	24	40	4.3311
GAGGGCACCAAGGCCG	"HIST1H2BE"$1	su4	39	55	4.7802
GGCUCUGAAAAGAGCC	"HIST3H2BA"$1	su33	57	73	11.2704
GGGGUUGGACAGACUU	"HIST1H3I"$1	su12	73	89	8.2157
CAUCGCACAGGGUGGC	"HIST1H2AI"$1	su290	42	58	6.3211
GGCUCUGAAAAGAGCC	"HIST1H1B"$1	su386	55	71	11.2704
GGAACUGUUUCAGUUC	"HIST1H4C"$1	su637	20	36	7.7622
AAGUUGUGACCAGUAU	"HIST1H2AH"$1	su422	47	63	5.6897
CAAAGCUCGCGCCAAA	"HIST1H2AL"$1	su419	25	41	4.5758
GGCCCUGAAAAGGGCC	"HIST4H4"$1	su477	52	68	6.2433
GGCUCUUAAAAGAGCC	"HIST1H3G"$1	su416	55	71	11.2704
CAUGUCUGGUCGUGGC	"HIST2H2AC"$1	su393	49	65	8.6878
GGCUCUUAAAAGAGCC	"HIST1H1A"$1	su124	54	70	11.2704
CUAUGUCUGGACGUGG	"HIST1H2AG"$1	su540	48	64	7.1956
GUGAUUAGGUGGGUGG	"HIST2H2BE"$1	su343	41	57	4.0917
GGCUCUGAAAAGAGCC	"HIST2H3PS2"$1	su10	8	24	11.2704
GCGGGAGAGGCGUCCC	"HIST2H2BA"$1	su15	0	16	8.8787
GCACCCUCUACGGUUU	"HIST1H4J"$1	su208	42	58	6.3211
GGCUCUGAAAAGAGCC	"HIST1H3F"$1	su651	53	69	11.2704
UCUAACUAUUAACGCU	"HIST1H2BD"$1	su662	58	74	6.3211
GGCUCUGAAAAGAGCC	"HIST1H2AJ"$1	su311	24	40	11.2704
GCUGCCAUCACAGGCA	"HIST1H2BK"$1	su2	19	35	8.8787
GGCCCUGAAAAGGGCC	"HIST1H4B"$1	su250	55	71	11.2704
GGCCCUGAAAAGGGCC	"HIST1H4H"$1	su1165	56	72	11.2704
GGCUCUGAAAAGAGCC	"HIST1H2BG"$1	su487	55	71	11.2704
GGCUCUGAAAAGAGCC	"HIST3H2A"$1	su97	54	70	11.2704
GGCUCUGAAAAGAGCC	"HIST1H2AM"$1	su4	54	70	11.2704
GGCCCUGAGAAGGGCC	"HIST1H4L"$1	su4	52	68	11.2704
GGCUCUUAAAAGAGCC	"HIST3H3"$1	su8	53	69	11.2704
GGCUCUGAAAAGAGCC	"HIST1H1C"$1	su786	54	70	11.2704
GGCUCUGAAAAGAGCC	"HIST1H2BL"$1	su157	55	71	11.2704
GGCUCUUUUCAGAGCC	"HIST1H2BA"$1	su8	61	77	11.2704
CGCAAGUCCACCGGCG	"HIST1H3H"$1	su714	84	100	5.3923
GGCUCUUUUCAGAGCC	"HIST1H3C"$1	su4	54	70	11.2704
GGCUCUGAAAAGAGCC	"HIST1H3J"$1	su2	54	70	11.2704

#PSSM
f : 0.75	b : 0.06	c : 0.06	i : 0.04	: : 0.02	! : 0.02	g : 0.02	
f : 0.71	b : 0.06	r : 0.06	i : 0.04	c : 0.04	a : 0.02	" : 0.02	g : 0.02	
f : 0.71	[ : 0.08	r : 0.06	i : 0.04	] : 0.02	" : 0.02	g : 0.02	c : 0.02	
f : 0.71	c : 0.11	r : 0.06	i : 0.04	" : 0.02	g : 0.02	! : 0.02	
f : 0.68	c : 0.11	r : 0.06	i : 0.04	b : 0.02	o : 0.02	g : 0.02	! : 0.02	
f : 0.68	c : 0.11	r : 0.06	i : 0.04	b : 0.02	o : 0.02	g : 0.02	a : 0.02	
m : 0.71	o : 0.11	r : 0.06	n : 0.04	a : 0.02	[ : 0.02	f : 0.02	
m : 0.71	o : 0.11	r : 0.06	n : 0.04	3 : 0.02	b : 0.02	l : 0.02	
m : 0.71	o : 0.11	r : 0.06	n : 0.04	3 : 0.02	b : 0.02	l : 0.02	
m : 0.71	o : 0.11	r : 0.06	n : 0.04	3 : 0.02	= : 0.02	l : 0.02	
f : 0.68	o : 0.08	c : 0.04	i : 0.04	n : 0.04	= : 0.02	b : 0.02	g : 0.02	a : 0.02	
f : 0.71	o : 0.08	c : 0.06	i : 0.04	= : 0.02	b : 0.02	g : 0.02	2 : 0.02	
f : 0.77	c : 0.08	i : 0.04	= : 0.02	4 : 0.02	g : 0.02	2 : 0.02	
f : 0.77	c : 0.06	i : 0.04	] : 0.02	= : 0.02	2 : 0.02	4 : 0.02	g : 0.02	
f : 0.77	i : 0.04	c : 0.04	b : 0.02	= : 0.02	2 : 0.02	4 : 0.02	g : 0.02	] : 0.02	
f : 0.77	i : 0.04	c : 0.04	b : 0.02	= : 0.02	] : 0.02	a : 0.02	4 : 0.02	g : 0.02	

#score	411.3683987788779
#seq	45
#width	16
#escape	false
#onStep	15000
#minSteps	10000
#maxSteps	15000.0