ccc!!bbpppppppbb22ccc	SeqCat03|125$1	170	77	98	13.1828
!!ddddrrrrrrrrrdddddd	SeqCat01|92$1	185	145	166	8.8180
gggggggpppppppggggggg	SeqCat03|120$1	170	33	54	17.6629
##eeeeepppppppeeeee44	SeqCat03|114$1	170	134	155	13.2068
gggggggpppppppggggggg	SeqCat02|198$1	170	39	60	17.6629
###ddddpppppppddddddd	SeqCat01|95$1	185	141	162	12.3787
ffffffrrrrrrrrrffffff	SeqCat01|75$1	185	115	136	9.5907
gggggggpppppppggggggg	SeqCat02|107$1	170	1	22	17.6629
:ffffffpppppppffffffB	SeqCat03|191$1	170	4	25	11.8316
gggggggpppppppggggggg	SeqCat03|26$1	170	22	43	17.6629
gggggggqqqqqqqqgggggg	SeqCat03|129$1	170	28	49	8.1034
cffffffpppppppffffff]	SeqCat03|56$1	170	9	30	14.0977
hhhhhhhppppppphhhhhhh	SeqCat03|19$1	170	33	54	15.8957
ddd[cccpppppppcccdddd	SeqCat01|31$1	185	151	172	13.6970
ccc[cccpppppppccc]ccc	SeqCat01|161$1	185	85	106	15.0408
gggggggpppppppggggggg	SeqCat02|96$1	170	30	51	17.6629
!ffffffpppppppffffff4	SeqCat01|152$1	185	60	81	13.9096
eeeeerrrrrrrrreeeeeee	SeqCat01|54$1	185	132	153	9.3351
hhhhhhhppppppphhhhhhh	SeqCat02|45$1	170	37	58	15.8957
gggggggpppppppggggggg	SeqCat02|30$1	170	45	66	17.6629
gggggggpppppppggggggg	SeqCat02|164$1	170	39	60	17.6629
gggggggpppppppggggggg	SeqCat02|41$1	170	22	43	17.6629
gggggggpppppppggggggg	SeqCat02|57$1	170	43	64	17.6629
hhhhhhhppppppphhhhhhh	SeqCat03|150$1	170	27	48	15.8957
!!eeeeepppppppeeeeeee	SeqCat01|5$1	185	125	146	14.0852
gggggggpppppppggggggg	SeqCat02|183$1	170	48	69	17.6629
hhhhhhhppppppphhhhhhh	SeqCat03|87$1	170	39	60	15.8957
gggggggpppppppggggggg	SeqCat03|8$1	170	8	29	17.6629
A:eeeeepppppppeeeee::	SeqCat01|127$1	185	101	122	9.4761
hhhhhhhppppppphhhhhhh	SeqCat03|167$1	170	14	35	15.8957
gggggggpppppppggggggg	SeqCat02|142$1	170	14	35	17.6629
cc!!cccpppppppccc22cc	SeqCat01|88$1	185	21	42	14.5427
hhhhhhhppppppphhhhhhh	SeqCat02|109$1	170	18	39	15.8957
gggggggpppppppggggggg	SeqCat02|159$1	170	23	44	17.6629
gggggggpppppppggggggg	SeqCat03|134$1	170	38	59	17.6629
gggggggpppppppggggggg	SeqCat03|136$1	170	27	48	17.6629
gggggggpppppppggggggg	SeqCat03|135$1	170	30	51	17.6629
ff[bbrrrrrrrrrbb]ffff	SeqCat01|90$1	185	162	183	8.7480
iiiiiiipppppppiiiiiii	SeqCat02|195$1	170	36	57	16.7962
hhhhhhhppppppphhhhhhh	SeqCat02|182$1	170	30	51	15.8957
hhhhhhhppppppphhhhhhh	SeqCat01|48$1	185	152	173	15.8957
gggggggpppppppggggggg	SeqCat03|73$1	170	10	31	17.6629
gggggggpppppppggggggg	SeqCat02|40$1	170	15	36	17.6629
gggggggpppppppggggggg	SeqCat03|0$1	170	20	41	17.6629
hhhhhhrrrrrrrrrhhhhhh	SeqCat03|29$1	170	130	151	11.4192
gggggggpppppppggggggg	SeqCat02|185$1	170	48	69	17.6629
gggggggpppppppggggggg	SeqCat03|34$1	170	42	63	17.6629
eeee[bbpppppppbb]eeee	SeqCat01|49$1	185	2	23	12.9966
""eeeeepppppppeeeee33	SeqCat01|44$1	185	56	77	13.7047
gggggggpppppppggggggg	SeqCat03|187$1	170	8	29	17.6629
gggggggpppppppggggggg	SeqCat02|171$1	170	4	25	17.6629
gggggggpppppppggggggg	SeqCat02|111$1	170	47	68	17.6629
gggggggpppppppggggggg	SeqCat02|15$1	170	11	32	17.6629
iiiiiiipppppppiiiiiii	SeqCat02|52$1	170	20	41	16.7962
!!eeeeerrrrrrrrreeeee	SeqCat01|12$1	185	39	60	9.7667
gggggggpppppppggggggg	SeqCat02|177$1	170	18	39	17.6629
hhhhhhhppppppphhhhhhh	SeqCat02|116$1	170	27	48	15.8957
gggggggpppppppggggggg	SeqCat02|106$1	170	11	32	17.6629
gggggggpppppppggggggg	SeqCat03|122$1	170	1	22	17.6629
bb[cccrrrrrrrrrccc]bb	SeqCat01|72$1	185	0	21	9.3621
gggggggpppppppggggggg	SeqCat02|180$1	170	42	63	17.6629
gggggggpppppppggggggg	SeqCat03|188$1	170	43	64	17.6629
gggggggpppppppggggggg	SeqCat03|1$1	170	8	29	17.6629
ggg[cccpppppppccc]ggg	SeqCat01|94$1	185	148	169	16.3054
gggggggpppppppggggggg	SeqCat03|148$1	170	14	35	17.6629
gggggggpppppppggggggg	SeqCat02|190$1	170	0	21	17.6629
gggggggpppppppggggggg	SeqCat02|131$1	170	47	68	17.6629
gggggggpppppppggggggg	SeqCat03|137$1	170	47	68	17.6629
gggggggpppppppggggggg	SeqCat02|151$1	170	40	61	17.6629
hhhhhhhppppppphhhhhhh	SeqCat03|110$1	170	14	35	15.8957
gggggggpppppppggggggg	SeqCat02|126$1	170	47	68	17.6629
!!a[cccpppppppcccafff	SeqCat02|168$1	170	117	138	14.8368
hhhhhhhppppppphhhhhhh	SeqCat03|47$1	170	3	24	15.8957
gggggggpppppppggggggg	SeqCat02|84$1	170	33	54	17.6629
gggggggpppppppggggggg	SeqCat03|149$1	170	22	43	17.6629
gggggggpppppppggggggg	SeqCat03|108$1	170	21	42	17.6629
hhhhhhhppppppphhhhhhh	SeqCat02|82$1	170	14	35	15.8957
gggggggpppppppggggggg	SeqCat03|81$1	170	15	36	17.6629
gggggggpppppppggggggg	SeqCat02|174$1	170	3	24	17.6629
gggggggpppppppggggggg	SeqCat03|50$1	170	42	63	17.6629
gggggggpppppppggggggg	SeqCat02|199$1	170	30	51	17.6629
gggggggpppppppggggggg	SeqCat03|78$1	170	24	45	17.6629
gggggggpppppppggggggg	SeqCat03|184$1	170	41	62	17.6629
"ddddrrrrrrrrrdddd333	SeqCat01|39$1	185	57	78	8.5265
###ddddpppppppddddddd	SeqCat01|43$1	185	87	108	12.3787
gggggggpppppppggggggg	SeqCat02|197$1	170	39	60	17.6629
dddddddpppppppdddd]dd	SeqCat03|86$1	170	62	83	12.4128
gggggggpppppppggggggg	SeqCat03|61$1	170	28	49	17.6629
ddffffffpppppppffffff	SeqCat01|128$1	185	163	184	10.5057
hhhhhhhppppppphhhhhhh	SeqCat02|17$1	170	22	43	15.8957
+ffffffpppppppffffffg	SeqCat03|132$1	170	23	44	13.4273
ebb[cccpppppppcccbb22	SeqCat01|60$1	185	108	129	13.1383
gggggggpppppppggggggg	SeqCat02|170$1	170	43	64	17.6629
gggggggpppppppggggggg	SeqCat02|91$1	170	15	36	17.6629
hhhhhhhppppppphhhhhhh	SeqCat03|178$1	170	5	26	15.8957

#otherMatches

#Seq PSSM
GCUCGCUGGUCCUAAGAUAGU	SeqCat03|125$1	su1	77	98	13.1828
UUUACGCCCAUCUCACGUAUG	SeqCat01|92$1	su1	145	166	8.8180
AUGGAAGAGUAAGCCUUCCAU	SeqCat03|120$1	su1	33	54	17.6629
CUUUAUGAAGACUGCAUAAUC	SeqCat03|114$1	su1	134	155	13.2068
AUGGAAGAGUAAGCCUUCCAU	SeqCat02|198$1	su1	39	60	17.6629
CUUAUAUGUAGCCAAUAUCUC	SeqCat01|95$1	su1	141	162	12.3787
UGACGCAUUACGAGAGCGUCA	SeqCat01|75$1	su1	115	136	9.5907
AUGGAAGAGUAAGCCUUCCAU	SeqCat02|107$1	su1	1	22	17.6629
AUGGAAGAGUAAGCCUUCCAU	SeqCat03|191$1	su1	4	25	11.8316
AUGGAAGAGUAAGCCUUCCAU	SeqCat03|26$1	su1	22	43	17.6629
AGAGUAAGCCUUCCAUUACUU	SeqCat03|129$1	su1	28	49	8.1034
AUGGAAGAGUAAGCCUUCCAU	SeqCat03|56$1	su1	9	30	14.0977
AUGGAAGAGUAAGCCUUCCAU	SeqCat03|19$1	su1	33	54	15.8957
GCGAUUGGACCAGGCAACGCG	SeqCat01|31$1	su1	151	172	13.6970
GGCAGUUACGUCGGGGCAGCC	SeqCat01|161$1	su1	85	106	15.0408
AUGGAAGAGUAAGCCUUCCAU	SeqCat02|96$1	su1	30	51	17.6629
UGGUACUGAAAAGAGGUGCCU	SeqCat01|152$1	su1	60	81	13.9096
CCGCUCUCGGGCUCAGCGGGU	SeqCat01|54$1	su1	132	153	9.3351
AUGGAAGAGUAAGCCUUCCAU	SeqCat02|45$1	su1	37	58	15.8957
AUGGAAGAGUAAGCCUUCCAU	SeqCat02|30$1	su1	45	66	17.6629
AUGGAAGAGUAAGCCUUCCAU	SeqCat02|164$1	su1	39	60	17.6629
AUGGAAGAGUAAGCCUUCCAU	SeqCat02|41$1	su1	22	43	17.6629
AUGGAAGAGUAAGCCUUCCAU	SeqCat02|57$1	su1	43	64	17.6629
AUGGAAGAGUAAGCCUUCCAU	SeqCat03|150$1	su1	27	48	15.8957
UUAAGAUCAGUCUUGUCUUUG	SeqCat01|5$1	su1	125	146	14.0852
AUGGAAGAGUAAGCCUUCCAU	SeqCat02|183$1	su1	48	69	17.6629
AUGGAAGAGUAAGCCUUCCAU	SeqCat03|87$1	su1	39	60	15.8957
AUGGAAGAGUAAGCCUUCCAU	SeqCat03|8$1	su1	8	29	17.6629
CAGUCCUACCCUCAAGGACAA	SeqCat01|127$1	su1	101	122	9.4761
AUGGAAGAGUAAGCCUUCCAU	SeqCat03|167$1	su1	14	35	15.8957
AUGGAAGAGUAAGCCUUCCAU	SeqCat02|142$1	su1	14	35	17.6629
GUCGGGAGCUUUAGUCCAAAC	SeqCat01|88$1	su1	21	42	14.5427
AUGGAAGAGUAAGCCUUCCAU	SeqCat02|109$1	su1	18	39	15.8957
AUGGAAGAGUAAGCCUUCCAU	SeqCat02|159$1	su1	23	44	17.6629
AUGGAAGAGUAAGCCUUCCAU	SeqCat03|134$1	su1	38	59	17.6629
AUGGAAGAGUAAGCCUUCCAU	SeqCat03|136$1	su1	27	48	17.6629
AUGGAAGAGUAAGCCUUCCAU	SeqCat03|135$1	su1	30	51	17.6629
GUAUCCCUGACCACGAAGCGG	SeqCat01|90$1	su1	162	183	8.7480
AUGGAAGAGUAAGCCUUCCAU	SeqCat02|195$1	su1	36	57	16.7962
AUGGAAGAGUAAGCCUUCCAU	SeqCat02|182$1	su1	30	51	15.8957
UUACAUUGAGAGUAAGUGUAA	SeqCat01|48$1	su1	152	173	15.8957
AUGGAAGAGUAAGCCUUCCAU	SeqCat03|73$1	su1	10	31	17.6629
AUGGAAGAGUAAGCCUUCCAU	SeqCat02|40$1	su1	15	36	17.6629
AUGGAAGAGUAAGCCUUCCAU	SeqCat03|0$1	su1	20	41	17.6629
GGGUCCCAACGCCAUGGACCU	SeqCat03|29$1	su1	130	151	11.4192
AUGGAAGAGUAAGCCUUCCAU	SeqCat02|185$1	su1	48	69	17.6629
AUGGAAGAGUAAGCCUUCCAU	SeqCat03|34$1	su1	42	63	17.6629
AUACCCGGAAAGCGCGCGUAU	SeqCat01|49$1	su1	2	23	12.9966
GGGAAUUCAUAAUCAGUUCAG	SeqCat01|44$1	su1	56	77	13.7047
AUGGAAGAGUAAGCCUUCCAU	SeqCat03|187$1	su1	8	29	17.6629
AUGGAAGAGUAAGCCUUCCAU	SeqCat02|171$1	su1	4	25	17.6629
AUGGAAGAGUAAGCCUUCCAU	SeqCat02|111$1	su1	47	68	17.6629
AUGGAAGAGUAAGCCUUCCAU	SeqCat02|15$1	su1	11	32	17.6629
AUGGAAGAGUAAGCCUUCCAU	SeqCat02|52$1	su1	20	41	16.7962
GUGGCGUCAUUCCUUUACGCU	SeqCat01|12$1	su1	39	60	9.7667
AUGGAAGAGUAAGCCUUCCAU	SeqCat02|177$1	su1	18	39	17.6629
AUGGAAGAGUAAGCCUUCCAU	SeqCat02|116$1	su1	27	48	15.8957
AUGGAAGAGUAAGCCUUCCAU	SeqCat02|106$1	su1	11	32	17.6629
AUGGAAGAGUAAGCCUUCCAU	SeqCat03|122$1	su1	1	22	17.6629
GAAGUAUUAUCAAAUUGCAUC	SeqCat01|72$1	su1	0	21	9.3621
AUGGAAGAGUAAGCCUUCCAU	SeqCat02|180$1	su1	42	63	17.6629
AUGGAAGAGUAAGCCUUCCAU	SeqCat03|188$1	su1	43	64	17.6629
AUGGAAGAGUAAGCCUUCCAU	SeqCat03|1$1	su1	8	29	17.6629
UCCUUGGAUUGACCCCAUGGA	SeqCat01|94$1	su1	148	169	16.3054
AUGGAAGAGUAAGCCUUCCAU	SeqCat03|148$1	su1	14	35	17.6629
AUGGAAGAGUAAGCCUUCCAU	SeqCat02|190$1	su1	0	21	17.6629
AUGGAAGAGUAAGCCUUCCAU	SeqCat02|131$1	su1	47	68	17.6629
AUGGAAGAGUAAGCCUUCCAU	SeqCat03|137$1	su1	47	68	17.6629
AUGGAAGAGUAAGCCUUCCAU	SeqCat02|151$1	su1	40	61	17.6629
AUGGAAGAGUAAGCCUUCCAU	SeqCat03|110$1	su1	14	35	15.8957
AUGGAAGAGUAAGCCUUCCAU	SeqCat02|126$1	su1	47	68	17.6629
ACGCGUCAAAAUAGGACCUAA	SeqCat02|168$1	su1	117	138	14.8368
AUGGAAGAGUAAGCCUUCCAU	SeqCat03|47$1	su1	3	24	15.8957
AUGGAAGAGUAAGCCUUCCAU	SeqCat02|84$1	su1	33	54	17.6629
AUGGAAGAGUAAGCCUUCCAU	SeqCat03|149$1	su1	22	43	17.6629
AUGGAAGAGUAAGCCUUCCAU	SeqCat03|108$1	su1	21	42	17.6629
AUGGAAGAGUAAGCCUUCCAU	SeqCat02|82$1	su1	14	35	15.8957
AUGGAAGAGUAAGCCUUCCAU	SeqCat03|81$1	su1	15	36	17.6629
AUGGAAGAGUAAGCCUUCCAU	SeqCat02|174$1	su1	3	24	17.6629
AUGGAAGAGUAAGCCUUCCAU	SeqCat03|50$1	su1	42	63	17.6629
AUGGAAGAGUAAGCCUUCCAU	SeqCat02|199$1	su1	30	51	17.6629
AUGGAAGAGUAAGCCUUCCAU	SeqCat03|78$1	su1	24	45	17.6629
AUGGAAGAGUAAGCCUUCCAU	SeqCat03|184$1	su1	41	62	17.6629
GCUGCGUAUCUGGAGCAGAAA	SeqCat01|39$1	su1	57	78	8.5265
UAAGUGAAUUUCGAUCACAUG	SeqCat01|43$1	su1	87	108	12.3787
AUGGAAGAGUAAGCCUUCCAU	SeqCat02|197$1	su1	39	60	17.6629
AAUGUCUAAAGUCGAGACGGU	SeqCat03|86$1	su1	62	83	12.4128
AUGGAAGAGUAAGCCUUCCAU	SeqCat03|61$1	su1	28	49	17.6629
AUACGUCAUUCGGAUUGACGU	SeqCat01|128$1	su1	163	184	10.5057
AUGGAAGAGUAAGCCUUCCAU	SeqCat02|17$1	su1	22	43	15.8957
AUGGAAGAGUAAGCCUUCCAU	SeqCat03|132$1	su1	23	44	13.4273
ACUAUGGACUAAACCCAAGAA	SeqCat01|60$1	su1	108	129	13.1383
AUGGAAGAGUAAGCCUUCCAU	SeqCat02|170$1	su1	43	64	17.6629
AUGGAAGAGUAAGCCUUCCAU	SeqCat02|91$1	su1	15	36	17.6629
AUGGAAGAGUAAGCCUUCCAU	SeqCat03|178$1	su1	5	26	15.8957

#PSSM
g : 0.54	h : 0.15	! : 0.05	c : 0.04	# : 0.03	d : 0.03	e : 0.03	f : 0.02	i : 0.02	" : 0.02	: : 0.01	A : 0.01	b : 0.01	+ : 0.01	
g : 0.54	h : 0.15	f : 0.06	! : 0.04	d : 0.04	c : 0.03	# : 0.03	e : 0.02	i : 0.02	b : 0.02	: : 0.01	" : 0.01	
g : 0.54	h : 0.15	e : 0.07	f : 0.06	d : 0.04	c : 0.02	# : 0.02	[ : 0.02	i : 0.02	! : 0.01	a : 0.01	b : 0.01	
g : 0.53	h : 0.15	e : 0.07	f : 0.06	d : 0.05	[ : 0.05	! : 0.02	i : 0.02	b : 0.01	c : 0.01	
g : 0.53	h : 0.15	c : 0.07	e : 0.06	f : 0.06	d : 0.05	i : 0.02	! : 0.01	b : 0.01	[ : 0.01	
g : 0.53	h : 0.15	c : 0.07	f : 0.06	e : 0.05	d : 0.04	r : 0.03	b : 0.02	i : 0.02	
g : 0.53	h : 0.14	r : 0.07	c : 0.06	e : 0.05	f : 0.05	d : 0.03	b : 0.02	i : 0.02	
p : 0.89	r : 0.08	q : 0.01	f : 0.01	
p : 0.90	r : 0.08	q : 0.01	
p : 0.90	r : 0.08	q : 0.01	
p : 0.90	r : 0.08	q : 0.01	
p : 0.90	r : 0.08	q : 0.01	
p : 0.90	r : 0.08	q : 0.01	
p : 0.90	r : 0.08	q : 0.01	
g : 0.52	h : 0.14	c : 0.06	r : 0.05	e : 0.05	d : 0.04	f : 0.04	b : 0.03	i : 0.02	q : 0.01	p : 0.01	
g : 0.53	h : 0.15	c : 0.07	f : 0.06	d : 0.05	e : 0.05	b : 0.03	i : 0.02	r : 0.01	
g : 0.53	h : 0.15	c : 0.07	e : 0.06	f : 0.06	d : 0.05	] : 0.02	i : 0.02	2 : 0.01	
g : 0.53	h : 0.15	e : 0.07	f : 0.07	d : 0.06	2 : 0.02	] : 0.02	i : 0.02	c : 0.01	a : 0.01	b : 0.01	
g : 0.54	h : 0.15	f : 0.08	e : 0.07	d : 0.04	c : 0.02	i : 0.02	] : 0.02	2 : 0.01	3 : 0.01	b : 0.01	
g : 0.54	h : 0.15	f : 0.08	d : 0.05	e : 0.04	c : 0.03	i : 0.02	3 : 0.02	4 : 0.01	: : 0.01	b : 0.01	2 : 0.01	
g : 0.55	h : 0.15	d : 0.05	f : 0.04	e : 0.04	c : 0.03	4 : 0.02	i : 0.02	3 : 0.02	B : 0.01	] : 0.01	: : 0.01	b : 0.01	2 : 0.01	

#score	1488.1078058897558
#seq	95
#width	21
#escape	false
#onStep	15000
#minSteps	10000
#maxSteps	15000.0