:::ddddpppppppddddccc	RF02153_DQ190450.1/16557-16495_bg$1	63	23	44	9.8781
++eeeeepppppppeeeee>>	RF00460_BT048863.1/1366-1442_bg$1	77	19	40	11.4525
:ffffffpppppppffffff:	RF00057_AAWP01000024.1/10163-10098_bg$1	66	39	60	11.6315
cc!!cccpppppppccc22cc	RF02067_CP000880.1/4318546-4318606_bg$1	61	25	46	14.6208
ffffffrrrrrrrrrffffff	RF00624_AM181176.4/3018216-3018292_bg$1	77	10	31	9.2937
hh[ddddpppppppdddd]hh	RF01987_ABRO01040216.1/512-587_bg$1	76	44	65	13.7796
::cccrrrrrrrrrcccgggg	RF01765_AABY01000111.1/26714-26159_bg$1	556	164	185	8.8287
gggggggpppppppggggggg	SeqCat02|198$1	170	39	60	17.6457
gggggggpppppppggggggg	SeqCat03|6$1	170	24	45	17.6457
gggggggpppppppggggggg	SeqCat02|23$1	170	37	58	17.6457
eeeeerrrrrrrrreeeeeee	SeqCat01|54$1	185	132	153	9.1684
dffffffpppppppffffff:	SeqCat03|112$1	170	34	55	12.5398
hhhhhhhppppppphhhhhhh	SeqCat03|178$1	170	5	26	16.0385
gggggggpppppppggggggg	SeqCat03|188$1	170	43	64	17.6457
gggggggpppppppggggggg	SeqCat02|91$1	170	15	36	17.6457
!!eeeeerrrrrrrrreeeee	SeqCat01|12$1	185	39	60	9.6175
=======ppppppp=======	SeqCat03|7$1	170	12	33	15.9510
+ffffffpppppppffffffg	SeqCat03|132$1	170	23	44	13.2275
gggggggpppppppggggggg	SeqCat02|159$1	170	23	44	17.6457
gggggggpppppppggggggg	SeqCat03|103$1	170	41	62	17.6457
:ffffffpppppppffffffB	SeqCat03|191$1	170	4	25	11.6462
gggggggpppppppggggggg	SeqCat03|148$1	170	14	35	17.6457
iiiiiiipppppppiiiiiii	SeqCat03|70$1	170	10	31	16.8414
gggggggpppppppggggggg	SeqCat03|8$1	170	8	29	17.6457
gggggggpppppppggggggg	SeqCat03|176$1	170	33	54	17.6457
##eeeeepppppppeeeee44	SeqCat03|114$1	170	134	155	13.1319
dffffffpppppppffffff:	SeqCat01|128$1	185	164	185	12.5398
hhhhhhrrrrrrrrrhhhhhh	SeqCat03|29$1	170	130	151	11.3496
gggggggpppppppggggggg	SeqCat03|162$1	170	6	27	17.6457
dddddddpppppppdddd]dd	SeqCat03|86$1	170	62	83	12.4441
hhhhhhhppppppphhhhhhh	SeqCat03|19$1	170	33	54	16.0385
gggggggpppppppggggggg	SeqCat03|81$1	170	15	36	17.6457
ccc[cccpppppppccc]ccc	SeqCat01|161$1	185	85	106	15.0209
gggggggpppppppggggggg	SeqCat02|40$1	170	15	36	17.6457
gggggggpppppppggggggg	SeqCat03|1$1	170	8	29	17.6457
gggggggpppppppggggggg	SeqCat02|84$1	170	33	54	17.6457
gggggggpppppppggggggg	SeqCat02|111$1	170	47	68	17.6457
cffffffpppppppffffff]	SeqCat02|119$1	170	83	104	13.9307
gggggggpppppppggggggg	SeqCat03|187$1	170	8	29	17.6457
gggggggpppppppggggggg	SeqCat03|20$1	170	2	23	17.6457
gggggggpppppppggggggg	SeqCat02|197$1	170	39	60	17.6457
gggggggpppppppggggggg	SeqCat03|113$1	170	42	63	17.6457
iiiiiiipppppppiiiiiii	SeqCat02|195$1	170	36	57	16.8414
gggggggpppppppggggggg	SeqCat02|171$1	170	4	25	17.6457
ddd!!bbpppppppbb22ddd	SeqCat01|98$1	185	84	105	12.2005
""ddddrrrrrrrrrdddd33	SeqCat01|39$1	185	56	77	8.4167
a"""cccpppppppccc22ad	SeqCat01|153$1	185	159	180	13.7330
!!eeeeepppppppeeeeeee	SeqCat01|5$1	185	125	146	14.0376
gggggggpppppppggggggg	SeqCat02|41$1	170	22	43	17.6457
gggggggpppppppggggggg	SeqCat02|126$1	170	47	68	17.6457
gggggggpppppppggggggg	SeqCat03|50$1	170	42	63	17.6457
gggggggpppppppggggggg	SeqCat03|53$1	170	45	66	17.6457
cc!!cccpppppppccc22cc	SeqCat01|88$1	185	21	42	14.6208
gggggggpppppppggggggg	SeqCat02|196$1	170	5	26	17.6457
iiiiiiipppppppiiiiiii	SeqCat02|52$1	170	20	41	16.8414
hhhhhhhppppppphhhhhhh	SeqCat02|45$1	170	37	58	16.0385
gggggggpppppppggggggg	SeqCat03|73$1	170	10	31	17.6457
ddd[cccpppppppcccdddd	SeqCat01|31$1	185	151	172	13.7294
gggggggpppppppggggggg	SeqCat02|164$1	170	39	60	17.6457
!!ddddrrrrrrrrrdddddd	SeqCat01|92$1	185	145	166	8.6787
###ddddpppppppddddddd	SeqCat01|43$1	185	87	108	12.4086
hhhhhhhppppppphhhhhhh	SeqCat02|109$1	170	18	39	16.0385
A:eeeeepppppppeeeee::	SeqCat01|127$1	185	101	122	9.4596
hhhhhhhppppppphhhhhhh	SeqCat03|167$1	170	14	35	16.0385
gggggggpppppppggggggg	SeqCat03|108$1	170	21	42	17.6457
hhhhhhhppppppphhhhhhh	SeqCat02|182$1	170	30	51	16.0385
:ffffffpppppppfffffff	SeqCat03|160$1	170	12	33	12.7115
gggggggpppppppggggggg	SeqCat03|134$1	170	38	59	17.6457
gggggggpppppppggggggg	SeqCat02|107$1	170	1	22	17.6457
gggggggpppppppggggggg	SeqCat02|106$1	170	11	32	17.6457
gggggggpppppppggggggg	SeqCat02|151$1	170	40	61	17.6457
gggggggpppppppggggggg	SeqCat03|27$1	170	42	63	17.6457
hhhhhhhppppppphhhhhhh	SeqCat01|48$1	185	152	173	16.0385
###ddddpppppppddddddd	SeqCat01|95$1	185	141	162	12.4086
gggggggpppppppggggggg	SeqCat02|199$1	170	30	51	17.6457
gggggggpppppppggggggg	SeqCat02|96$1	170	30	51	17.6457
ggg[cccpppppppccc]ggg	SeqCat01|94$1	185	148	169	16.2837
""eeeeepppppppeeeee33	SeqCat01|44$1	185	56	77	13.6233
gggggggpppppppggggggg	SeqCat02|144$1	170	13	34	17.6457
!ffffffpppppppffffff4	SeqCat01|152$1	185	60	81	13.7180
eeeeeeepppppppeeeee]e	SeqCat01|166$1	185	45	66	13.6961
gggggggpppppppggggggg	SeqCat02|170$1	170	43	64	17.6457
gggggggpppppppggggggg	SeqCat02|57$1	170	43	64	17.6457
gggggggpppppppggggggg	SeqCat02|131$1	170	47	68	17.6457
hhhhhhhppppppphhhhhhh	SeqCat03|87$1	170	39	60	16.0385
ebb[cccpppppppcccbb22	SeqCat01|60$1	185	108	129	13.1179
gggggggpppppppggggggg	SeqCat02|117$1	170	14	35	17.6457
gggggggpppppppggggggg	SeqCat03|78$1	170	24	45	17.6457
hhhhhhhppppppphhhhhhh	SeqCat03|110$1	170	14	35	16.0385
##eeeeerrrrrrrrreeeee	SeqCat03|133$1	170	60	81	9.1562
gggggggpppppppggggggg	SeqCat02|190$1	170	0	21	17.6457
hhhhhhhppppppphhhhhhh	SeqCat03|79$1	170	25	46	16.0385
gggggggqqqqqqqqgggggg	SeqCat03|129$1	170	28	49	7.9905
gggggggpppppppggggggg	SeqCat03|93$1	170	4	25	17.6457
ccc!!bbpppppppbb22ccc	SeqCat03|125$1	170	77	98	13.2983
hhhhhhhppppppphhhhhhh	SeqCat03|89$1	170	20	41	16.0385
gggggggpppppppggggggg	SeqCat03|184$1	170	41	62	17.6457
eeee[bbpppppppbb]eeee	SeqCat01|49$1	185	2	23	13.0397
gggggggpppppppggggggg	SeqCat03|130$1	170	37	58	17.6457
gggggggpppppppggggggg	SeqCat03|34$1	170	42	63	17.6457
gggggggpppppppggggggg	SeqCat03|135$1	170	30	51	17.6457
hhhhhhhppppppphhhhhhh	SeqCat03|47$1	170	3	24	16.0385
gggggggpppppppggggggg	SeqCat02|180$1	170	42	63	17.6457
gggggggpppppppggggggg	SeqCat03|137$1	170	47	68	17.6457
bb[cccrrrrrrrrrccc]bb	SeqCat01|72$1	185	0	21	9.2307
gggggggpppppppggggggg	SeqCat02|142$1	170	14	35	17.6457
iiiiiiipppppppiiiiiii	SeqCat03|59$1	170	18	39	16.8414
dd[ddddpppppppdddd]dd	SeqCat01|169$1	185	79	100	12.7457
gggggggpppppppggggggg	SeqCat02|185$1	170	48	69	17.6457
fff[bbrrrrrrrrrbb]fff	SeqCat01|90$1	185	161	182	8.6475
gggggggpppppppggggggg	SeqCat02|30$1	170	45	66	17.6457
hhhhhhhppppppphhhhhhh	SeqCat03|139$1	170	18	39	16.0385
gggggggpppppppggggggg	SeqCat03|61$1	170	28	49	17.6457
gggggggpppppppggggggg	SeqCat03|85$1	170	37	58	17.6457
gggggggpppppppggggggg	SeqCat02|177$1	170	18	39	17.6457
ffffffrrrrrrrrrffffff	SeqCat01|75$1	185	115	136	9.2937
gggggggpppppppggggggg	SeqCat02|15$1	170	11	32	17.6457
hhhhhhhppppppphhhhhhh	SeqCat02|97$1	170	46	67	16.0385
gggggggpppppppggggggg	SeqCat03|120$1	170	33	54	17.6457
gggggggpppppppggggggg	SeqCat02|183$1	170	48	69	17.6457
gggggggpppppppggggggg	SeqCat03|122$1	170	1	22	17.6457
gggggggpppppppggggggg	SeqCat03|0$1	170	20	41	17.6457
gggggggpppppppggggggg	SeqCat03|26$1	170	22	43	17.6457
gggggggpppppppggggggg	SeqCat03|46$1	170	96	117	17.6457
ggggggggooooooggggggg	SeqCat01|16$1	185	121	142	7.7551
gggggggpppppppggggggg	SeqCat03|149$1	170	22	43	17.6457
hhhhhhhppppppphhhhhhh	SeqCat02|116$1	170	27	48	16.0385
!!a[cccpppppppcccafff	SeqCat02|168$1	170	117	138	14.7857
hhhhhhhppppppphhhhhhh	SeqCat02|17$1	170	22	43	16.0385
gggggggpppppppggggggg	SeqCat01|172$1	185	140	161	17.6457
hhhhhhhppppppphhhhhhh	SeqCat03|150$1	170	27	48	16.0385
hhhhhhhppppppphhhhhhh	SeqCat02|82$1	170	14	35	16.0385
EEeeeeepppppppeeeeedd	SeqCat03|145$1	170	7	28	11.3642
gggggggpppppppggggggg	SeqCat03|58$1	170	44	65	17.6457
gggggggpppppppggggggg	SeqCat02|174$1	170	3	24	17.6457
cffffffpppppppffffff]	SeqCat03|56$1	170	9	30	13.9307
Effffffpppppppffffffc	SeqCat01|55$1	185	4	25	12.7804
gggggggpppppppggggggg	SeqCat03|136$1	170	27	48	17.6457

#otherMatches

#Seq PSSM
AUGGAAGAGUAAGCCUUCCAU	SeqCat02|198$1	su1	39	60	17.6457
AUGGAAGAGUAAGCCUUCCAU	SeqCat03|6$1	su1	24	45	17.6457
AUGGAAGAGUAAGCCUUCCAU	SeqCat02|23$1	su1	37	58	17.6457
CCGCUCUCGGGCUCAGCGGGU	SeqCat01|54$1	su1	132	153	9.1684
AUGGAAGAGUAAGCCUUCCAU	SeqCat03|112$1	su1	34	55	12.5398
AUGGAAGAGUAAGCCUUCCAU	SeqCat03|178$1	su1	5	26	16.0385
AUGGAAGAGUAAGCCUUCCAU	SeqCat03|188$1	su1	43	64	17.6457
AUGGAAGAGUAAGCCUUCCAU	SeqCat02|91$1	su1	15	36	17.6457
GUGGCGUCAUUCCUUUACGCU	SeqCat01|12$1	su1	39	60	9.6175
AUGGAAGAGUAAGCCUUCCAU	SeqCat03|7$1	su1	12	33	15.9510
AUGGAAGAGUAAGCCUUCCAU	SeqCat03|132$1	su1	23	44	13.2275
AUGGAAGAGUAAGCCUUCCAU	SeqCat02|159$1	su1	23	44	17.6457
AUGGAAGAGUAAGCCUUCCAU	SeqCat03|103$1	su1	41	62	17.6457
AUGGAAGAGUAAGCCUUCCAU	SeqCat03|191$1	su1	4	25	11.6462
AUGGAAGAGUAAGCCUUCCAU	SeqCat03|148$1	su1	14	35	17.6457
AUGGAAGAGUAAGCCUUCCAU	SeqCat03|70$1	su1	10	31	16.8414
AUGGAAGAGUAAGCCUUCCAU	SeqCat03|8$1	su1	8	29	17.6457
AUGGAAGAGUAAGCCUUCCAU	SeqCat03|176$1	su1	33	54	17.6457
CUUUAUGAAGACUGCAUAAUC	SeqCat03|114$1	su1	134	155	13.1319
UACGUCAUUCGGAUUGACGUC	SeqCat01|128$1	su1	164	185	12.5398
GGGUCCCAACGCCAUGGACCU	SeqCat03|29$1	su1	130	151	11.3496
AUGGAAGAGUAAGCCUUCCAU	SeqCat03|162$1	su1	6	27	17.6457
AAUGUCUAAAGUCGAGACGGU	SeqCat03|86$1	su1	62	83	12.4441
AUGGAAGAGUAAGCCUUCCAU	SeqCat03|19$1	su1	33	54	16.0385
AUGGAAGAGUAAGCCUUCCAU	SeqCat03|81$1	su1	15	36	17.6457
GGCAGUUACGUCGGGGCAGCC	SeqCat01|161$1	su1	85	106	15.0209
AUGGAAGAGUAAGCCUUCCAU	SeqCat02|40$1	su1	15	36	17.6457
AUGGAAGAGUAAGCCUUCCAU	SeqCat03|1$1	su1	8	29	17.6457
AUGGAAGAGUAAGCCUUCCAU	SeqCat02|84$1	su1	33	54	17.6457
AUGGAAGAGUAAGCCUUCCAU	SeqCat02|111$1	su1	47	68	17.6457
AGACUGAGGCGCAGUCGGUCA	SeqCat02|119$1	su1	83	104	13.9307
AUGGAAGAGUAAGCCUUCCAU	SeqCat03|187$1	su1	8	29	17.6457
AUGGAAGAGUAAGCCUUCCAU	SeqCat03|20$1	su1	2	23	17.6457
AUGGAAGAGUAAGCCUUCCAU	SeqCat02|197$1	su1	39	60	17.6457
AUGGAAGAGUAAGCCUUCCAU	SeqCat03|113$1	su1	42	63	17.6457
AUGGAAGAGUAAGCCUUCCAU	SeqCat02|195$1	su1	36	57	16.8414
AUGGAAGAGUAAGCCUUCCAU	SeqCat02|171$1	su1	4	25	17.6457
GGGACUCAAUGAAGGAAGCCU	SeqCat01|98$1	su1	84	105	12.2005
CGCUGCGUAUCUGGAGCAGAA	SeqCat01|39$1	su1	56	77	8.4167
GCUUCUGAUUGAAACAGUACC	SeqCat01|153$1	su1	159	180	13.7330
UUAAGAUCAGUCUUGUCUUUG	SeqCat01|5$1	su1	125	146	14.0376
AUGGAAGAGUAAGCCUUCCAU	SeqCat02|41$1	su1	22	43	17.6457
AUGGAAGAGUAAGCCUUCCAU	SeqCat02|126$1	su1	47	68	17.6457
AUGGAAGAGUAAGCCUUCCAU	SeqCat03|50$1	su1	42	63	17.6457
AUGGAAGAGUAAGCCUUCCAU	SeqCat03|53$1	su1	45	66	17.6457
GUCGGGAGCUUUAGUCCAAAC	SeqCat01|88$1	su1	21	42	14.6208
AUGGAAGAGUAAGCCUUCCAU	SeqCat02|196$1	su1	5	26	17.6457
AUGGAAGAGUAAGCCUUCCAU	SeqCat02|52$1	su1	20	41	16.8414
AUGGAAGAGUAAGCCUUCCAU	SeqCat02|45$1	su1	37	58	16.0385
AUGGAAGAGUAAGCCUUCCAU	SeqCat03|73$1	su1	10	31	17.6457
GCGAUUGGACCAGGCAACGCG	SeqCat01|31$1	su1	151	172	13.7294
AUGGAAGAGUAAGCCUUCCAU	SeqCat02|164$1	su1	39	60	17.6457
UUUACGCCCAUCUCACGUAUG	SeqCat01|92$1	su1	145	166	8.6787
UAAGUGAAUUUCGAUCACAUG	SeqCat01|43$1	su1	87	108	12.4086
AUGGAAGAGUAAGCCUUCCAU	SeqCat02|109$1	su1	18	39	16.0385
CAGUCCUACCCUCAAGGACAA	SeqCat01|127$1	su1	101	122	9.4596
AUGGAAGAGUAAGCCUUCCAU	SeqCat03|167$1	su1	14	35	16.0385
AUGGAAGAGUAAGCCUUCCAU	SeqCat03|108$1	su1	21	42	17.6457
AUGGAAGAGUAAGCCUUCCAU	SeqCat02|182$1	su1	30	51	16.0385
AUGGAAGAGUAAGCCUUCCAU	SeqCat03|160$1	su1	12	33	12.7115
AUGGAAGAGUAAGCCUUCCAU	SeqCat03|134$1	su1	38	59	17.6457
AUGGAAGAGUAAGCCUUCCAU	SeqCat02|107$1	su1	1	22	17.6457
AUGGAAGAGUAAGCCUUCCAU	SeqCat02|106$1	su1	11	32	17.6457
AUGGAAGAGUAAGCCUUCCAU	SeqCat02|151$1	su1	40	61	17.6457
AUGGAAGAGUAAGCCUUCCAU	SeqCat03|27$1	su1	42	63	17.6457
UUACAUUGAGAGUAAGUGUAA	SeqCat01|48$1	su1	152	173	16.0385
CUUAUAUGUAGCCAAUAUCUC	SeqCat01|95$1	su1	141	162	12.4086
AUGGAAGAGUAAGCCUUCCAU	SeqCat02|199$1	su1	30	51	17.6457
AUGGAAGAGUAAGCCUUCCAU	SeqCat02|96$1	su1	30	51	17.6457
UCCUUGGAUUGACCCCAUGGA	SeqCat01|94$1	su1	148	169	16.2837
GGGAAUUCAUAAUCAGUUCAG	SeqCat01|44$1	su1	56	77	13.6233
AUGGAAGAGUAAGCCUUCCAU	SeqCat02|144$1	su1	13	34	17.6457
UGGUACUGAAAAGAGGUGCCU	SeqCat01|152$1	su1	60	81	13.7180
UGGUCUGUACAACUCGGGCGC	SeqCat01|166$1	su1	45	66	13.6961
AUGGAAGAGUAAGCCUUCCAU	SeqCat02|170$1	su1	43	64	17.6457
AUGGAAGAGUAAGCCUUCCAU	SeqCat02|57$1	su1	43	64	17.6457
AUGGAAGAGUAAGCCUUCCAU	SeqCat02|131$1	su1	47	68	17.6457
AUGGAAGAGUAAGCCUUCCAU	SeqCat03|87$1	su1	39	60	16.0385
ACUAUGGACUAAACCCAAGAA	SeqCat01|60$1	su1	108	129	13.1179
AUGGAAGAGUAAGCCUUCCAU	SeqCat02|117$1	su1	14	35	17.6457
AUGGAAGAGUAAGCCUUCCAU	SeqCat03|78$1	su1	24	45	17.6457
AUGGAAGAGUAAGCCUUCCAU	SeqCat03|110$1	su1	14	35	16.0385
AACAGUGAUACGGUCCCGCUG	SeqCat03|133$1	su1	60	81	9.1562
AUGGAAGAGUAAGCCUUCCAU	SeqCat02|190$1	su1	0	21	17.6457
AUGGAAGAGUAAGCCUUCCAU	SeqCat03|79$1	su1	25	46	16.0385
AGAGUAAGCCUUCCAUUACUU	SeqCat03|129$1	su1	28	49	7.9905
AUGGAAGAGUAAGCCUUCCAU	SeqCat03|93$1	su1	4	25	17.6457
GCUCGCUGGUCCUAAGAUAGU	SeqCat03|125$1	su1	77	98	13.2983
AUGGAAGAGUAAGCCUUCCAU	SeqCat03|89$1	su1	20	41	16.0385
AUGGAAGAGUAAGCCUUCCAU	SeqCat03|184$1	su1	41	62	17.6457
AUACCCGGAAAGCGCGCGUAU	SeqCat01|49$1	su1	2	23	13.0397
AUGGAAGAGUAAGCCUUCCAU	SeqCat03|130$1	su1	37	58	17.6457
AUGGAAGAGUAAGCCUUCCAU	SeqCat03|34$1	su1	42	63	17.6457
AUGGAAGAGUAAGCCUUCCAU	SeqCat03|135$1	su1	30	51	17.6457
AUGGAAGAGUAAGCCUUCCAU	SeqCat03|47$1	su1	3	24	16.0385
AUGGAAGAGUAAGCCUUCCAU	SeqCat02|180$1	su1	42	63	17.6457
AUGGAAGAGUAAGCCUUCCAU	SeqCat03|137$1	su1	47	68	17.6457
GAAGUAUUAUCAAAUUGCAUC	SeqCat01|72$1	su1	0	21	9.2307
AUGGAAGAGUAAGCCUUCCAU	SeqCat02|142$1	su1	14	35	17.6457
AUGGAAGAGUAAGCCUUCCAU	SeqCat03|59$1	su1	18	39	16.8414
GGCAUGCACAUUCAGCGUAUC	SeqCat01|169$1	su1	79	100	12.7457
AUGGAAGAGUAAGCCUUCCAU	SeqCat02|185$1	su1	48	69	17.6457
CGUAUCCCUGACCACGAAGCG	SeqCat01|90$1	su1	161	182	8.6475
AUGGAAGAGUAAGCCUUCCAU	SeqCat02|30$1	su1	45	66	17.6457
AUGGAAGAGUAAGCCUUCCAU	SeqCat03|139$1	su1	18	39	16.0385
AUGGAAGAGUAAGCCUUCCAU	SeqCat03|61$1	su1	28	49	17.6457
AUGGAAGAGUAAGCCUUCCAU	SeqCat03|85$1	su1	37	58	17.6457
AUGGAAGAGUAAGCCUUCCAU	SeqCat02|177$1	su1	18	39	17.6457
UGACGCAUUACGAGAGCGUCA	SeqCat01|75$1	su1	115	136	9.2937
AUGGAAGAGUAAGCCUUCCAU	SeqCat02|15$1	su1	11	32	17.6457
AUGGAAGAGUAAGCCUUCCAU	SeqCat02|97$1	su1	46	67	16.0385
AUGGAAGAGUAAGCCUUCCAU	SeqCat03|120$1	su1	33	54	17.6457
AUGGAAGAGUAAGCCUUCCAU	SeqCat02|183$1	su1	48	69	17.6457
AUGGAAGAGUAAGCCUUCCAU	SeqCat03|122$1	su1	1	22	17.6457
AUGGAAGAGUAAGCCUUCCAU	SeqCat03|0$1	su1	20	41	17.6457
AUGGAAGAGUAAGCCUUCCAU	SeqCat03|26$1	su1	22	43	17.6457
GAUCAUAAUUAACCUAUGAUU	SeqCat03|46$1	su1	96	117	17.6457
CCUGUUGGAAUCACUUGACGG	SeqCat01|16$1	su1	121	142	7.7551
AUGGAAGAGUAAGCCUUCCAU	SeqCat03|149$1	su1	22	43	17.6457
AUGGAAGAGUAAGCCUUCCAU	SeqCat02|116$1	su1	27	48	16.0385
ACGCGUCAAAAUAGGACCUAA	SeqCat02|168$1	su1	117	138	14.7857
AUGGAAGAGUAAGCCUUCCAU	SeqCat02|17$1	su1	22	43	16.0385
ACUUAUUGACUGUAAAUAAGU	SeqCat01|172$1	su1	140	161	17.6457
AUGGAAGAGUAAGCCUUCCAU	SeqCat03|150$1	su1	27	48	16.0385
AUGGAAGAGUAAGCCUUCCAU	SeqCat02|82$1	su1	14	35	16.0385
AUGGAAGAGUAAGCCUUCCAU	SeqCat03|145$1	su1	7	28	11.3642
AUGGAAGAGUAAGCCUUCCAU	SeqCat03|58$1	su1	44	65	17.6457
AUGGAAGAGUAAGCCUUCCAU	SeqCat02|174$1	su1	3	24	17.6457
AUGGAAGAGUAAGCCUUCCAU	SeqCat03|56$1	su1	9	30	13.9307
CGAAUGGAGCAGAGUCAUUCC	SeqCat01|55$1	su1	4	25	12.7804
AUGGAAGAGUAAGCCUUCCAU	SeqCat03|136$1	su1	27	48	17.6457

#PSSM
g : 0.51	h : 0.14	c : 0.04	d : 0.04	: : 0.03	! : 0.03	e : 0.02	i : 0.02	# : 0.02	f : 0.02	+ : 0.01	" : 0.01	E : 0.01	= : 0.00	a : 0.00	A : 0.00	b : 0.00	
g : 0.51	h : 0.14	f : 0.09	c : 0.02	! : 0.02	i : 0.02	# : 0.02	d : 0.02	: : 0.02	e : 0.02	" : 0.02	b : 0.01	+ : 0.00	= : 0.00	E : 0.00	
g : 0.51	h : 0.13	f : 0.09	e : 0.07	d : 0.03	i : 0.02	[ : 0.02	c : 0.02	! : 0.01	# : 0.01	: : 0.00	= : 0.00	" : 0.00	b : 0.00	a : 0.00	
g : 0.50	h : 0.13	f : 0.08	e : 0.07	d : 0.05	[ : 0.04	! : 0.02	i : 0.02	c : 0.01	= : 0.00	" : 0.00	
g : 0.50	h : 0.13	f : 0.08	e : 0.07	c : 0.07	d : 0.05	i : 0.02	! : 0.01	= : 0.00	[ : 0.00	b : 0.00	
g : 0.50	h : 0.13	f : 0.08	e : 0.06	c : 0.06	d : 0.05	i : 0.02	b : 0.02	r : 0.01	= : 0.00	
g : 0.50	h : 0.13	f : 0.07	e : 0.06	r : 0.06	c : 0.05	d : 0.04	i : 0.02	b : 0.02	= : 0.00	
p : 0.90	r : 0.07	q : 0.00	g : 0.00	
p : 0.90	r : 0.07	q : 0.00	o : 0.00	
p : 0.90	r : 0.07	q : 0.00	o : 0.00	
p : 0.90	r : 0.07	q : 0.00	o : 0.00	
p : 0.90	r : 0.07	q : 0.00	o : 0.00	
p : 0.90	r : 0.07	q : 0.00	o : 0.00	
p : 0.90	r : 0.07	q : 0.00	o : 0.00	
g : 0.49	h : 0.13	f : 0.07	c : 0.06	r : 0.06	e : 0.05	d : 0.04	i : 0.02	b : 0.02	= : 0.00	q : 0.00	
g : 0.50	h : 0.13	f : 0.08	c : 0.07	d : 0.05	e : 0.05	i : 0.02	b : 0.02	r : 0.01	= : 0.00	
g : 0.50	h : 0.13	f : 0.08	e : 0.07	c : 0.07	d : 0.05	i : 0.02	2 : 0.01	= : 0.00	] : 0.00	b : 0.00	
g : 0.51	h : 0.13	f : 0.08	e : 0.07	d : 0.06	2 : 0.03	i : 0.02	] : 0.02	= : 0.00	b : 0.00	c : 0.00	a : 0.00	
g : 0.52	h : 0.13	f : 0.10	e : 0.07	d : 0.04	] : 0.02	i : 0.02	c : 0.02	2 : 0.02	= : 0.00	b : 0.00	
g : 0.52	h : 0.14	f : 0.10	d : 0.05	c : 0.03	e : 0.03	i : 0.02	3 : 0.01	> : 0.00	= : 0.00	4 : 0.00	a : 0.00	: : 0.00	] : 0.00	2 : 0.00	b : 0.00	
g : 0.52	h : 0.14	d : 0.06	c : 0.04	e : 0.04	f : 0.03	: : 0.02	i : 0.02	4 : 0.01	] : 0.01	3 : 0.01	> : 0.00	= : 0.00	B : 0.00	2 : 0.00	b : 0.00	

#score	0.0
#seq	138
#width	21
#escape	true
#onStep	-1
#minSteps	-1
#maxSteps	-1