iiiiiiipppppppiiiiiii	RF00519_CP000759.1/1718870-1718948_bg$1	79	41	62	16.8413
ggggggrrrrrrrrrgggggg	RF00175_AF197338.1/656-695_bg$1	40	9	30	12.7556
gggggggpppppppggggggg	RF02273_CP002906.1/1457980-1458063_bg$1	84	58	79	17.6949
gggggggqqqqqqqqgggggg	RF01998_CP000922.1/2424635-2424558_bg$1	78	49	70	8.0064
:::ddddpppppppddddccc	RF02153_DQ190451.1/62428-62366_bg$1	63	23	44	9.7786
:::ddddpppppppddddccc	RF02153_DQ190451.1/15693-15631_bg$1	63	23	44	9.7786
gggggggqqqqqqqqgggggg	RF02063_CP000026.1/3558109-3558042_bg$1	68	36	57	8.0064
%%eeeeepppppppeeeee44	RF01998_AAUQ01113241.1/415-494_bg$1	80	54	75	11.7140
dd[ddddpppppppdddd]dd	SeqCat01|169$1	185	79	100	12.5713
cffffffpppppppffffff]	SeqCat03|56$1	170	9	30	14.2542
ddd[cccpppppppcccdddd	SeqCat01|31$1	185	151	172	13.5952
gggggggpppppppggggggg	SeqCat02|106$1	170	11	32	17.6949
gggggggpppppppggggggg	SeqCat03|53$1	170	45	66	17.6949
gggggggpppppppggggggg	SeqCat03|187$1	170	8	29	17.6949
hhhhhhhppppppphhhhhhh	SeqCat01|48$1	185	152	173	15.7928
gggggggpppppppggggggg	SeqCat02|199$1	170	30	51	17.6949
+ffffffpppppppffffffg	SeqCat03|132$1	170	23	44	13.5503
gggggggpppppppggggggg	SeqCat03|78$1	170	24	45	17.6949
hhhhhhhppppppphhhhhhh	SeqCat03|19$1	170	33	54	15.7928
gggggggpppppppggggggg	SeqCat03|1$1	170	8	29	17.6949
gggggggpppppppggggggg	SeqCat02|96$1	170	30	51	17.6949
gggggggpppppppggggggg	SeqCat02|196$1	170	5	26	17.6949
hhhhhhhppppppphhhhhhh	SeqCat03|139$1	170	18	39	15.7928
hhhhhhhppppppphhhhhhh	SeqCat03|110$1	170	14	35	15.7928
gggggggpppppppggggggg	SeqCat03|6$1	170	24	45	17.6949
iiiiiiipppppppiiiiiii	SeqCat03|70$1	170	10	31	16.8413
""ddddrrrrrrrrrdddd33	SeqCat01|39$1	185	56	77	8.2431
gggggggpppppppggggggg	SeqCat03|184$1	170	41	62	17.6949
gggggggpppppppggggggg	SeqCat02|171$1	170	4	25	17.6949
ggg[cccpppppppccc]ggg	SeqCat01|94$1	185	148	169	16.2473
gggggggpppppppggggggg	SeqCat03|46$1	170	96	117	17.6949
!!ddddrrrrrrrrrdddddd	SeqCat01|92$1	185	145	166	8.4401
eeeeerrrrrrrrreeeeeee	SeqCat01|54$1	185	132	153	9.0897
##eeeeerrrrrrrrreeeee	SeqCat03|133$1	170	60	81	9.1557
gggggggpppppppggggggg	SeqCat03|188$1	170	43	64	17.6949
gggggggpppppppggggggg	SeqCat03|26$1	170	22	43	17.6949
gggggggpppppppggggggg	SeqCat03|73$1	170	10	31	17.6949
gggggggpppppppggggggg	SeqCat03|81$1	170	15	36	17.6949
gggggggpppppppggggggg	SeqCat02|183$1	170	48	69	17.6949
gggggggpppppppggggggg	SeqCat02|111$1	170	47	68	17.6949
!!eeeeepppppppeeeeeee	SeqCat01|5$1	185	125	146	13.9903
hhhhhhhppppppphhhhhhh	SeqCat03|47$1	170	3	24	15.7928
gggggggpppppppggggggg	SeqCat02|159$1	170	23	44	17.6949
gggggggpppppppggggggg	SeqCat02|84$1	170	33	54	17.6949
eeeeeeepppppppeeeee]e	SeqCat01|166$1	185	45	66	13.6942
gggggggpppppppggggggg	SeqCat03|122$1	170	1	22	17.6949
gggggggpppppppggggggg	SeqCat02|151$1	170	40	61	17.6949
EEeeeeepppppppeeeeedd	SeqCat03|145$1	170	7	28	11.3784
A:eeeeepppppppeeeee::	SeqCat01|127$1	185	101	122	9.5307
gggggggpppppppggggggg	SeqCat02|190$1	170	0	21	17.6949
fff[bbrrrrrrrrrbb]fff	SeqCat01|90$1	185	161	182	8.7549
gggggggpppppppggggggg	SeqCat03|176$1	170	33	54	17.6949
dffffffpppppppffffff:	SeqCat03|112$1	170	34	55	12.9089
gggggggqqqqqqqqgggggg	SeqCat03|129$1	170	28	49	8.0064
gggggggpppppppggggggg	SeqCat02|30$1	170	45	66	17.6949
iiiiiiipppppppiiiiiii	SeqCat03|59$1	170	18	39	16.8413
ddd!!bbpppppppbb22ddd	SeqCat01|98$1	185	84	105	12.1374
gggggggpppppppggggggg	SeqCat03|130$1	170	37	58	17.6949
gggggggpppppppggggggg	SeqCat02|126$1	170	47	68	17.6949
iiiiiiipppppppiiiiiii	SeqCat02|195$1	170	36	57	16.8413
gggggggpppppppggggggg	SeqCat03|50$1	170	42	63	17.6949
gggggggpppppppggggggg	SeqCat02|198$1	170	39	60	17.6949
hhhhhhhppppppphhhhhhh	SeqCat02|97$1	170	46	67	15.7928
hhhhhhhppppppphhhhhhh	SeqCat02|45$1	170	37	58	15.7928
gggggggpppppppggggggg	SeqCat03|120$1	170	33	54	17.6949
hhhhhhhppppppphhhhhhh	SeqCat02|82$1	170	14	35	15.7928
gggggggpppppppggggggg	SeqCat02|23$1	170	37	58	17.6949
gggggggpppppppggggggg	SeqCat03|85$1	170	37	58	17.6949
ccc!!bbpppppppbb22ccc	SeqCat03|125$1	170	77	98	13.3308
gggggggpppppppggggggg	SeqCat02|15$1	170	11	32	17.6949
hhhhhhrrrrrrrrrhhhhhh	SeqCat03|29$1	170	130	151	11.1186
gggggggpppppppggggggg	SeqCat03|8$1	170	8	29	17.6949
hhhhhhhppppppphhhhhhh	SeqCat02|116$1	170	27	48	15.7928
gggggggpppppppggggggg	SeqCat03|20$1	170	2	23	17.6949
gggggggpppppppggggggg	SeqCat02|197$1	170	39	60	17.6949
gggggggpppppppggggggg	SeqCat03|136$1	170	27	48	17.6949
gggggggpppppppggggggg	SeqCat02|117$1	170	14	35	17.6949
###ddddpppppppddddddd	SeqCat01|43$1	185	87	108	12.2037
!!eeeeerrrrrrrrreeeee	SeqCat01|12$1	185	39	60	9.6032
gggggggpppppppggggggg	SeqCat02|91$1	170	15	36	17.6949
Effffffpppppppffffffc	SeqCat01|55$1	185	4	25	13.1332
:ffffffpppppppfffffff	SeqCat03|160$1	170	12	33	13.0531
gggggggpppppppggggggg	SeqCat03|108$1	170	21	42	17.6949
gggggggpppppppggggggg	SeqCat02|180$1	170	42	63	17.6949
iiiiiiipppppppiiiiiii	SeqCat02|52$1	170	20	41	16.8413
gggggggpppppppggggggg	SeqCat03|148$1	170	14	35	17.6949
ebb[cccpppppppcccbb22	SeqCat01|60$1	185	108	129	13.0964
a"""cccpppppppccc22ad	SeqCat01|153$1	185	159	180	13.6589
dffffffpppppppffffff:	SeqCat01|128$1	185	164	185	12.9089
gggggggpppppppggggggg	SeqCat02|177$1	170	18	39	17.6949
gggggggpppppppggggggg	SeqCat02|164$1	170	39	60	17.6949
hhhhhhhppppppphhhhhhh	SeqCat02|17$1	170	22	43	15.7928
gggggggpppppppggggggg	SeqCat02|185$1	170	48	69	17.6949
###ddddpppppppddddddd	SeqCat01|95$1	185	141	162	12.2037
eeee[bbpppppppbb]eeee	SeqCat01|49$1	185	2	23	13.0418
gggggggpppppppggggggg	SeqCat03|93$1	170	4	25	17.6949
gggggggpppppppggggggg	SeqCat02|131$1	170	47	68	17.6949
gggggggpppppppggggggg	SeqCat02|57$1	170	43	64	17.6949
gggggggpppppppggggggg	SeqCat02|174$1	170	3	24	17.6949
##eeeeepppppppeeeee44	SeqCat03|114$1	170	134	155	13.1467
cffffffpppppppffffff]	SeqCat02|119$1	170	83	104	14.2542
gggggggpppppppggggggg	SeqCat03|61$1	170	28	49	17.6949
!ffffffpppppppffffff4	SeqCat01|152$1	185	60	81	14.0274
gggggggpppppppggggggg	SeqCat03|0$1	170	20	41	17.6949
gggggggpppppppggggggg	SeqCat02|41$1	170	22	43	17.6949
hhhhhhhppppppphhhhhhh	SeqCat03|167$1	170	14	35	15.7928
:ffffffpppppppffffffB	SeqCat03|191$1	170	4	25	12.0374
hhhhhhhppppppphhhhhhh	SeqCat02|182$1	170	30	51	15.7928
dddddddpppppppdddd]dd	SeqCat03|86$1	170	62	83	12.2598
hhhhhhhppppppphhhhhhh	SeqCat03|89$1	170	20	41	15.7928
=======ppppppp=======	SeqCat03|7$1	170	12	33	16.0419
gggggggpppppppggggggg	SeqCat03|149$1	170	22	43	17.6949
ccc[cccpppppppccc]ccc	SeqCat01|161$1	185	85	106	15.0182
gggggggpppppppggggggg	SeqCat03|103$1	170	41	62	17.6949
gggggggpppppppggggggg	SeqCat03|34$1	170	42	63	17.6949
cc!!cccpppppppccc22cc	SeqCat01|88$1	185	21	42	14.5722
gggggggpppppppggggggg	SeqCat02|40$1	170	15	36	17.6949
gggggggpppppppggggggg	SeqCat03|137$1	170	47	68	17.6949
hhhhhhhppppppphhhhhhh	SeqCat03|178$1	170	5	26	15.7928
!!a[cccpppppppcccafff	SeqCat02|168$1	170	117	138	14.7688
bb[cccrrrrrrrrrccc]bb	SeqCat01|72$1	185	0	21	9.2275
ggggggggooooooggggggg	SeqCat01|16$1	185	121	142	7.7669
""eeeeepppppppeeeee33	SeqCat01|44$1	185	56	77	13.6285
gggggggpppppppggggggg	SeqCat02|144$1	170	13	34	17.6949
gggggggpppppppggggggg	SeqCat03|113$1	170	42	63	17.6949
gggggggpppppppggggggg	SeqCat03|162$1	170	6	27	17.6949
ffffffrrrrrrrrrffffff	SeqCat01|75$1	185	115	136	9.5543
gggggggpppppppggggggg	SeqCat03|27$1	170	42	63	17.6949
gggggggpppppppggggggg	SeqCat02|170$1	170	43	64	17.6949
gggggggpppppppggggggg	SeqCat03|135$1	170	30	51	17.6949
gggggggpppppppggggggg	SeqCat03|58$1	170	44	65	17.6949
gggggggpppppppggggggg	SeqCat02|142$1	170	14	35	17.6949
gggggggpppppppggggggg	SeqCat02|107$1	170	1	22	17.6949
gggggggpppppppggggggg	SeqCat01|172$1	185	140	161	17.6949
hhhhhhhppppppphhhhhhh	SeqCat03|87$1	170	39	60	15.7928
hhhhhhhppppppphhhhhhh	SeqCat02|109$1	170	18	39	15.7928
hhhhhhhppppppphhhhhhh	SeqCat03|79$1	170	25	46	15.7928
gggggggpppppppggggggg	SeqCat03|134$1	170	38	59	17.6949
hhhhhhhppppppphhhhhhh	SeqCat03|150$1	170	27	48	15.7928

#otherMatches

#Seq PSSM
GGCAUGCACAUUCAGCGUAUC	SeqCat01|169$1	su1	79	100	12.5713
AUGGAAGAGUAAGCCUUCCAU	SeqCat03|56$1	su1	9	30	14.2542
GCGAUUGGACCAGGCAACGCG	SeqCat01|31$1	su1	151	172	13.5952
AUGGAAGAGUAAGCCUUCCAU	SeqCat02|106$1	su1	11	32	17.6949
AUGGAAGAGUAAGCCUUCCAU	SeqCat03|53$1	su1	45	66	17.6949
AUGGAAGAGUAAGCCUUCCAU	SeqCat03|187$1	su1	8	29	17.6949
UUACAUUGAGAGUAAGUGUAA	SeqCat01|48$1	su1	152	173	15.7928
AUGGAAGAGUAAGCCUUCCAU	SeqCat02|199$1	su1	30	51	17.6949
AUGGAAGAGUAAGCCUUCCAU	SeqCat03|132$1	su1	23	44	13.5503
AUGGAAGAGUAAGCCUUCCAU	SeqCat03|78$1	su1	24	45	17.6949
AUGGAAGAGUAAGCCUUCCAU	SeqCat03|19$1	su1	33	54	15.7928
AUGGAAGAGUAAGCCUUCCAU	SeqCat03|1$1	su1	8	29	17.6949
AUGGAAGAGUAAGCCUUCCAU	SeqCat02|96$1	su1	30	51	17.6949
AUGGAAGAGUAAGCCUUCCAU	SeqCat02|196$1	su1	5	26	17.6949
AUGGAAGAGUAAGCCUUCCAU	SeqCat03|139$1	su1	18	39	15.7928
AUGGAAGAGUAAGCCUUCCAU	SeqCat03|110$1	su1	14	35	15.7928
AUGGAAGAGUAAGCCUUCCAU	SeqCat03|6$1	su1	24	45	17.6949
AUGGAAGAGUAAGCCUUCCAU	SeqCat03|70$1	su1	10	31	16.8413
CGCUGCGUAUCUGGAGCAGAA	SeqCat01|39$1	su1	56	77	8.2431
AUGGAAGAGUAAGCCUUCCAU	SeqCat03|184$1	su1	41	62	17.6949
AUGGAAGAGUAAGCCUUCCAU	SeqCat02|171$1	su1	4	25	17.6949
UCCUUGGAUUGACCCCAUGGA	SeqCat01|94$1	su1	148	169	16.2473
GAUCAUAAUUAACCUAUGAUU	SeqCat03|46$1	su1	96	117	17.6949
UUUACGCCCAUCUCACGUAUG	SeqCat01|92$1	su1	145	166	8.4401
CCGCUCUCGGGCUCAGCGGGU	SeqCat01|54$1	su1	132	153	9.0897
AACAGUGAUACGGUCCCGCUG	SeqCat03|133$1	su1	60	81	9.1557
AUGGAAGAGUAAGCCUUCCAU	SeqCat03|188$1	su1	43	64	17.6949
AUGGAAGAGUAAGCCUUCCAU	SeqCat03|26$1	su1	22	43	17.6949
AUGGAAGAGUAAGCCUUCCAU	SeqCat03|73$1	su1	10	31	17.6949
AUGGAAGAGUAAGCCUUCCAU	SeqCat03|81$1	su1	15	36	17.6949
AUGGAAGAGUAAGCCUUCCAU	SeqCat02|183$1	su1	48	69	17.6949
AUGGAAGAGUAAGCCUUCCAU	SeqCat02|111$1	su1	47	68	17.6949
UUAAGAUCAGUCUUGUCUUUG	SeqCat01|5$1	su1	125	146	13.9903
AUGGAAGAGUAAGCCUUCCAU	SeqCat03|47$1	su1	3	24	15.7928
AUGGAAGAGUAAGCCUUCCAU	SeqCat02|159$1	su1	23	44	17.6949
AUGGAAGAGUAAGCCUUCCAU	SeqCat02|84$1	su1	33	54	17.6949
UGGUCUGUACAACUCGGGCGC	SeqCat01|166$1	su1	45	66	13.6942
AUGGAAGAGUAAGCCUUCCAU	SeqCat03|122$1	su1	1	22	17.6949
AUGGAAGAGUAAGCCUUCCAU	SeqCat02|151$1	su1	40	61	17.6949
AUGGAAGAGUAAGCCUUCCAU	SeqCat03|145$1	su1	7	28	11.3784
CAGUCCUACCCUCAAGGACAA	SeqCat01|127$1	su1	101	122	9.5307
AUGGAAGAGUAAGCCUUCCAU	SeqCat02|190$1	su1	0	21	17.6949
CGUAUCCCUGACCACGAAGCG	SeqCat01|90$1	su1	161	182	8.7549
AUGGAAGAGUAAGCCUUCCAU	SeqCat03|176$1	su1	33	54	17.6949
AUGGAAGAGUAAGCCUUCCAU	SeqCat03|112$1	su1	34	55	12.9089
AGAGUAAGCCUUCCAUUACUU	SeqCat03|129$1	su1	28	49	8.0064
AUGGAAGAGUAAGCCUUCCAU	SeqCat02|30$1	su1	45	66	17.6949
AUGGAAGAGUAAGCCUUCCAU	SeqCat03|59$1	su1	18	39	16.8413
GGGACUCAAUGAAGGAAGCCU	SeqCat01|98$1	su1	84	105	12.1374
AUGGAAGAGUAAGCCUUCCAU	SeqCat03|130$1	su1	37	58	17.6949
AUGGAAGAGUAAGCCUUCCAU	SeqCat02|126$1	su1	47	68	17.6949
AUGGAAGAGUAAGCCUUCCAU	SeqCat02|195$1	su1	36	57	16.8413
AUGGAAGAGUAAGCCUUCCAU	SeqCat03|50$1	su1	42	63	17.6949
AUGGAAGAGUAAGCCUUCCAU	SeqCat02|198$1	su1	39	60	17.6949
AUGGAAGAGUAAGCCUUCCAU	SeqCat02|97$1	su1	46	67	15.7928
AUGGAAGAGUAAGCCUUCCAU	SeqCat02|45$1	su1	37	58	15.7928
AUGGAAGAGUAAGCCUUCCAU	SeqCat03|120$1	su1	33	54	17.6949
AUGGAAGAGUAAGCCUUCCAU	SeqCat02|82$1	su1	14	35	15.7928
AUGGAAGAGUAAGCCUUCCAU	SeqCat02|23$1	su1	37	58	17.6949
AUGGAAGAGUAAGCCUUCCAU	SeqCat03|85$1	su1	37	58	17.6949
GCUCGCUGGUCCUAAGAUAGU	SeqCat03|125$1	su1	77	98	13.3308
AUGGAAGAGUAAGCCUUCCAU	SeqCat02|15$1	su1	11	32	17.6949
GGGUCCCAACGCCAUGGACCU	SeqCat03|29$1	su1	130	151	11.1186
AUGGAAGAGUAAGCCUUCCAU	SeqCat03|8$1	su1	8	29	17.6949
AUGGAAGAGUAAGCCUUCCAU	SeqCat02|116$1	su1	27	48	15.7928
AUGGAAGAGUAAGCCUUCCAU	SeqCat03|20$1	su1	2	23	17.6949
AUGGAAGAGUAAGCCUUCCAU	SeqCat02|197$1	su1	39	60	17.6949
AUGGAAGAGUAAGCCUUCCAU	SeqCat03|136$1	su1	27	48	17.6949
AUGGAAGAGUAAGCCUUCCAU	SeqCat02|117$1	su1	14	35	17.6949
UAAGUGAAUUUCGAUCACAUG	SeqCat01|43$1	su1	87	108	12.2037
GUGGCGUCAUUCCUUUACGCU	SeqCat01|12$1	su1	39	60	9.6032
AUGGAAGAGUAAGCCUUCCAU	SeqCat02|91$1	su1	15	36	17.6949
CGAAUGGAGCAGAGUCAUUCC	SeqCat01|55$1	su1	4	25	13.1332
AUGGAAGAGUAAGCCUUCCAU	SeqCat03|160$1	su1	12	33	13.0531
AUGGAAGAGUAAGCCUUCCAU	SeqCat03|108$1	su1	21	42	17.6949
AUGGAAGAGUAAGCCUUCCAU	SeqCat02|180$1	su1	42	63	17.6949
AUGGAAGAGUAAGCCUUCCAU	SeqCat02|52$1	su1	20	41	16.8413
AUGGAAGAGUAAGCCUUCCAU	SeqCat03|148$1	su1	14	35	17.6949
ACUAUGGACUAAACCCAAGAA	SeqCat01|60$1	su1	108	129	13.0964
GCUUCUGAUUGAAACAGUACC	SeqCat01|153$1	su1	159	180	13.6589
UACGUCAUUCGGAUUGACGUC	SeqCat01|128$1	su1	164	185	12.9089
AUGGAAGAGUAAGCCUUCCAU	SeqCat02|177$1	su1	18	39	17.6949
AUGGAAGAGUAAGCCUUCCAU	SeqCat02|164$1	su1	39	60	17.6949
AUGGAAGAGUAAGCCUUCCAU	SeqCat02|17$1	su1	22	43	15.7928
AUGGAAGAGUAAGCCUUCCAU	SeqCat02|185$1	su1	48	69	17.6949
CUUAUAUGUAGCCAAUAUCUC	SeqCat01|95$1	su1	141	162	12.2037
AUACCCGGAAAGCGCGCGUAU	SeqCat01|49$1	su1	2	23	13.0418
AUGGAAGAGUAAGCCUUCCAU	SeqCat03|93$1	su1	4	25	17.6949
AUGGAAGAGUAAGCCUUCCAU	SeqCat02|131$1	su1	47	68	17.6949
AUGGAAGAGUAAGCCUUCCAU	SeqCat02|57$1	su1	43	64	17.6949
AUGGAAGAGUAAGCCUUCCAU	SeqCat02|174$1	su1	3	24	17.6949
CUUUAUGAAGACUGCAUAAUC	SeqCat03|114$1	su1	134	155	13.1467
AGACUGAGGCGCAGUCGGUCA	SeqCat02|119$1	su1	83	104	14.2542
AUGGAAGAGUAAGCCUUCCAU	SeqCat03|61$1	su1	28	49	17.6949
UGGUACUGAAAAGAGGUGCCU	SeqCat01|152$1	su1	60	81	14.0274
AUGGAAGAGUAAGCCUUCCAU	SeqCat03|0$1	su1	20	41	17.6949
AUGGAAGAGUAAGCCUUCCAU	SeqCat02|41$1	su1	22	43	17.6949
AUGGAAGAGUAAGCCUUCCAU	SeqCat03|167$1	su1	14	35	15.7928
AUGGAAGAGUAAGCCUUCCAU	SeqCat03|191$1	su1	4	25	12.0374
AUGGAAGAGUAAGCCUUCCAU	SeqCat02|182$1	su1	30	51	15.7928
AAUGUCUAAAGUCGAGACGGU	SeqCat03|86$1	su1	62	83	12.2598
AUGGAAGAGUAAGCCUUCCAU	SeqCat03|89$1	su1	20	41	15.7928
AUGGAAGAGUAAGCCUUCCAU	SeqCat03|7$1	su1	12	33	16.0419
AUGGAAGAGUAAGCCUUCCAU	SeqCat03|149$1	su1	22	43	17.6949
GGCAGUUACGUCGGGGCAGCC	SeqCat01|161$1	su1	85	106	15.0182
AUGGAAGAGUAAGCCUUCCAU	SeqCat03|103$1	su1	41	62	17.6949
AUGGAAGAGUAAGCCUUCCAU	SeqCat03|34$1	su1	42	63	17.6949
GUCGGGAGCUUUAGUCCAAAC	SeqCat01|88$1	su1	21	42	14.5722
AUGGAAGAGUAAGCCUUCCAU	SeqCat02|40$1	su1	15	36	17.6949
AUGGAAGAGUAAGCCUUCCAU	SeqCat03|137$1	su1	47	68	17.6949
AUGGAAGAGUAAGCCUUCCAU	SeqCat03|178$1	su1	5	26	15.7928
ACGCGUCAAAAUAGGACCUAA	SeqCat02|168$1	su1	117	138	14.7688
GAAGUAUUAUCAAAUUGCAUC	SeqCat01|72$1	su1	0	21	9.2275
CCUGUUGGAAUCACUUGACGG	SeqCat01|16$1	su1	121	142	7.7669
GGGAAUUCAUAAUCAGUUCAG	SeqCat01|44$1	su1	56	77	13.6285
AUGGAAGAGUAAGCCUUCCAU	SeqCat02|144$1	su1	13	34	17.6949
AUGGAAGAGUAAGCCUUCCAU	SeqCat03|113$1	su1	42	63	17.6949
AUGGAAGAGUAAGCCUUCCAU	SeqCat03|162$1	su1	6	27	17.6949
UGACGCAUUACGAGAGCGUCA	SeqCat01|75$1	su1	115	136	9.5543
AUGGAAGAGUAAGCCUUCCAU	SeqCat03|27$1	su1	42	63	17.6949
AUGGAAGAGUAAGCCUUCCAU	SeqCat02|170$1	su1	43	64	17.6949
AUGGAAGAGUAAGCCUUCCAU	SeqCat03|135$1	su1	30	51	17.6949
AUGGAAGAGUAAGCCUUCCAU	SeqCat03|58$1	su1	44	65	17.6949
AUGGAAGAGUAAGCCUUCCAU	SeqCat02|142$1	su1	14	35	17.6949
AUGGAAGAGUAAGCCUUCCAU	SeqCat02|107$1	su1	1	22	17.6949
ACUUAUUGACUGUAAAUAAGU	SeqCat01|172$1	su1	140	161	17.6949
AUGGAAGAGUAAGCCUUCCAU	SeqCat03|87$1	su1	39	60	15.7928
AUGGAAGAGUAAGCCUUCCAU	SeqCat02|109$1	su1	18	39	15.7928
AUGGAAGAGUAAGCCUUCCAU	SeqCat03|79$1	su1	25	46	15.7928
AUGGAAGAGUAAGCCUUCCAU	SeqCat03|134$1	su1	38	59	17.6949
AUGGAAGAGUAAGCCUUCCAU	SeqCat03|150$1	su1	27	48	15.7928

#PSSM
g : 0.53	h : 0.13	d : 0.04	i : 0.03	c : 0.03	! : 0.03	: : 0.02	e : 0.02	# : 0.02	" : 0.01	E : 0.01	f : 0.01	% : 0.00	+ : 0.00	A : 0.00	a : 0.00	= : 0.00	b : 0.00	
g : 0.53	h : 0.13	f : 0.07	i : 0.03	d : 0.02	! : 0.02	# : 0.02	: : 0.02	" : 0.02	e : 0.02	c : 0.02	b : 0.01	% : 0.00	E : 0.00	= : 0.00	
g : 0.53	h : 0.13	e : 0.07	f : 0.07	i : 0.03	d : 0.03	: : 0.01	[ : 0.01	c : 0.01	# : 0.01	b : 0.00	" : 0.00	= : 0.00	! : 0.00	a : 0.00	
g : 0.53	h : 0.13	e : 0.07	f : 0.07	d : 0.05	[ : 0.04	i : 0.03	! : 0.02	" : 0.00	= : 0.00	c : 0.00	
g : 0.53	h : 0.13	e : 0.07	f : 0.07	d : 0.05	c : 0.05	i : 0.03	! : 0.01	b : 0.00	[ : 0.00	= : 0.00	
g : 0.53	h : 0.13	f : 0.07	e : 0.06	d : 0.05	c : 0.05	i : 0.03	b : 0.02	r : 0.00	= : 0.00	
g : 0.52	h : 0.12	e : 0.06	f : 0.06	r : 0.05	c : 0.05	d : 0.04	i : 0.03	b : 0.02	= : 0.00	
p : 0.89	r : 0.07	q : 0.02	g : 0.00	
p : 0.89	r : 0.07	q : 0.02	o : 0.00	
p : 0.89	r : 0.07	q : 0.02	o : 0.00	
p : 0.89	r : 0.07	q : 0.02	o : 0.00	
p : 0.89	r : 0.07	q : 0.02	o : 0.00	
p : 0.89	r : 0.07	q : 0.02	o : 0.00	
p : 0.89	r : 0.07	q : 0.02	o : 0.00	
g : 0.50	h : 0.12	r : 0.06	f : 0.06	e : 0.05	c : 0.05	d : 0.04	i : 0.03	q : 0.02	b : 0.02	= : 0.00	
g : 0.53	h : 0.13	f : 0.07	d : 0.05	e : 0.05	c : 0.05	i : 0.03	b : 0.02	r : 0.01	= : 0.00	
g : 0.53	h : 0.13	e : 0.07	f : 0.07	d : 0.05	c : 0.05	i : 0.03	2 : 0.01	b : 0.00	] : 0.00	= : 0.00	
g : 0.53	h : 0.13	e : 0.07	f : 0.07	d : 0.06	i : 0.03	2 : 0.02	] : 0.02	b : 0.00	= : 0.00	a : 0.00	c : 0.00	
g : 0.53	h : 0.13	f : 0.08	e : 0.07	d : 0.04	i : 0.03	c : 0.02	] : 0.02	2 : 0.01	b : 0.00	= : 0.00	
g : 0.53	h : 0.13	f : 0.08	d : 0.05	i : 0.03	c : 0.03	e : 0.03	4 : 0.01	3 : 0.01	] : 0.00	: : 0.00	2 : 0.00	a : 0.00	= : 0.00	b : 0.00	
g : 0.54	h : 0.13	d : 0.06	c : 0.04	e : 0.04	i : 0.03	f : 0.02	4 : 0.02	: : 0.02	] : 0.01	3 : 0.01	2 : 0.00	B : 0.00	= : 0.00	b : 0.00	

#score	0.0
#seq	139
#width	21
#escape	true
#onStep	-1
#minSteps	-1
#maxSteps	-1